<svg width="12" height="24" viewBox="0 0 12 24" fill="none" xmlns="http://www.w3.org/2000/svg">
    <g clip-path="url(#clip0)">
    <path d="M6.48872 4.63502C6.48872 4.74377 6.46242 4.85252 6.44739 4.95377C6.33091 5.80877 4.9708 5.81627 5.08727 4.95377C5.08727 4.86752 5.10981 4.76627 5.12484 4.66127C5.1549 4.44752 5.18496 4.20752 5.20374 3.95627C5.27137 3.02627 5.20374 1.95002 4.4523 1.51502C4.25306 1.40378 4.02657 1.35052 3.79854 1.36127H3.72715L3.58438 1.38002L3.66328 1.35752L3.55056 1.38002C2.7127 1.60502 2.352 0.292518 3.20114 0.0787675C3.54306 -0.00669513 3.89864 -0.0231867 4.24703 0.0302592C4.59542 0.0837051 4.92962 0.206014 5.23004 0.390018C6.61646 1.26002 6.65028 3.16127 6.48872 4.63502Z"  />
    <path d="M7.09364 24C9.05867 19.71 9.46821 14.4975 8.86329 9.9075C8.75058 9.05625 7.3867 9.04125 7.50318 9.9075C8.09306 14.385 7.73237 19.4963 5.75982 23.6438C3.31386 18.42 3.38149 11.85 5.18872 6.44625C5.463 5.6175 4.14797 5.26125 3.87369 6.07125C1.99507 11.6963 1.94999 18.4913 4.41849 23.9663C-2.0402 17.775 0.0713691 9.02625 1.50287 6.225C2.56617 4.14375 4.21935 4.35 5.12109 4.66125C5.34326 4.7372 5.55724 4.83519 5.75982 4.95375C5.98769 4.82111 6.22964 4.7142 6.48121 4.635C7.39422 4.33875 8.98728 4.2 10.0205 6.225C11.4633 9.03 13.5749 17.7938 7.09364 24Z"  />
    </g>
    <defs>
    <clipPath id="clip0">
    <rect width="11.5385" height="24" fill="white"/>
    </clipPath>
    </defs>
    </svg>
