<svg width="20" height="20" viewBox="0 0 20 20" fill="none" xmlns="http://www.w3.org/2000/svg">
<circle cx="10" cy="10" r="10" fill="#868686"/>
<path d="M6.25 6.25L13.75 13.75" stroke="white" stroke-width="2" stroke-linecap="round"/>
<path d="M6.25 13.75L13.75 6.25" stroke="white" stroke-width="2" stroke-linecap="round"/>
</svg>
