<svg width="19" height="24" viewBox="0 0 19 24" fill="none" xmlns="http://www.w3.org/2000/svg">
    <g clip-path="url(#clip0)">
    <path d="M4.40156 19.3088C1.70009 18.3038 0.0560362 15.6338 -1.10238e-05 12.63C-0.0710041 8.62501 2.21946 4.53751 5.20864 1.99126C6.43794 0.941262 8.04463 1.15633e-05 9.71484 0.0637616C11.2094 0.131262 12.2669 1.11376 12.9656 2.35876C13.0229 2.45626 13.0752 2.55376 13.1225 2.65126C10.7087 2.21251 8.31739 3.71626 6.72565 5.96251C4.11012 9.61501 2.95554 15 4.40156 19.3088Z"/>
    <path d="M13.9595 12.3263C13.3697 11.9033 12.6546 11.6931 11.9306 11.73C10.0026 11.8163 8.59391 13.5788 8.59391 15.45C8.59559 16.0701 8.74583 16.6806 9.03196 17.2301C9.3181 17.7797 9.73173 18.2521 10.238 18.6075C10.4624 18.7613 10.7045 18.8872 10.9591 18.9825C12.3842 17.838 13.4505 16.3056 14.0305 14.5688C14.1052 14.3663 14.1762 14.16 14.2397 13.9463C14.3033 13.7325 14.3668 13.53 14.4228 13.3163C14.4639 13.1625 14.505 13.0088 14.5387 12.8513C14.3647 12.6561 14.1706 12.4801 13.9595 12.3263ZM14.5723 4.76626L14.4938 4.70251C14.2676 4.53293 14.0262 4.3848 13.7727 4.26001C10.9554 2.87251 8.31367 5.62501 6.9947 8.11126C5.18624 11.5125 4.40531 16.0388 5.97837 19.6688C6.09026 19.9164 6.21498 20.158 6.35202 20.3925C7.46909 20.4637 8.58652 20.2589 9.6065 19.7963C9.38021 19.6521 9.16647 19.489 8.96756 19.3088C8.42959 18.8206 7.99865 18.2254 7.70211 17.5611C7.40558 16.8968 7.24993 16.1779 7.24504 15.45C7.24504 12.7838 9.35242 10.365 12.08 10.365C12.817 10.3599 13.5442 10.5349 14.1986 10.875C14.4147 10.9902 14.6209 11.1232 14.8152 11.2725C15.1304 9.10705 15.048 6.90198 14.5723 4.76626Z" />
    <path d="M15.4765 5.57251C15.1986 5.27829 14.8961 5.00855 14.5723 4.76626L14.4938 4.70251C14.2676 4.53293 14.0262 4.3848 13.7727 4.26001C14.3947 6.40725 14.5401 8.66527 14.1986 10.875C14.6535 11.1227 15.067 11.4403 15.4242 11.8163C15.8022 9.7538 15.8199 7.64106 15.4765 5.57251ZM14.5424 12.8475C14.3671 12.6534 14.1717 12.4787 13.9595 12.3263C13.8549 12.8213 13.7316 13.2975 13.5858 13.7625C12.9506 15.6975 11.8147 17.5125 10.223 18.6075C10.4474 18.7613 10.6896 18.8872 10.9441 18.9825C11.1749 19.0707 11.416 19.1287 11.6615 19.155C13.1652 17.7998 14.2766 16.0625 14.8787 14.1263C14.8799 14.1075 14.8799 14.0887 14.8787 14.07C14.931 13.9088 14.9758 13.7475 15.0206 13.5863C14.8875 13.3238 14.7272 13.0762 14.5424 12.8475ZM9.59528 19.7963C9.37287 19.6516 9.16289 19.4885 8.96755 19.3088C8.03576 19.6752 7.02798 19.804 6.03441 19.6838H5.97836C6.09071 19.9263 6.21543 20.1629 6.35201 20.3925C6.4867 20.629 6.63388 20.858 6.79292 21.0788C8.00837 21.0654 9.20137 20.7484 10.2641 20.1563C10.0314 20.0554 9.80768 19.935 9.59528 19.7963Z" fill="white"/>
    <path d="M14.5723 4.76626C14.8961 5.00855 15.1986 5.27829 15.4765 5.57251C17.9837 8.17501 18.9925 12.5213 19 15.9225C18.9215 19.3725 17.4083 22.875 13.8063 23.7488C12.5054 24.0656 11.1393 23.9802 9.88767 23.5037C8.63599 23.0272 7.55718 22.1818 6.79293 21.0788C6.63389 20.8581 6.48671 20.629 6.35202 20.3925C6.21498 20.158 6.09026 19.9164 5.97837 19.6688C4.40531 16.0388 5.18624 11.5125 6.9947 8.11126C8.31367 5.62501 10.9554 2.87251 13.7727 4.26001C14.0262 4.3848 14.2676 4.53293 14.4938 4.70251L14.5723 4.76626Z"/>
    </g>
    <defs>
    <clipPath id="clip0">
    <rect width="19" height="24" fill="white"/>
    </clipPath>
    </defs>
    </svg>
