<svg id="Layer_1" data-name="Layer 1" xmlns="http://www.w3.org/2000/svg" viewBox="0 0 64 64">
    <defs>
        <style>.cls-1{}.cls-2{}.cls-3{}</style>
    </defs>
    <title>tra-ca phe</title>
    <path class="cls-1" d="M14.61,24.4a.18.18,0,0,1-.07,0c-1.3-1.27-3.28-.24-4.09,1.08a5,5,0,0,0-.34,3.76c1,3.49,4.09,4.26,7.07,3.18A25.07,25.07,0,0,1,14.61,24.4ZM26,28.4c-.08.06,0,.09.14.12C26.11,28.39,26.08,28.31,26,28.4ZM26,34c-.29,0-.06.38,0,0a0,0,0,0,0,0,0Zm6.16,0a5.34,5.34,0,0,1,0-1.44V29c0-.15,0-.31,0-.47a9.8,9.8,0,0,0-1.23.05,1,1,0,0,1-1-1,.88.88,0,1,0-1.74,0,.87.87,0,0,1-.44.84h0a1,1,0,0,1-.56.16,10,10,0,0,1-1.08,0c0,.15,0,.4,0,.55v3.62a5.91,5.91,0,0,1,0,1.33,23.88,23.88,0,0,1,3.05,0,22.46,22.46,0,0,1,3.07,0Zm.21-5.45c-.25-.09-.21-.42-.21-.1v.05ZM32.31,34h-.1C32.38,34.43,32.34,34,32.31,34Zm0,0h-.1C32.38,34.43,32.34,34,32.31,34Zm.09-5.49c-.25-.09-.21-.42-.21-.1v.05ZM32.19,34a5.34,5.34,0,0,1,0-1.44V29c0-.15,0-.31,0-.47a9.8,9.8,0,0,0-1.23.05,1,1,0,0,1-1-1,.88.88,0,1,0-1.74,0,.87.87,0,0,1-.44.84h0a1,1,0,0,1-.56.16,10,10,0,0,1-1.08,0c0,.15,0,.4,0,.55v3.62a5.91,5.91,0,0,1,0,1.33,23.88,23.88,0,0,1,3.05,0,22.46,22.46,0,0,1,3.07,0ZM26,34c-.29,0-.06.38,0,0a0,0,0,0,0,0,0ZM26,28.4c-.08.06,0,.09.14.12C26.11,28.39,26.08,28.31,26,28.4Zm0,0c-.08.06,0,.09.14.12C26.11,28.39,26.08,28.31,26,28.4ZM26,34c-.29,0-.06.38,0,0a0,0,0,0,0,0,0Zm6.16,0a5.34,5.34,0,0,1,0-1.44V29c0-.15,0-.31,0-.47a9.8,9.8,0,0,0-1.23.05,1,1,0,0,1-1-1,.88.88,0,1,0-1.74,0,.87.87,0,0,1-.44.84h0a1,1,0,0,1-.56.16,10,10,0,0,1-1.08,0c0,.15,0,.4,0,.55v3.62a5.91,5.91,0,0,1,0,1.33,23.88,23.88,0,0,1,3.05,0,22.46,22.46,0,0,1,3.07,0Zm.21-5.45c-.25-.09-.21-.42-.21-.1v.05ZM32.31,34h-.1C32.38,34.43,32.34,34,32.31,34Zm0,0h-.1C32.38,34.43,32.34,34,32.31,34Zm.09-5.49c-.25-.09-.21-.42-.21-.1v.05ZM32.19,34a5.34,5.34,0,0,1,0-1.44V29c0-.15,0-.31,0-.47a9.8,9.8,0,0,0-1.23.05,1,1,0,0,1-1-1,.88.88,0,1,0-1.74,0,.87.87,0,0,1-.44.84h0a1,1,0,0,1-.56.16,10,10,0,0,1-1.08,0c0,.15,0,.4,0,.55v3.62a5.91,5.91,0,0,1,0,1.33,23.88,23.88,0,0,1,3.05,0,22.46,22.46,0,0,1,3.07,0ZM26,34c-.29,0-.06.38,0,0a0,0,0,0,0,0,0ZM26,28.4c-.08.06,0,.09.14.12C26.11,28.39,26.08,28.31,26,28.4Zm0,0c-.08.06,0,.09.14.12C26.11,28.39,26.08,28.31,26,28.4ZM26,34c-.29,0-.06.38,0,0a0,0,0,0,0,0,0Zm6.16,0a5.34,5.34,0,0,1,0-1.44V29c0-.15,0-.31,0-.47a9.8,9.8,0,0,0-1.23.05,1,1,0,0,1-1-1,.88.88,0,1,0-1.74,0,.87.87,0,0,1-.44.84h0a1,1,0,0,1-.56.16,10,10,0,0,1-1.08,0c0,.15,0,.4,0,.55v3.62a5.91,5.91,0,0,1,0,1.33,23.88,23.88,0,0,1,3.05,0,22.46,22.46,0,0,1,3.07,0Zm.21-5.45c-.25-.09-.21-.42-.21-.1v.05ZM32.31,34h-.1C32.38,34.43,32.34,34,32.31,34ZM30.14,20.91v3.84a2.57,2.57,0,0,1,1.72,1.77c1.09,0,2.11.23,2.32,1.58a21.91,21.91,0,0,1,0,3.34c0,1.86.52,4.44-2,4.59a36.74,36.74,0,0,1-6.38,0c-2.53-.31-1.72-4.09-1.72-5.87a6.48,6.48,0,0,1,.18-2.67,2,2,0,0,1,2-1,2.58,2.58,0,0,1,1.82-1.81v-3.8H16.31c.16,7,3.25,14.48,9.75,17.56a1,1,0,0,1,.5.86v1.19h9.16a14.94,14.94,0,0,1,2.63-9.22,1,1,0,0,1,.08-.11c2.5-3.47,6.78-6.74,11.25-6.09a24.78,24.78,0,0,0,.41-4.19ZM32.31,34h-.1C32.38,34.43,32.34,34,32.31,34Zm.09-5.49c-.25-.09-.21-.42-.21-.1v.05ZM32.19,34a5.34,5.34,0,0,1,0-1.44V29c0-.15,0-.31,0-.47a9.8,9.8,0,0,0-1.23.05,1,1,0,0,1-1-1,.88.88,0,1,0-1.74,0,.87.87,0,0,1-.44.84h0a1,1,0,0,1-.56.16,10,10,0,0,1-1.08,0c0,.15,0,.4,0,.55v3.62a5.91,5.91,0,0,1,0,1.33,23.88,23.88,0,0,1,3.05,0,22.46,22.46,0,0,1,3.07,0ZM26,34c-.29,0-.06.38,0,0a0,0,0,0,0,0,0ZM26,28.4c-.08.06,0,.09.14.12C26.11,28.39,26.08,28.31,26,28.4Zm0,0c-.08.06,0,.09.14.12C26.11,28.39,26.08,28.31,26,28.4ZM26,34c-.29,0-.06.38,0,0a0,0,0,0,0,0,0Zm6.16,0a5.34,5.34,0,0,1,0-1.44V29c0-.15,0-.31,0-.47a9.8,9.8,0,0,0-1.23.05,1,1,0,0,1-1-1,.88.88,0,1,0-1.74,0,.87.87,0,0,1-.44.84h0a1,1,0,0,1-.56.16,10,10,0,0,1-1.08,0c0,.15,0,.4,0,.55v3.62a5.91,5.91,0,0,1,0,1.33,23.88,23.88,0,0,1,3.05,0,22.46,22.46,0,0,1,3.07,0Zm.21-5.45c-.25-.09-.21-.42-.21-.1v.05ZM32.31,34h-.1C32.38,34.43,32.34,34,32.31,34Zm0,0h-.1C32.38,34.43,32.34,34,32.31,34Zm.09-5.49c-.25-.09-.21-.42-.21-.1v.05ZM32.19,34a5.34,5.34,0,0,1,0-1.44V29c0-.15,0-.31,0-.47a9.8,9.8,0,0,0-1.23.05,1,1,0,0,1-1-1,.88.88,0,1,0-1.74,0,.87.87,0,0,1-.44.84h0a1,1,0,0,1-.56.16,10,10,0,0,1-1.08,0c0,.15,0,.4,0,.55v3.62a5.91,5.91,0,0,1,0,1.33,23.88,23.88,0,0,1,3.05,0,22.46,22.46,0,0,1,3.07,0ZM26,34c-.29,0-.06.38,0,0a0,0,0,0,0,0,0ZM26,28.4c-.08.06,0,.09.14.12C26.11,28.39,26.08,28.31,26,28.4Zm0,0c-.08.06,0,.09.14.12C26.11,28.39,26.08,28.31,26,28.4ZM26,34c-.29,0-.06.38,0,0a0,0,0,0,0,0,0Zm6.16,0a5.34,5.34,0,0,1,0-1.44V29c0-.15,0-.31,0-.47a9.8,9.8,0,0,0-1.23.05,1,1,0,0,1-1-1,.88.88,0,1,0-1.74,0,.87.87,0,0,1-.44.84h0a1,1,0,0,1-.56.16,10,10,0,0,1-1.08,0c0,.15,0,.4,0,.55v3.62a5.91,5.91,0,0,1,0,1.33,23.88,23.88,0,0,1,3.05,0,22.46,22.46,0,0,1,3.07,0Zm.21-5.45c-.25-.09-.21-.42-.21-.1v.05ZM32.31,34h-.1C32.38,34.43,32.34,34,32.31,34Zm0,0h-.1C32.38,34.43,32.34,34,32.31,34Zm.09-5.49c-.25-.09-.21-.42-.21-.1v.05ZM32.19,34a5.34,5.34,0,0,1,0-1.44V29c0-.15,0-.31,0-.47a9.8,9.8,0,0,0-1.23.05,1,1,0,0,1-1-1,.88.88,0,1,0-1.74,0,.87.87,0,0,1-.44.84h0a1,1,0,0,1-.56.16,10,10,0,0,1-1.08,0c0,.15,0,.4,0,.55v3.62a5.91,5.91,0,0,1,0,1.33,23.88,23.88,0,0,1,3.05,0,22.46,22.46,0,0,1,3.07,0ZM26,34c-.29,0-.06.38,0,0a0,0,0,0,0,0,0ZM26,28.4c-.08.06,0,.09.14.12C26.11,28.39,26.08,28.31,26,28.4Zm0,0c-.08.06,0,.09.14.12C26.11,28.39,26.08,28.31,26,28.4ZM26,34c-.29,0-.06.38,0,0a0,0,0,0,0,0,0Zm6.16,0a5.34,5.34,0,0,1,0-1.44V29c0-.15,0-.31,0-.47a9.8,9.8,0,0,0-1.23.05,1,1,0,0,1-1-1,.88.88,0,1,0-1.74,0,.87.87,0,0,1-.44.84h0a1,1,0,0,1-.56.16,10,10,0,0,1-1.08,0c0,.15,0,.4,0,.55v3.62a5.91,5.91,0,0,1,0,1.33,23.88,23.88,0,0,1,3.05,0,22.46,22.46,0,0,1,3.07,0Zm.21-5.45c-.25-.09-.21-.42-.21-.1v.05ZM32.31,34h-.1C32.38,34.43,32.34,34,32.31,34Zm0,0h-.1C32.38,34.43,32.34,34,32.31,34Zm.09-5.49c-.25-.09-.21-.42-.21-.1v.05ZM32.19,34a5.34,5.34,0,0,1,0-1.44V29c0-.15,0-.31,0-.47a9.8,9.8,0,0,0-1.23.05,1,1,0,0,1-1-1,.88.88,0,1,0-1.74,0,.87.87,0,0,1-.44.84h0a1,1,0,0,1-.56.16,10,10,0,0,1-1.08,0c0,.15,0,.4,0,.55v3.62a5.91,5.91,0,0,1,0,1.33,23.88,23.88,0,0,1,3.05,0,22.46,22.46,0,0,1,3.07,0ZM26,34c-.29,0-.06.38,0,0a0,0,0,0,0,0,0ZM26,28.4c-.08.06,0,.09.14.12C26.11,28.39,26.08,28.31,26,28.4Zm-11.37-4a.18.18,0,0,1-.07,0c-1.3-1.27-3.28-.24-4.09,1.08a5,5,0,0,0-.34,3.76c1,3.49,4.09,4.26,7.07,3.18A25.07,25.07,0,0,1,14.61,24.4Zm0,0a.18.18,0,0,1-.07,0c-1.3-1.27-3.28-.24-4.09,1.08a5,5,0,0,0-.34,3.76c1,3.49,4.09,4.26,7.07,3.18A25.07,25.07,0,0,1,14.61,24.4ZM26,28.4c-.08.06,0,.09.14.12C26.11,28.39,26.08,28.31,26,28.4ZM26,34c-.29,0-.06.38,0,0a0,0,0,0,0,0,0Zm6.16,0a5.34,5.34,0,0,1,0-1.44V29c0-.15,0-.31,0-.47a9.8,9.8,0,0,0-1.23.05,1,1,0,0,1-1-1,.88.88,0,1,0-1.74,0,.87.87,0,0,1-.44.84h0a1,1,0,0,1-.56.16,10,10,0,0,1-1.08,0c0,.15,0,.4,0,.55v3.62a5.91,5.91,0,0,1,0,1.33,23.88,23.88,0,0,1,3.05,0,22.46,22.46,0,0,1,3.07,0Zm.21-5.45c-.25-.09-.21-.42-.21-.1v.05ZM32.31,34h-.1C32.38,34.43,32.34,34,32.31,34Zm0,0h-.1C32.38,34.43,32.34,34,32.31,34Zm.09-5.49c-.25-.09-.21-.42-.21-.1v.05ZM32.19,34a5.34,5.34,0,0,1,0-1.44V29c0-.15,0-.31,0-.47a9.8,9.8,0,0,0-1.23.05,1,1,0,0,1-1-1,.88.88,0,1,0-1.74,0,.87.87,0,0,1-.44.84h0a1,1,0,0,1-.56.16,10,10,0,0,1-1.08,0c0,.15,0,.4,0,.55v3.62a5.91,5.91,0,0,1,0,1.33,23.88,23.88,0,0,1,3.05,0,22.46,22.46,0,0,1,3.07,0ZM26,34c-.29,0-.06.38,0,0a0,0,0,0,0,0,0ZM26,28.4c-.08.06,0,.09.14.12C26.11,28.39,26.08,28.31,26,28.4Zm0,0c-.08.06,0,.09.14.12C26.11,28.39,26.08,28.31,26,28.4ZM26,34c-.29,0-.06.38,0,0a0,0,0,0,0,0,0Zm6.16,0a5.34,5.34,0,0,1,0-1.44V29c0-.15,0-.31,0-.47a9.8,9.8,0,0,0-1.23.05,1,1,0,0,1-1-1,.88.88,0,1,0-1.74,0,.87.87,0,0,1-.44.84h0a1,1,0,0,1-.56.16,10,10,0,0,1-1.08,0c0,.15,0,.4,0,.55v3.62a5.91,5.91,0,0,1,0,1.33,23.88,23.88,0,0,1,3.05,0,22.46,22.46,0,0,1,3.07,0Zm.21-5.45c-.25-.09-.21-.42-.21-.1v.05ZM32.31,34h-.1C32.38,34.43,32.34,34,32.31,34Zm0,0h-.1C32.38,34.43,32.34,34,32.31,34Zm.09-5.49c-.25-.09-.21-.42-.21-.1v.05ZM32.19,34a5.34,5.34,0,0,1,0-1.44V29c0-.15,0-.31,0-.47a9.8,9.8,0,0,0-1.23.05,1,1,0,0,1-1-1,.88.88,0,1,0-1.74,0,.87.87,0,0,1-.44.84h0a1,1,0,0,1-.56.16,10,10,0,0,1-1.08,0c0,.15,0,.4,0,.55v3.62a5.91,5.91,0,0,1,0,1.33,23.88,23.88,0,0,1,3.05,0,22.46,22.46,0,0,1,3.07,0ZM26,34c-.29,0-.06.38,0,0a0,0,0,0,0,0,0ZM26,28.4c-.08.06,0,.09.14.12C26.11,28.39,26.08,28.31,26,28.4Zm0,0c-.08.06,0,.09.14.12C26.11,28.39,26.08,28.31,26,28.4ZM26,34c-.29,0-.06.38,0,0a0,0,0,0,0,0,0Zm6.16,0a5.34,5.34,0,0,1,0-1.44V29c0-.15,0-.31,0-.47a9.8,9.8,0,0,0-1.23.05,1,1,0,0,1-1-1,.88.88,0,1,0-1.74,0,.87.87,0,0,1-.44.84h0a1,1,0,0,1-.56.16,10,10,0,0,1-1.08,0c0,.15,0,.4,0,.55v3.62a5.91,5.91,0,0,1,0,1.33,23.88,23.88,0,0,1,3.05,0,22.46,22.46,0,0,1,3.07,0Zm.21-5.45c-.25-.09-.21-.42-.21-.1v.05ZM32.31,34h-.1C32.38,34.43,32.34,34,32.31,34ZM30.14,20.91v3.84a2.57,2.57,0,0,1,1.72,1.77c1.09,0,2.11.23,2.32,1.58a21.91,21.91,0,0,1,0,3.34c0,1.86.52,4.44-2,4.59a36.74,36.74,0,0,1-6.38,0c-2.53-.31-1.72-4.09-1.72-5.87a6.48,6.48,0,0,1,.18-2.67,2,2,0,0,1,2-1,2.58,2.58,0,0,1,1.82-1.81v-3.8H16.31c.16,7,3.25,14.48,9.75,17.56a1,1,0,0,1,.5.86v1.19h9.16a14.94,14.94,0,0,1,2.63-9.22,1,1,0,0,1,.08-.11c2.5-3.47,6.78-6.74,11.25-6.09a24.78,24.78,0,0,0,.41-4.19ZM32.31,34h-.1C32.38,34.43,32.34,34,32.31,34Zm.09-5.49c-.25-.09-.21-.42-.21-.1v.05ZM32.19,34a5.34,5.34,0,0,1,0-1.44V29c0-.15,0-.31,0-.47a9.8,9.8,0,0,0-1.23.05,1,1,0,0,1-1-1,.88.88,0,1,0-1.74,0,.87.87,0,0,1-.44.84h0a1,1,0,0,1-.56.16,10,10,0,0,1-1.08,0c0,.15,0,.4,0,.55v3.62a5.91,5.91,0,0,1,0,1.33,23.88,23.88,0,0,1,3.05,0,22.46,22.46,0,0,1,3.07,0ZM26,34c-.29,0-.06.38,0,0a0,0,0,0,0,0,0ZM26,28.4c-.08.06,0,.09.14.12C26.11,28.39,26.08,28.31,26,28.4Zm0,0c-.08.06,0,.09.14.12C26.11,28.39,26.08,28.31,26,28.4ZM26,34c-.29,0-.06.38,0,0a0,0,0,0,0,0,0Zm6.16,0a5.34,5.34,0,0,1,0-1.44V29c0-.15,0-.31,0-.47a9.8,9.8,0,0,0-1.23.05,1,1,0,0,1-1-1,.88.88,0,1,0-1.74,0,.87.87,0,0,1-.44.84h0a1,1,0,0,1-.56.16,10,10,0,0,1-1.08,0c0,.15,0,.4,0,.55v3.62a5.91,5.91,0,0,1,0,1.33,23.88,23.88,0,0,1,3.05,0,22.46,22.46,0,0,1,3.07,0Zm.21-5.45c-.25-.09-.21-.42-.21-.1v.05ZM32.31,34h-.1C32.38,34.43,32.34,34,32.31,34Zm0,0h-.1C32.38,34.43,32.34,34,32.31,34Zm.09-5.49c-.25-.09-.21-.42-.21-.1v.05ZM32.19,34a5.34,5.34,0,0,1,0-1.44V29c0-.15,0-.31,0-.47a9.8,9.8,0,0,0-1.23.05,1,1,0,0,1-1-1,.88.88,0,1,0-1.74,0,.87.87,0,0,1-.44.84h0a1,1,0,0,1-.56.16,10,10,0,0,1-1.08,0c0,.15,0,.4,0,.55v3.62a5.91,5.91,0,0,1,0,1.33,23.88,23.88,0,0,1,3.05,0,22.46,22.46,0,0,1,3.07,0ZM26,34c-.29,0-.06.38,0,0a0,0,0,0,0,0,0ZM26,28.4c-.08.06,0,.09.14.12C26.11,28.39,26.08,28.31,26,28.4Zm0,0c-.08.06,0,.09.14.12C26.11,28.39,26.08,28.31,26,28.4ZM26,34c-.29,0-.06.38,0,0a0,0,0,0,0,0,0Zm6.16,0a5.34,5.34,0,0,1,0-1.44V29c0-.15,0-.31,0-.47a9.8,9.8,0,0,0-1.23.05,1,1,0,0,1-1-1,.88.88,0,1,0-1.74,0,.87.87,0,0,1-.44.84h0a1,1,0,0,1-.56.16,10,10,0,0,1-1.08,0c0,.15,0,.4,0,.55v3.62a5.91,5.91,0,0,1,0,1.33,23.88,23.88,0,0,1,3.05,0,22.46,22.46,0,0,1,3.07,0Zm.21-5.45c-.25-.09-.21-.42-.21-.1v.05ZM32.31,34h-.1C32.38,34.43,32.34,34,32.31,34Zm0,0h-.1C32.38,34.43,32.34,34,32.31,34Zm.09-5.49c-.25-.09-.21-.42-.21-.1v.05ZM32.19,34a5.34,5.34,0,0,1,0-1.44V29c0-.15,0-.31,0-.47a9.8,9.8,0,0,0-1.23.05,1,1,0,0,1-1-1,.88.88,0,1,0-1.74,0,.87.87,0,0,1-.44.84h0a1,1,0,0,1-.56.16,10,10,0,0,1-1.08,0c0,.15,0,.4,0,.55v3.62a5.91,5.91,0,0,1,0,1.33,23.88,23.88,0,0,1,3.05,0,22.46,22.46,0,0,1,3.07,0ZM26,34c-.29,0-.06.38,0,0a0,0,0,0,0,0,0ZM26,28.4c-.08.06,0,.09.14.12C26.11,28.39,26.08,28.31,26,28.4Zm0,0c-.08.06,0,.09.14.12C26.11,28.39,26.08,28.31,26,28.4ZM26,34c-.29,0-.06.38,0,0a0,0,0,0,0,0,0Zm6.16,0a5.34,5.34,0,0,1,0-1.44V29c0-.15,0-.31,0-.47a9.8,9.8,0,0,0-1.23.05,1,1,0,0,1-1-1,.88.88,0,1,0-1.74,0,.87.87,0,0,1-.44.84h0a1,1,0,0,1-.56.16,10,10,0,0,1-1.08,0c0,.15,0,.4,0,.55v3.62a5.91,5.91,0,0,1,0,1.33,23.88,23.88,0,0,1,3.05,0,22.46,22.46,0,0,1,3.07,0Zm.21-5.45c-.25-.09-.21-.42-.21-.1v.05ZM32.31,34h-.1C32.38,34.43,32.34,34,32.31,34Zm0,0h-.1C32.38,34.43,32.34,34,32.31,34Zm.09-5.49c-.25-.09-.21-.42-.21-.1v.05ZM32.19,34a5.34,5.34,0,0,1,0-1.44V29c0-.15,0-.31,0-.47a9.8,9.8,0,0,0-1.23.05,1,1,0,0,1-1-1,.88.88,0,1,0-1.74,0,.87.87,0,0,1-.44.84h0a1,1,0,0,1-.56.16,10,10,0,0,1-1.08,0c0,.15,0,.4,0,.55v3.62a5.91,5.91,0,0,1,0,1.33,23.88,23.88,0,0,1,3.05,0,22.46,22.46,0,0,1,3.07,0ZM26,34c-.29,0-.06.38,0,0a0,0,0,0,0,0,0ZM26,28.4c-.08.06,0,.09.14.12C26.11,28.39,26.08,28.31,26,28.4Zm-11.37-4a.18.18,0,0,1-.07,0c-1.3-1.27-3.28-.24-4.09,1.08a5,5,0,0,0-.34,3.76c1,3.49,4.09,4.26,7.07,3.18A25.07,25.07,0,0,1,14.61,24.4Zm0,0a.18.18,0,0,1-.07,0c-1.3-1.27-3.28-.24-4.09,1.08a5,5,0,0,0-.34,3.76c1,3.49,4.09,4.26,7.07,3.18A25.07,25.07,0,0,1,14.61,24.4ZM26,28.4c-.08.06,0,.09.14.12C26.11,28.39,26.08,28.31,26,28.4ZM26,34c-.29,0-.06.38,0,0a0,0,0,0,0,0,0Zm6.16,0a5.34,5.34,0,0,1,0-1.44V29c0-.15,0-.31,0-.47a9.8,9.8,0,0,0-1.23.05,1,1,0,0,1-1-1,.88.88,0,1,0-1.74,0,.87.87,0,0,1-.44.84h0a1,1,0,0,1-.56.16,10,10,0,0,1-1.08,0c0,.15,0,.4,0,.55v3.62a5.91,5.91,0,0,1,0,1.33,23.88,23.88,0,0,1,3.05,0,22.46,22.46,0,0,1,3.07,0Zm.21-5.45c-.25-.09-.21-.42-.21-.1v.05ZM32.31,34h-.1C32.38,34.43,32.34,34,32.31,34Zm0,0h-.1C32.38,34.43,32.34,34,32.31,34Zm.09-5.49c-.25-.09-.21-.42-.21-.1v.05ZM32.19,34a5.34,5.34,0,0,1,0-1.44V29c0-.15,0-.31,0-.47a9.8,9.8,0,0,0-1.23.05,1,1,0,0,1-1-1,.88.88,0,1,0-1.74,0,.87.87,0,0,1-.44.84h0a1,1,0,0,1-.56.16,10,10,0,0,1-1.08,0c0,.15,0,.4,0,.55v3.62a5.91,5.91,0,0,1,0,1.33,23.88,23.88,0,0,1,3.05,0,22.46,22.46,0,0,1,3.07,0ZM26,34c-.29,0-.06.38,0,0a0,0,0,0,0,0,0ZM26,28.4c-.08.06,0,.09.14.12C26.11,28.39,26.08,28.31,26,28.4Zm0,0c-.08.06,0,.09.14.12C26.11,28.39,26.08,28.31,26,28.4ZM26,34c-.29,0-.06.38,0,0a0,0,0,0,0,0,0Zm6.16,0a5.34,5.34,0,0,1,0-1.44V29c0-.15,0-.31,0-.47a9.8,9.8,0,0,0-1.23.05,1,1,0,0,1-1-1,.88.88,0,1,0-1.74,0,.87.87,0,0,1-.44.84h0a1,1,0,0,1-.56.16,10,10,0,0,1-1.08,0c0,.15,0,.4,0,.55v3.62a5.91,5.91,0,0,1,0,1.33,23.88,23.88,0,0,1,3.05,0,22.46,22.46,0,0,1,3.07,0Zm.21-5.45c-.25-.09-.21-.42-.21-.1v.05ZM32.31,34h-.1C32.38,34.43,32.34,34,32.31,34Zm0,0h-.1C32.38,34.43,32.34,34,32.31,34Zm.09-5.49c-.25-.09-.21-.42-.21-.1v.05ZM32.19,34a5.34,5.34,0,0,1,0-1.44V29c0-.15,0-.31,0-.47a9.8,9.8,0,0,0-1.23.05,1,1,0,0,1-1-1,.88.88,0,1,0-1.74,0,.87.87,0,0,1-.44.84h0a1,1,0,0,1-.56.16,10,10,0,0,1-1.08,0c0,.15,0,.4,0,.55v3.62a5.91,5.91,0,0,1,0,1.33,23.88,23.88,0,0,1,3.05,0,22.46,22.46,0,0,1,3.07,0ZM26,34c-.29,0-.06.38,0,0a0,0,0,0,0,0,0ZM26,28.4c-.08.06,0,.09.14.12C26.11,28.39,26.08,28.31,26,28.4Zm0,0c-.08.06,0,.09.14.12C26.11,28.39,26.08,28.31,26,28.4ZM26,34c-.29,0-.06.38,0,0a0,0,0,0,0,0,0Zm6.16,0a5.34,5.34,0,0,1,0-1.44V29c0-.15,0-.31,0-.47a9.8,9.8,0,0,0-1.23.05,1,1,0,0,1-1-1,.88.88,0,1,0-1.74,0,.87.87,0,0,1-.44.84h0a1,1,0,0,1-.56.16,10,10,0,0,1-1.08,0c0,.15,0,.4,0,.55v3.62a5.91,5.91,0,0,1,0,1.33,23.88,23.88,0,0,1,3.05,0,22.46,22.46,0,0,1,3.07,0Zm.21-5.45c-.25-.09-.21-.42-.21-.1v.05ZM32.31,34h-.1C32.38,34.43,32.34,34,32.31,34ZM30.14,20.91v3.84a2.57,2.57,0,0,1,1.72,1.77c1.09,0,2.11.23,2.32,1.58a21.91,21.91,0,0,1,0,3.34c0,1.86.52,4.44-2,4.59a36.74,36.74,0,0,1-6.38,0c-2.53-.31-1.72-4.09-1.72-5.87a6.48,6.48,0,0,1,.18-2.67,2,2,0,0,1,2-1,2.58,2.58,0,0,1,1.82-1.81v-3.8H16.31c.16,7,3.25,14.48,9.75,17.56a1,1,0,0,1,.5.86v1.19h9.16a14.94,14.94,0,0,1,2.63-9.22,1,1,0,0,1,.08-.11c2.5-3.47,6.78-6.74,11.25-6.09a24.78,24.78,0,0,0,.41-4.19ZM32.31,34h-.1C32.38,34.43,32.34,34,32.31,34Zm.09-5.49c-.25-.09-.21-.42-.21-.1v.05ZM32.19,34a5.34,5.34,0,0,1,0-1.44V29c0-.15,0-.31,0-.47a9.8,9.8,0,0,0-1.23.05,1,1,0,0,1-1-1,.88.88,0,1,0-1.74,0,.87.87,0,0,1-.44.84h0a1,1,0,0,1-.56.16,10,10,0,0,1-1.08,0c0,.15,0,.4,0,.55v3.62a5.91,5.91,0,0,1,0,1.33,23.88,23.88,0,0,1,3.05,0,22.46,22.46,0,0,1,3.07,0ZM26,34c-.29,0-.06.38,0,0a0,0,0,0,0,0,0ZM26,28.4c-.08.06,0,.09.14.12C26.11,28.39,26.08,28.31,26,28.4Zm0,0c-.08.06,0,.09.14.12C26.11,28.39,26.08,28.31,26,28.4ZM26,34c-.29,0-.06.38,0,0a0,0,0,0,0,0,0Zm6.16,0a5.34,5.34,0,0,1,0-1.44V29c0-.15,0-.31,0-.47a9.8,9.8,0,0,0-1.23.05,1,1,0,0,1-1-1,.88.88,0,1,0-1.74,0,.87.87,0,0,1-.44.84h0a1,1,0,0,1-.56.16,10,10,0,0,1-1.08,0c0,.15,0,.4,0,.55v3.62a5.91,5.91,0,0,1,0,1.33,23.88,23.88,0,0,1,3.05,0,22.46,22.46,0,0,1,3.07,0Zm.21-5.45c-.25-.09-.21-.42-.21-.1v.05ZM32.31,34h-.1C32.38,34.43,32.34,34,32.31,34Zm0,0h-.1C32.38,34.43,32.34,34,32.31,34Zm.09-5.49c-.25-.09-.21-.42-.21-.1v.05ZM32.19,34a5.34,5.34,0,0,1,0-1.44V29c0-.15,0-.31,0-.47a9.8,9.8,0,0,0-1.23.05,1,1,0,0,1-1-1,.88.88,0,1,0-1.74,0,.87.87,0,0,1-.44.84h0a1,1,0,0,1-.56.16,10,10,0,0,1-1.08,0c0,.15,0,.4,0,.55v3.62a5.91,5.91,0,0,1,0,1.33,23.88,23.88,0,0,1,3.05,0,22.46,22.46,0,0,1,3.07,0ZM26,34c-.29,0-.06.38,0,0a0,0,0,0,0,0,0ZM26,28.4c-.08.06,0,.09.14.12C26.11,28.39,26.08,28.31,26,28.4Zm0,0c-.08.06,0,.09.14.12C26.11,28.39,26.08,28.31,26,28.4ZM26,34c-.29,0-.06.38,0,0a0,0,0,0,0,0,0Zm6.16,0a5.34,5.34,0,0,1,0-1.44V29c0-.15,0-.31,0-.47a9.8,9.8,0,0,0-1.23.05,1,1,0,0,1-1-1,.88.88,0,1,0-1.74,0,.87.87,0,0,1-.44.84h0a1,1,0,0,1-.56.16,10,10,0,0,1-1.08,0c0,.15,0,.4,0,.55v3.62a5.91,5.91,0,0,1,0,1.33,23.88,23.88,0,0,1,3.05,0,22.46,22.46,0,0,1,3.07,0Zm.21-5.45c-.25-.09-.21-.42-.21-.1v.05ZM32.31,34h-.1C32.38,34.43,32.34,34,32.31,34Zm0,0h-.1C32.38,34.43,32.34,34,32.31,34Zm.09-5.49c-.25-.09-.21-.42-.21-.1v.05ZM32.19,34a5.34,5.34,0,0,1,0-1.44V29c0-.15,0-.31,0-.47a9.8,9.8,0,0,0-1.23.05,1,1,0,0,1-1-1,.88.88,0,1,0-1.74,0,.87.87,0,0,1-.44.84h0a1,1,0,0,1-.56.16,10,10,0,0,1-1.08,0c0,.15,0,.4,0,.55v3.62a5.91,5.91,0,0,1,0,1.33,23.88,23.88,0,0,1,3.05,0,22.46,22.46,0,0,1,3.07,0ZM26,34c-.29,0-.06.38,0,0a0,0,0,0,0,0,0ZM26,28.4c-.08.06,0,.09.14.12C26.11,28.39,26.08,28.31,26,28.4Zm0,0c-.08.06,0,.09.14.12C26.11,28.39,26.08,28.31,26,28.4ZM26,34c-.29,0-.06.38,0,0a0,0,0,0,0,0,0Zm6.16,0a5.34,5.34,0,0,1,0-1.44V29c0-.15,0-.31,0-.47a9.8,9.8,0,0,0-1.23.05,1,1,0,0,1-1-1,.88.88,0,1,0-1.74,0,.87.87,0,0,1-.44.84h0a1,1,0,0,1-.56.16,10,10,0,0,1-1.08,0c0,.15,0,.4,0,.55v3.62a5.91,5.91,0,0,1,0,1.33,23.88,23.88,0,0,1,3.05,0,22.46,22.46,0,0,1,3.07,0Zm.21-5.45c-.25-.09-.21-.42-.21-.1v.05ZM32.31,34h-.1C32.38,34.43,32.34,34,32.31,34Zm0,0h-.1C32.38,34.43,32.34,34,32.31,34Zm.09-5.49c-.25-.09-.21-.42-.21-.1v.05ZM32.19,34a5.34,5.34,0,0,1,0-1.44V29c0-.15,0-.31,0-.47a9.8,9.8,0,0,0-1.23.05,1,1,0,0,1-1-1,.88.88,0,1,0-1.74,0,.87.87,0,0,1-.44.84h0a1,1,0,0,1-.56.16,10,10,0,0,1-1.08,0c0,.15,0,.4,0,.55v3.62a5.91,5.91,0,0,1,0,1.33,23.88,23.88,0,0,1,3.05,0,22.46,22.46,0,0,1,3.07,0ZM26,34c-.29,0-.06.38,0,0a0,0,0,0,0,0,0ZM26,28.4c-.08.06,0,.09.14.12C26.11,28.39,26.08,28.31,26,28.4Zm-11.37-4a.18.18,0,0,1-.07,0c-1.3-1.27-3.28-.24-4.09,1.08a5,5,0,0,0-.34,3.76c1,3.49,4.09,4.26,7.07,3.18A25.07,25.07,0,0,1,14.61,24.4Zm0,0a.18.18,0,0,1-.07,0c-1.3-1.27-3.28-.24-4.09,1.08a5,5,0,0,0-.34,3.76c1,3.49,4.09,4.26,7.07,3.18A25.07,25.07,0,0,1,14.61,24.4ZM26,28.4c-.08.06,0,.09.14.12C26.11,28.39,26.08,28.31,26,28.4ZM26,34c-.29,0-.06.38,0,0a0,0,0,0,0,0,0Zm6.16,0a5.34,5.34,0,0,1,0-1.44V29c0-.15,0-.31,0-.47a9.8,9.8,0,0,0-1.23.05,1,1,0,0,1-1-1,.88.88,0,1,0-1.74,0,.87.87,0,0,1-.44.84h0a1,1,0,0,1-.56.16,10,10,0,0,1-1.08,0c0,.15,0,.4,0,.55v3.62a5.91,5.91,0,0,1,0,1.33,23.88,23.88,0,0,1,3.05,0,22.46,22.46,0,0,1,3.07,0Zm.21-5.45c-.25-.09-.21-.42-.21-.1v.05ZM32.31,34h-.1C32.38,34.43,32.34,34,32.31,34Zm0,0h-.1C32.38,34.43,32.34,34,32.31,34Zm.09-5.49c-.25-.09-.21-.42-.21-.1v.05ZM32.19,34a5.34,5.34,0,0,1,0-1.44V29c0-.15,0-.31,0-.47a9.8,9.8,0,0,0-1.23.05,1,1,0,0,1-1-1,.88.88,0,1,0-1.74,0,.87.87,0,0,1-.44.84h0a1,1,0,0,1-.56.16,10,10,0,0,1-1.08,0c0,.15,0,.4,0,.55v3.62a5.91,5.91,0,0,1,0,1.33,23.88,23.88,0,0,1,3.05,0,22.46,22.46,0,0,1,3.07,0ZM26,34c-.29,0-.06.38,0,0a0,0,0,0,0,0,0ZM26,28.4c-.08.06,0,.09.14.12C26.11,28.39,26.08,28.31,26,28.4Zm0,0c-.08.06,0,.09.14.12C26.11,28.39,26.08,28.31,26,28.4ZM26,34c-.29,0-.06.38,0,0a0,0,0,0,0,0,0Zm6.16,0a5.34,5.34,0,0,1,0-1.44V29c0-.15,0-.31,0-.47a9.8,9.8,0,0,0-1.23.05,1,1,0,0,1-1-1,.88.88,0,1,0-1.74,0,.87.87,0,0,1-.44.84h0a1,1,0,0,1-.56.16,10,10,0,0,1-1.08,0c0,.15,0,.4,0,.55v3.62a5.91,5.91,0,0,1,0,1.33,23.88,23.88,0,0,1,3.05,0,22.46,22.46,0,0,1,3.07,0Zm.21-5.45c-.25-.09-.21-.42-.21-.1v.05ZM32.31,34h-.1C32.38,34.43,32.34,34,32.31,34Zm0,0h-.1C32.38,34.43,32.34,34,32.31,34Zm.09-5.49c-.25-.09-.21-.42-.21-.1v.05ZM32.19,34a5.34,5.34,0,0,1,0-1.44V29c0-.15,0-.31,0-.47a9.8,9.8,0,0,0-1.23.05,1,1,0,0,1-1-1,.88.88,0,1,0-1.74,0,.87.87,0,0,1-.44.84h0a1,1,0,0,1-.56.16,10,10,0,0,1-1.08,0c0,.15,0,.4,0,.55v3.62a5.91,5.91,0,0,1,0,1.33,23.88,23.88,0,0,1,3.05,0,22.46,22.46,0,0,1,3.07,0ZM26,34c-.29,0-.06.38,0,0a0,0,0,0,0,0,0ZM26,28.4c-.08.06,0,.09.14.12C26.11,28.39,26.08,28.31,26,28.4Zm0,0c-.08.06,0,.09.14.12C26.11,28.39,26.08,28.31,26,28.4ZM26,34c-.29,0-.06.38,0,0a0,0,0,0,0,0,0Zm6.16,0a5.34,5.34,0,0,1,0-1.44V29c0-.15,0-.31,0-.47a9.8,9.8,0,0,0-1.23.05,1,1,0,0,1-1-1,.88.88,0,1,0-1.74,0,.87.87,0,0,1-.44.84h0a1,1,0,0,1-.56.16,10,10,0,0,1-1.08,0c0,.15,0,.4,0,.55v3.62a5.91,5.91,0,0,1,0,1.33,23.88,23.88,0,0,1,3.05,0,22.46,22.46,0,0,1,3.07,0Zm.21-5.45c-.25-.09-.21-.42-.21-.1v.05ZM32.31,34h-.1C32.38,34.43,32.34,34,32.31,34ZM30.14,20.91v3.84a2.57,2.57,0,0,1,1.72,1.77c1.09,0,2.11.23,2.32,1.58a21.91,21.91,0,0,1,0,3.34c0,1.86.52,4.44-2,4.59a36.74,36.74,0,0,1-6.38,0c-2.53-.31-1.72-4.09-1.72-5.87a6.48,6.48,0,0,1,.18-2.67,2,2,0,0,1,2-1,2.58,2.58,0,0,1,1.82-1.81v-3.8H16.31c.16,7,3.25,14.48,9.75,17.56a1,1,0,0,1,.5.86v1.19h9.16a14.94,14.94,0,0,1,2.63-9.22,1,1,0,0,1,.08-.11c2.5-3.47,6.78-6.74,11.25-6.09a24.78,24.78,0,0,0,.41-4.19ZM32.31,34h-.1C32.38,34.43,32.34,34,32.31,34Zm.09-5.49c-.25-.09-.21-.42-.21-.1v.05ZM32.19,34a5.34,5.34,0,0,1,0-1.44V29c0-.15,0-.31,0-.47a9.8,9.8,0,0,0-1.23.05,1,1,0,0,1-1-1,.88.88,0,1,0-1.74,0,.87.87,0,0,1-.44.84h0a1,1,0,0,1-.56.16,10,10,0,0,1-1.08,0c0,.15,0,.4,0,.55v3.62a5.91,5.91,0,0,1,0,1.33,23.88,23.88,0,0,1,3.05,0,22.46,22.46,0,0,1,3.07,0ZM26,34c-.29,0-.06.38,0,0a0,0,0,0,0,0,0ZM26,28.4c-.08.06,0,.09.14.12C26.11,28.39,26.08,28.31,26,28.4Zm0,0c-.08.06,0,.09.14.12C26.11,28.39,26.08,28.31,26,28.4ZM26,34c-.29,0-.06.38,0,0a0,0,0,0,0,0,0Zm6.16,0a5.34,5.34,0,0,1,0-1.44V29c0-.15,0-.31,0-.47a9.8,9.8,0,0,0-1.23.05,1,1,0,0,1-1-1,.88.88,0,1,0-1.74,0,.87.87,0,0,1-.44.84h0a1,1,0,0,1-.56.16,10,10,0,0,1-1.08,0c0,.15,0,.4,0,.55v3.62a5.91,5.91,0,0,1,0,1.33,23.88,23.88,0,0,1,3.05,0,22.46,22.46,0,0,1,3.07,0Zm.21-5.45c-.25-.09-.21-.42-.21-.1v.05ZM32.31,34h-.1C32.38,34.43,32.34,34,32.31,34Zm0,0h-.1C32.38,34.43,32.34,34,32.31,34Zm.09-5.49c-.25-.09-.21-.42-.21-.1v.05ZM32.19,34a5.34,5.34,0,0,1,0-1.44V29c0-.15,0-.31,0-.47a9.8,9.8,0,0,0-1.23.05,1,1,0,0,1-1-1,.88.88,0,1,0-1.74,0,.87.87,0,0,1-.44.84h0a1,1,0,0,1-.56.16,10,10,0,0,1-1.08,0c0,.15,0,.4,0,.55v3.62a5.91,5.91,0,0,1,0,1.33,23.88,23.88,0,0,1,3.05,0,22.46,22.46,0,0,1,3.07,0ZM26,34c-.29,0-.06.38,0,0a0,0,0,0,0,0,0ZM26,28.4c-.08.06,0,.09.14.12C26.11,28.39,26.08,28.31,26,28.4Zm0,0c-.08.06,0,.09.14.12C26.11,28.39,26.08,28.31,26,28.4ZM26,34c-.29,0-.06.38,0,0a0,0,0,0,0,0,0Zm6.16,0a5.34,5.34,0,0,1,0-1.44V29c0-.15,0-.31,0-.47a9.8,9.8,0,0,0-1.23.05,1,1,0,0,1-1-1,.88.88,0,1,0-1.74,0,.87.87,0,0,1-.44.84h0a1,1,0,0,1-.56.16,10,10,0,0,1-1.08,0c0,.15,0,.4,0,.55v3.62a5.91,5.91,0,0,1,0,1.33,23.88,23.88,0,0,1,3.05,0,22.46,22.46,0,0,1,3.07,0Zm.21-5.45c-.25-.09-.21-.42-.21-.1v.05ZM32.31,34h-.1C32.38,34.43,32.34,34,32.31,34Zm0,0h-.1C32.38,34.43,32.34,34,32.31,34Zm.09-5.49c-.25-.09-.21-.42-.21-.1v.05ZM32.19,34a5.34,5.34,0,0,1,0-1.44V29c0-.15,0-.31,0-.47a9.8,9.8,0,0,0-1.23.05,1,1,0,0,1-1-1,.88.88,0,1,0-1.74,0,.87.87,0,0,1-.44.84h0a1,1,0,0,1-.56.16,10,10,0,0,1-1.08,0c0,.15,0,.4,0,.55v3.62a5.91,5.91,0,0,1,0,1.33,23.88,23.88,0,0,1,3.05,0,22.46,22.46,0,0,1,3.07,0ZM26,34c-.29,0-.06.38,0,0a0,0,0,0,0,0,0ZM26,28.4c-.08.06,0,.09.14.12C26.11,28.39,26.08,28.31,26,28.4Zm0,0c-.08.06,0,.09.14.12C26.11,28.39,26.08,28.31,26,28.4ZM26,34c-.29,0-.06.38,0,0a0,0,0,0,0,0,0Zm6.16,0a5.34,5.34,0,0,1,0-1.44V29c0-.15,0-.31,0-.47a9.8,9.8,0,0,0-1.23.05,1,1,0,0,1-1-1,.88.88,0,1,0-1.74,0,.87.87,0,0,1-.44.84h0a1,1,0,0,1-.56.16,10,10,0,0,1-1.08,0c0,.15,0,.4,0,.55v3.62a5.91,5.91,0,0,1,0,1.33,23.88,23.88,0,0,1,3.05,0,22.46,22.46,0,0,1,3.07,0Zm.21-5.45c-.25-.09-.21-.42-.21-.1v.05ZM32.31,34h-.1C32.38,34.43,32.34,34,32.31,34Zm0,0h-.1C32.38,34.43,32.34,34,32.31,34Zm.09-5.49c-.25-.09-.21-.42-.21-.1v.05ZM32.19,34a5.34,5.34,0,0,1,0-1.44V29c0-.15,0-.31,0-.47a9.8,9.8,0,0,0-1.23.05,1,1,0,0,1-1-1,.88.88,0,1,0-1.74,0,.87.87,0,0,1-.44.84h0a1,1,0,0,1-.56.16,10,10,0,0,1-1.08,0c0,.15,0,.4,0,.55v3.62a5.91,5.91,0,0,1,0,1.33,23.88,23.88,0,0,1,3.05,0,22.46,22.46,0,0,1,3.07,0ZM26,34c-.29,0-.06.38,0,0a0,0,0,0,0,0,0ZM26,28.4c-.08.06,0,.09.14.12C26.11,28.39,26.08,28.31,26,28.4Zm-11.37-4a.18.18,0,0,1-.07,0c-1.3-1.27-3.28-.24-4.09,1.08a5,5,0,0,0-.34,3.76c1,3.49,4.09,4.26,7.07,3.18A25.07,25.07,0,0,1,14.61,24.4Zm0,0a.18.18,0,0,1-.07,0c-1.3-1.27-3.28-.24-4.09,1.08a5,5,0,0,0-.34,3.76c1,3.49,4.09,4.26,7.07,3.18A25.07,25.07,0,0,1,14.61,24.4ZM26,28.4c-.08.06,0,.09.14.12C26.11,28.39,26.08,28.31,26,28.4ZM26,34c-.29,0-.06.38,0,0a0,0,0,0,0,0,0Zm6.16,0a5.34,5.34,0,0,1,0-1.44V29c0-.15,0-.31,0-.47a9.8,9.8,0,0,0-1.23.05,1,1,0,0,1-1-1,.88.88,0,1,0-1.74,0,.87.87,0,0,1-.44.84h0a1,1,0,0,1-.56.16,10,10,0,0,1-1.08,0c0,.15,0,.4,0,.55v3.62a5.91,5.91,0,0,1,0,1.33,23.88,23.88,0,0,1,3.05,0,22.46,22.46,0,0,1,3.07,0Zm.21-5.45c-.25-.09-.21-.42-.21-.1v.05ZM32.31,34h-.1C32.38,34.43,32.34,34,32.31,34Zm0,0h-.1C32.38,34.43,32.34,34,32.31,34Zm.09-5.49c-.25-.09-.21-.42-.21-.1v.05ZM32.19,34a5.34,5.34,0,0,1,0-1.44V29c0-.15,0-.31,0-.47a9.8,9.8,0,0,0-1.23.05,1,1,0,0,1-1-1,.88.88,0,1,0-1.74,0,.87.87,0,0,1-.44.84h0a1,1,0,0,1-.56.16,10,10,0,0,1-1.08,0c0,.15,0,.4,0,.55v3.62a5.91,5.91,0,0,1,0,1.33,23.88,23.88,0,0,1,3.05,0,22.46,22.46,0,0,1,3.07,0ZM26,34c-.29,0-.06.38,0,0a0,0,0,0,0,0,0ZM26,28.4c-.08.06,0,.09.14.12C26.11,28.39,26.08,28.31,26,28.4Zm0,0c-.08.06,0,.09.14.12C26.11,28.39,26.08,28.31,26,28.4ZM26,34c-.29,0-.06.38,0,0a0,0,0,0,0,0,0Zm6.16,0a5.34,5.34,0,0,1,0-1.44V29c0-.15,0-.31,0-.47a9.8,9.8,0,0,0-1.23.05,1,1,0,0,1-1-1,.88.88,0,1,0-1.74,0,.87.87,0,0,1-.44.84h0a1,1,0,0,1-.56.16,10,10,0,0,1-1.08,0c0,.15,0,.4,0,.55v3.62a5.91,5.91,0,0,1,0,1.33,23.88,23.88,0,0,1,3.05,0,22.46,22.46,0,0,1,3.07,0Zm.21-5.45c-.25-.09-.21-.42-.21-.1v.05ZM32.31,34h-.1C32.38,34.43,32.34,34,32.31,34Zm0,0h-.1C32.38,34.43,32.34,34,32.31,34Zm.09-5.49c-.25-.09-.21-.42-.21-.1v.05ZM32.19,34a5.34,5.34,0,0,1,0-1.44V29c0-.15,0-.31,0-.47a9.8,9.8,0,0,0-1.23.05,1,1,0,0,1-1-1,.88.88,0,1,0-1.74,0,.87.87,0,0,1-.44.84h0a1,1,0,0,1-.56.16,10,10,0,0,1-1.08,0c0,.15,0,.4,0,.55v3.62a5.91,5.91,0,0,1,0,1.33,23.88,23.88,0,0,1,3.05,0,22.46,22.46,0,0,1,3.07,0ZM26,34c-.29,0-.06.38,0,0a0,0,0,0,0,0,0ZM26,28.4c-.08.06,0,.09.14.12C26.11,28.39,26.08,28.31,26,28.4Zm0,0c-.08.06,0,.09.14.12C26.11,28.39,26.08,28.31,26,28.4ZM26,34c-.29,0-.06.38,0,0a0,0,0,0,0,0,0Zm6.16,0a5.34,5.34,0,0,1,0-1.44V29c0-.15,0-.31,0-.47a9.8,9.8,0,0,0-1.23.05,1,1,0,0,1-1-1,.88.88,0,1,0-1.74,0,.87.87,0,0,1-.44.84h0a1,1,0,0,1-.56.16,10,10,0,0,1-1.08,0c0,.15,0,.4,0,.55v3.62a5.91,5.91,0,0,1,0,1.33,23.88,23.88,0,0,1,3.05,0,22.46,22.46,0,0,1,3.07,0Zm.21-5.45c-.25-.09-.21-.42-.21-.1v.05ZM32.31,34h-.1C32.38,34.43,32.34,34,32.31,34ZM30.14,20.91v3.84a2.57,2.57,0,0,1,1.72,1.77c1.09,0,2.11.23,2.32,1.58a21.91,21.91,0,0,1,0,3.34c0,1.86.52,4.44-2,4.59a36.74,36.74,0,0,1-6.38,0c-2.53-.31-1.72-4.09-1.72-5.87a6.48,6.48,0,0,1,.18-2.67,2,2,0,0,1,2-1,2.58,2.58,0,0,1,1.82-1.81v-3.8H16.31c.16,7,3.25,14.48,9.75,17.56a1,1,0,0,1,.5.86v1.19h9.16a14.94,14.94,0,0,1,2.63-9.22,1,1,0,0,1,.08-.11c2.5-3.47,6.78-6.74,11.25-6.09a24.78,24.78,0,0,0,.41-4.19ZM32.31,34h-.1C32.38,34.43,32.34,34,32.31,34Zm.09-5.49c-.25-.09-.21-.42-.21-.1v.05ZM32.19,34a5.34,5.34,0,0,1,0-1.44V29c0-.15,0-.31,0-.47a9.8,9.8,0,0,0-1.23.05,1,1,0,0,1-1-1,.88.88,0,1,0-1.74,0,.87.87,0,0,1-.44.84h0a1,1,0,0,1-.56.16,10,10,0,0,1-1.08,0c0,.15,0,.4,0,.55v3.62a5.91,5.91,0,0,1,0,1.33,23.88,23.88,0,0,1,3.05,0,22.46,22.46,0,0,1,3.07,0ZM26,34c-.29,0-.06.38,0,0a0,0,0,0,0,0,0ZM26,28.4c-.08.06,0,.09.14.12C26.11,28.39,26.08,28.31,26,28.4Zm0,0c-.08.06,0,.09.14.12C26.11,28.39,26.08,28.31,26,28.4ZM26,34c-.29,0-.06.38,0,0a0,0,0,0,0,0,0Zm6.16,0a5.34,5.34,0,0,1,0-1.44V29c0-.15,0-.31,0-.47a9.8,9.8,0,0,0-1.23.05,1,1,0,0,1-1-1,.88.88,0,1,0-1.74,0,.87.87,0,0,1-.44.84h0a1,1,0,0,1-.56.16,10,10,0,0,1-1.08,0c0,.15,0,.4,0,.55v3.62a5.91,5.91,0,0,1,0,1.33,23.88,23.88,0,0,1,3.05,0,22.46,22.46,0,0,1,3.07,0Zm.21-5.45c-.25-.09-.21-.42-.21-.1v.05ZM32.31,34h-.1C32.38,34.43,32.34,34,32.31,34Zm0,0h-.1C32.38,34.43,32.34,34,32.31,34Zm.09-5.49c-.25-.09-.21-.42-.21-.1v.05ZM32.19,34a5.34,5.34,0,0,1,0-1.44V29c0-.15,0-.31,0-.47a9.8,9.8,0,0,0-1.23.05,1,1,0,0,1-1-1,.88.88,0,1,0-1.74,0,.87.87,0,0,1-.44.84h0a1,1,0,0,1-.56.16,10,10,0,0,1-1.08,0c0,.15,0,.4,0,.55v3.62a5.91,5.91,0,0,1,0,1.33,23.88,23.88,0,0,1,3.05,0,22.46,22.46,0,0,1,3.07,0ZM26,34c-.29,0-.06.38,0,0a0,0,0,0,0,0,0ZM26,28.4c-.08.06,0,.09.14.12C26.11,28.39,26.08,28.31,26,28.4Zm0,0c-.08.06,0,.09.14.12C26.11,28.39,26.08,28.31,26,28.4ZM26,34c-.29,0-.06.38,0,0a0,0,0,0,0,0,0Zm6.16,0a5.34,5.34,0,0,1,0-1.44V29c0-.15,0-.31,0-.47a9.8,9.8,0,0,0-1.23.05,1,1,0,0,1-1-1,.88.88,0,1,0-1.74,0,.87.87,0,0,1-.44.84h0a1,1,0,0,1-.56.16,10,10,0,0,1-1.08,0c0,.15,0,.4,0,.55v3.62a5.91,5.91,0,0,1,0,1.33,23.88,23.88,0,0,1,3.05,0,22.46,22.46,0,0,1,3.07,0Zm.21-5.45c-.25-.09-.21-.42-.21-.1v.05ZM32.31,34h-.1C32.38,34.43,32.34,34,32.31,34Zm0,0h-.1C32.38,34.43,32.34,34,32.31,34Zm.09-5.49c-.25-.09-.21-.42-.21-.1v.05ZM32.19,34a5.34,5.34,0,0,1,0-1.44V29c0-.15,0-.31,0-.47a9.8,9.8,0,0,0-1.23.05,1,1,0,0,1-1-1,.88.88,0,1,0-1.74,0,.87.87,0,0,1-.44.84h0a1,1,0,0,1-.56.16,10,10,0,0,1-1.08,0c0,.15,0,.4,0,.55v3.62a5.91,5.91,0,0,1,0,1.33,23.88,23.88,0,0,1,3.05,0,22.46,22.46,0,0,1,3.07,0ZM26,34c-.29,0-.06.38,0,0a0,0,0,0,0,0,0ZM26,28.4c-.08.06,0,.09.14.12C26.11,28.39,26.08,28.31,26,28.4Zm0,0c-.08.06,0,.09.14.12C26.11,28.39,26.08,28.31,26,28.4ZM26,34c-.29,0-.06.38,0,0a0,0,0,0,0,0,0Zm6.16,0a5.34,5.34,0,0,1,0-1.44V29c0-.15,0-.31,0-.47a9.8,9.8,0,0,0-1.23.05,1,1,0,0,1-1-1,.88.88,0,1,0-1.74,0,.87.87,0,0,1-.44.84h0a1,1,0,0,1-.56.16,10,10,0,0,1-1.08,0c0,.15,0,.4,0,.55v3.62a5.91,5.91,0,0,1,0,1.33,23.88,23.88,0,0,1,3.05,0,22.46,22.46,0,0,1,3.07,0Zm.21-5.45c-.25-.09-.21-.42-.21-.1v.05ZM32.31,34h-.1C32.38,34.43,32.34,34,32.31,34Zm0,0h-.1C32.38,34.43,32.34,34,32.31,34Zm.09-5.49c-.25-.09-.21-.42-.21-.1v.05ZM32.19,34a5.34,5.34,0,0,1,0-1.44V29c0-.15,0-.31,0-.47a9.8,9.8,0,0,0-1.23.05,1,1,0,0,1-1-1,.88.88,0,1,0-1.74,0,.87.87,0,0,1-.44.84h0a1,1,0,0,1-.56.16,10,10,0,0,1-1.08,0c0,.15,0,.4,0,.55v3.62a5.91,5.91,0,0,1,0,1.33,23.88,23.88,0,0,1,3.05,0,22.46,22.46,0,0,1,3.07,0ZM26,34c-.29,0-.06.38,0,0a0,0,0,0,0,0,0ZM26,28.4c-.08.06,0,.09.14.12C26.11,28.39,26.08,28.31,26,28.4Zm-11.37-4a.18.18,0,0,1-.07,0c-1.3-1.27-3.28-.24-4.09,1.08a5,5,0,0,0-.34,3.76c1,3.49,4.09,4.26,7.07,3.18A25.07,25.07,0,0,1,14.61,24.4Zm0,0a.18.18,0,0,1-.07,0c-1.3-1.27-3.28-.24-4.09,1.08a5,5,0,0,0-.34,3.76c1,3.49,4.09,4.26,7.07,3.18A25.07,25.07,0,0,1,14.61,24.4ZM26,28.4c-.08.06,0,.09.14.12C26.11,28.39,26.08,28.31,26,28.4ZM26,34c-.29,0-.06.38,0,0a0,0,0,0,0,0,0Zm6.16,0a5.34,5.34,0,0,1,0-1.44V29c0-.15,0-.31,0-.47a9.8,9.8,0,0,0-1.23.05,1,1,0,0,1-1-1,.88.88,0,1,0-1.74,0,.87.87,0,0,1-.44.84h0a1,1,0,0,1-.56.16,10,10,0,0,1-1.08,0c0,.15,0,.4,0,.55v3.62a5.91,5.91,0,0,1,0,1.33,23.88,23.88,0,0,1,3.05,0,22.46,22.46,0,0,1,3.07,0Zm.21-5.45c-.25-.09-.21-.42-.21-.1v.05ZM32.31,34h-.1C32.38,34.43,32.34,34,32.31,34Zm0,0h-.1C32.38,34.43,32.34,34,32.31,34Zm.09-5.49c-.25-.09-.21-.42-.21-.1v.05ZM32.19,34a5.34,5.34,0,0,1,0-1.44V29c0-.15,0-.31,0-.47a9.8,9.8,0,0,0-1.23.05,1,1,0,0,1-1-1,.88.88,0,1,0-1.74,0,.87.87,0,0,1-.44.84h0a1,1,0,0,1-.56.16,10,10,0,0,1-1.08,0c0,.15,0,.4,0,.55v3.62a5.91,5.91,0,0,1,0,1.33,23.88,23.88,0,0,1,3.05,0,22.46,22.46,0,0,1,3.07,0ZM26,34c-.29,0-.06.38,0,0a0,0,0,0,0,0,0ZM26,28.4c-.08.06,0,.09.14.12C26.11,28.39,26.08,28.31,26,28.4Zm0,0c-.08.06,0,.09.14.12C26.11,28.39,26.08,28.31,26,28.4ZM26,34c-.29,0-.06.38,0,0a0,0,0,0,0,0,0Zm6.16,0a5.34,5.34,0,0,1,0-1.44V29c0-.15,0-.31,0-.47a9.8,9.8,0,0,0-1.23.05,1,1,0,0,1-1-1,.88.88,0,1,0-1.74,0,.87.87,0,0,1-.44.84h0a1,1,0,0,1-.56.16,10,10,0,0,1-1.08,0c0,.15,0,.4,0,.55v3.62a5.91,5.91,0,0,1,0,1.33,23.88,23.88,0,0,1,3.05,0,22.46,22.46,0,0,1,3.07,0Zm.21-5.45c-.25-.09-.21-.42-.21-.1v.05ZM32.31,34h-.1C32.38,34.43,32.34,34,32.31,34Zm0,0h-.1C32.38,34.43,32.34,34,32.31,34Zm.09-5.49c-.25-.09-.21-.42-.21-.1v.05ZM32.19,34a5.34,5.34,0,0,1,0-1.44V29c0-.15,0-.31,0-.47a9.8,9.8,0,0,0-1.23.05,1,1,0,0,1-1-1,.88.88,0,1,0-1.74,0,.87.87,0,0,1-.44.84h0a1,1,0,0,1-.56.16,10,10,0,0,1-1.08,0c0,.15,0,.4,0,.55v3.62a5.91,5.91,0,0,1,0,1.33,23.88,23.88,0,0,1,3.05,0,22.46,22.46,0,0,1,3.07,0ZM26,34c-.29,0-.06.38,0,0a0,0,0,0,0,0,0ZM26,28.4c-.08.06,0,.09.14.12C26.11,28.39,26.08,28.31,26,28.4Zm0,0c-.08.06,0,.09.14.12C26.11,28.39,26.08,28.31,26,28.4ZM26,34c-.29,0-.06.38,0,0a0,0,0,0,0,0,0Zm6.16,0a5.34,5.34,0,0,1,0-1.44V29c0-.15,0-.31,0-.47a9.8,9.8,0,0,0-1.23.05,1,1,0,0,1-1-1,.88.88,0,1,0-1.74,0,.87.87,0,0,1-.44.84h0a1,1,0,0,1-.56.16,10,10,0,0,1-1.08,0c0,.15,0,.4,0,.55v3.62a5.91,5.91,0,0,1,0,1.33,23.88,23.88,0,0,1,3.05,0,22.46,22.46,0,0,1,3.07,0Zm.21-5.45c-.25-.09-.21-.42-.21-.1v.05ZM32.31,34h-.1C32.38,34.43,32.34,34,32.31,34ZM30.14,20.91v3.84a2.57,2.57,0,0,1,1.72,1.77c1.09,0,2.11.23,2.32,1.58a21.91,21.91,0,0,1,0,3.34c0,1.86.52,4.44-2,4.59a36.74,36.74,0,0,1-6.38,0c-2.53-.31-1.72-4.09-1.72-5.87a6.48,6.48,0,0,1,.18-2.67,2,2,0,0,1,2-1,2.58,2.58,0,0,1,1.82-1.81v-3.8H16.31c.16,7,3.25,14.48,9.75,17.56a1,1,0,0,1,.5.86v1.19h9.16a14.94,14.94,0,0,1,2.63-9.22,1,1,0,0,1,.08-.11c2.5-3.47,6.78-6.74,11.25-6.09a24.78,24.78,0,0,0,.41-4.19ZM32.31,34h-.1C32.38,34.43,32.34,34,32.31,34Zm.09-5.49c-.25-.09-.21-.42-.21-.1v.05ZM32.19,34a5.34,5.34,0,0,1,0-1.44V29c0-.15,0-.31,0-.47a9.8,9.8,0,0,0-1.23.05,1,1,0,0,1-1-1,.88.88,0,1,0-1.74,0,.87.87,0,0,1-.44.84h0a1,1,0,0,1-.56.16,10,10,0,0,1-1.08,0c0,.15,0,.4,0,.55v3.62a5.91,5.91,0,0,1,0,1.33,23.88,23.88,0,0,1,3.05,0,22.46,22.46,0,0,1,3.07,0ZM26,34c-.29,0-.06.38,0,0a0,0,0,0,0,0,0ZM26,28.4c-.08.06,0,.09.14.12C26.11,28.39,26.08,28.31,26,28.4Zm0,0c-.08.06,0,.09.14.12C26.11,28.39,26.08,28.31,26,28.4ZM26,34c-.29,0-.06.38,0,0a0,0,0,0,0,0,0Zm6.16,0a5.34,5.34,0,0,1,0-1.44V29c0-.15,0-.31,0-.47a9.8,9.8,0,0,0-1.23.05,1,1,0,0,1-1-1,.88.88,0,1,0-1.74,0,.87.87,0,0,1-.44.84h0a1,1,0,0,1-.56.16,10,10,0,0,1-1.08,0c0,.15,0,.4,0,.55v3.62a5.91,5.91,0,0,1,0,1.33,23.88,23.88,0,0,1,3.05,0,22.46,22.46,0,0,1,3.07,0Zm.21-5.45c-.25-.09-.21-.42-.21-.1v.05ZM32.31,34h-.1C32.38,34.43,32.34,34,32.31,34Zm0,0h-.1C32.38,34.43,32.34,34,32.31,34Zm.09-5.49c-.25-.09-.21-.42-.21-.1v.05ZM32.19,34a5.34,5.34,0,0,1,0-1.44V29c0-.15,0-.31,0-.47a9.8,9.8,0,0,0-1.23.05,1,1,0,0,1-1-1,.88.88,0,1,0-1.74,0,.87.87,0,0,1-.44.84h0a1,1,0,0,1-.56.16,10,10,0,0,1-1.08,0c0,.15,0,.4,0,.55v3.62a5.91,5.91,0,0,1,0,1.33,23.88,23.88,0,0,1,3.05,0,22.46,22.46,0,0,1,3.07,0ZM26,34c-.29,0-.06.38,0,0a0,0,0,0,0,0,0ZM26,28.4c-.08.06,0,.09.14.12C26.11,28.39,26.08,28.31,26,28.4Zm0,0c-.08.06,0,.09.14.12C26.11,28.39,26.08,28.31,26,28.4ZM26,34c-.29,0-.06.38,0,0a0,0,0,0,0,0,0Zm6.16,0a5.34,5.34,0,0,1,0-1.44V29c0-.15,0-.31,0-.47a9.8,9.8,0,0,0-1.23.05,1,1,0,0,1-1-1,.88.88,0,1,0-1.74,0,.87.87,0,0,1-.44.84h0a1,1,0,0,1-.56.16,10,10,0,0,1-1.08,0c0,.15,0,.4,0,.55v3.62a5.91,5.91,0,0,1,0,1.33,23.88,23.88,0,0,1,3.05,0,22.46,22.46,0,0,1,3.07,0Zm.21-5.45c-.25-.09-.21-.42-.21-.1v.05ZM32.31,34h-.1C32.38,34.43,32.34,34,32.31,34Zm0,0h-.1C32.38,34.43,32.34,34,32.31,34Zm.09-5.49c-.25-.09-.21-.42-.21-.1v.05ZM32.19,34a5.34,5.34,0,0,1,0-1.44V29c0-.15,0-.31,0-.47a9.8,9.8,0,0,0-1.23.05,1,1,0,0,1-1-1,.88.88,0,1,0-1.74,0,.87.87,0,0,1-.44.84h0a1,1,0,0,1-.56.16,10,10,0,0,1-1.08,0c0,.15,0,.4,0,.55v3.62a5.91,5.91,0,0,1,0,1.33,23.88,23.88,0,0,1,3.05,0,22.46,22.46,0,0,1,3.07,0ZM26,34c-.29,0-.06.38,0,0a0,0,0,0,0,0,0ZM26,28.4c-.08.06,0,.09.14.12C26.11,28.39,26.08,28.31,26,28.4Zm-11.37-4a.18.18,0,0,1-.07,0c-1.3-1.27-3.28-.24-4.09,1.08a5,5,0,0,0-.34,3.76c1,3.49,4.09,4.26,7.07,3.18A25.07,25.07,0,0,1,14.61,24.4Zm0,0a.18.18,0,0,1-.07,0c-1.3-1.27-3.28-.24-4.09,1.08a5,5,0,0,0-.34,3.76c1,3.49,4.09,4.26,7.07,3.18A25.07,25.07,0,0,1,14.61,24.4ZM26,28.4c-.08.06,0,.09.14.12C26.11,28.39,26.08,28.31,26,28.4ZM26,34c-.29,0-.06.38,0,0a0,0,0,0,0,0,0Zm6.16,0a5.34,5.34,0,0,1,0-1.44V29c0-.15,0-.31,0-.47a9.8,9.8,0,0,0-1.23.05,1,1,0,0,1-1-1,.88.88,0,1,0-1.74,0,.87.87,0,0,1-.44.84h0a1,1,0,0,1-.56.16,10,10,0,0,1-1.08,0c0,.15,0,.4,0,.55v3.62a5.91,5.91,0,0,1,0,1.33,23.88,23.88,0,0,1,3.05,0,22.46,22.46,0,0,1,3.07,0Zm.21-5.45c-.25-.09-.21-.42-.21-.1v.05ZM32.31,34h-.1C32.38,34.43,32.34,34,32.31,34Zm0,0h-.1C32.38,34.43,32.34,34,32.31,34Zm.09-5.49c-.25-.09-.21-.42-.21-.1v.05ZM32.19,34a5.34,5.34,0,0,1,0-1.44V29c0-.15,0-.31,0-.47a9.8,9.8,0,0,0-1.23.05,1,1,0,0,1-1-1,.88.88,0,1,0-1.74,0,.87.87,0,0,1-.44.84h0a1,1,0,0,1-.56.16,10,10,0,0,1-1.08,0c0,.15,0,.4,0,.55v3.62a5.91,5.91,0,0,1,0,1.33,23.88,23.88,0,0,1,3.05,0,22.46,22.46,0,0,1,3.07,0ZM26,34c-.29,0-.06.38,0,0a0,0,0,0,0,0,0ZM26,28.4c-.08.06,0,.09.14.12C26.11,28.39,26.08,28.31,26,28.4Zm0,0c-.08.06,0,.09.14.12C26.11,28.39,26.08,28.31,26,28.4ZM26,34c-.29,0-.06.38,0,0a0,0,0,0,0,0,0Zm6.16,0a5.34,5.34,0,0,1,0-1.44V29c0-.15,0-.31,0-.47a9.8,9.8,0,0,0-1.23.05,1,1,0,0,1-1-1,.88.88,0,1,0-1.74,0,.87.87,0,0,1-.44.84h0a1,1,0,0,1-.56.16,10,10,0,0,1-1.08,0c0,.15,0,.4,0,.55v3.62a5.91,5.91,0,0,1,0,1.33,23.88,23.88,0,0,1,3.05,0,22.46,22.46,0,0,1,3.07,0Zm.21-5.45c-.25-.09-.21-.42-.21-.1v.05ZM32.31,34h-.1C32.38,34.43,32.34,34,32.31,34ZM30.14,20.91v3.84a2.57,2.57,0,0,1,1.72,1.77c1.09,0,2.11.23,2.32,1.58a21.91,21.91,0,0,1,0,3.34c0,1.86.52,4.44-2,4.59a36.74,36.74,0,0,1-6.38,0c-2.53-.31-1.72-4.09-1.72-5.87a6.48,6.48,0,0,1,.18-2.67,2,2,0,0,1,2-1,2.58,2.58,0,0,1,1.82-1.81v-3.8H16.31c.16,7,3.25,14.48,9.75,17.56a1,1,0,0,1,.5.86v1.19h9.16a14.94,14.94,0,0,1,2.63-9.22,1,1,0,0,1,.08-.11c2.5-3.47,6.78-6.74,11.25-6.09a24.78,24.78,0,0,0,.41-4.19ZM32.31,34h-.1C32.38,34.43,32.34,34,32.31,34Zm.09-5.49c-.25-.09-.21-.42-.21-.1v.05ZM32.19,34a5.34,5.34,0,0,1,0-1.44V29c0-.15,0-.31,0-.47a9.8,9.8,0,0,0-1.23.05,1,1,0,0,1-1-1,.88.88,0,1,0-1.74,0,.87.87,0,0,1-.44.84h0a1,1,0,0,1-.56.16,10,10,0,0,1-1.08,0c0,.15,0,.4,0,.55v3.62a5.91,5.91,0,0,1,0,1.33,23.88,23.88,0,0,1,3.05,0,22.46,22.46,0,0,1,3.07,0ZM26,34c-.29,0-.06.38,0,0a0,0,0,0,0,0,0ZM26,28.4c-.08.06,0,.09.14.12C26.11,28.39,26.08,28.31,26,28.4Zm0,0c-.08.06,0,.09.14.12C26.11,28.39,26.08,28.31,26,28.4ZM26,34c-.29,0-.06.38,0,0a0,0,0,0,0,0,0Zm6.16,0a5.34,5.34,0,0,1,0-1.44V29c0-.15,0-.31,0-.47a9.8,9.8,0,0,0-1.23.05,1,1,0,0,1-1-1,.88.88,0,1,0-1.74,0,.87.87,0,0,1-.44.84h0a1,1,0,0,1-.56.16,10,10,0,0,1-1.08,0c0,.15,0,.4,0,.55v3.62a5.91,5.91,0,0,1,0,1.33,23.88,23.88,0,0,1,3.05,0,22.46,22.46,0,0,1,3.07,0Zm.21-5.45c-.25-.09-.21-.42-.21-.1v.05ZM32.31,34h-.1C32.38,34.43,32.34,34,32.31,34Zm0,0h-.1C32.38,34.43,32.34,34,32.31,34Zm.09-5.49c-.25-.09-.21-.42-.21-.1v.05ZM32.19,34a5.34,5.34,0,0,1,0-1.44V29c0-.15,0-.31,0-.47a9.8,9.8,0,0,0-1.23.05,1,1,0,0,1-1-1,.88.88,0,1,0-1.74,0,.87.87,0,0,1-.44.84h0a1,1,0,0,1-.56.16,10,10,0,0,1-1.08,0c0,.15,0,.4,0,.55v3.62a5.91,5.91,0,0,1,0,1.33,23.88,23.88,0,0,1,3.05,0,22.46,22.46,0,0,1,3.07,0ZM26,34c-.29,0-.06.38,0,0a0,0,0,0,0,0,0ZM26,28.4c-.08.06,0,.09.14.12C26.11,28.39,26.08,28.31,26,28.4Zm-11.37-4a.18.18,0,0,1-.07,0c-1.3-1.27-3.28-.24-4.09,1.08a5,5,0,0,0-.34,3.76c1,3.49,4.09,4.26,7.07,3.18A25.07,25.07,0,0,1,14.61,24.4Zm0,0a.18.18,0,0,1-.07,0c-1.3-1.27-3.28-.24-4.09,1.08a5,5,0,0,0-.34,3.76c1,3.49,4.09,4.26,7.07,3.18A25.07,25.07,0,0,1,14.61,24.4ZM26,28.4c-.08.06,0,.09.14.12C26.11,28.39,26.08,28.31,26,28.4ZM26,34c-.29,0-.06.38,0,0a0,0,0,0,0,0,0Zm6.16,0a5.34,5.34,0,0,1,0-1.44V29c0-.15,0-.31,0-.47a9.8,9.8,0,0,0-1.23.05,1,1,0,0,1-1-1,.88.88,0,1,0-1.74,0,.87.87,0,0,1-.44.84h0a1,1,0,0,1-.56.16,10,10,0,0,1-1.08,0c0,.15,0,.4,0,.55v3.62a5.91,5.91,0,0,1,0,1.33,23.88,23.88,0,0,1,3.05,0,22.46,22.46,0,0,1,3.07,0Zm.21-5.45c-.25-.09-.21-.42-.21-.1v.05ZM32.31,34h-.1C32.38,34.43,32.34,34,32.31,34ZM30.14,20.91v3.84a2.57,2.57,0,0,1,1.72,1.77c1.09,0,2.11.23,2.32,1.58a21.91,21.91,0,0,1,0,3.34c0,1.86.52,4.44-2,4.59a36.74,36.74,0,0,1-6.38,0c-2.53-.31-1.72-4.09-1.72-5.87a6.48,6.48,0,0,1,.18-2.67,2,2,0,0,1,2-1,2.58,2.58,0,0,1,1.82-1.81v-3.8H16.31c.16,7,3.25,14.48,9.75,17.56a1,1,0,0,1,.5.86v1.19h9.16a14.94,14.94,0,0,1,2.63-9.22,1,1,0,0,1,.08-.11c2.5-3.47,6.78-6.74,11.25-6.09a24.78,24.78,0,0,0,.41-4.19ZM32.31,34h-.1C32.38,34.43,32.34,34,32.31,34Zm.09-5.49c-.25-.09-.21-.42-.21-.1v.05ZM32.19,34a5.34,5.34,0,0,1,0-1.44V29c0-.15,0-.31,0-.47a9.8,9.8,0,0,0-1.23.05,1,1,0,0,1-1-1,.88.88,0,1,0-1.74,0,.87.87,0,0,1-.44.84h0a1,1,0,0,1-.56.16,10,10,0,0,1-1.08,0c0,.15,0,.4,0,.55v3.62a5.91,5.91,0,0,1,0,1.33,23.88,23.88,0,0,1,3.05,0,22.46,22.46,0,0,1,3.07,0ZM26,34c-.29,0-.06.38,0,0a0,0,0,0,0,0,0ZM26,28.4c-.08.06,0,.09.14.12C26.11,28.39,26.08,28.31,26,28.4Zm-11.37-4a.18.18,0,0,1-.07,0c-1.3-1.27-3.28-.24-4.09,1.08a5,5,0,0,0-.34,3.76c1,3.49,4.09,4.26,7.07,3.18A25.07,25.07,0,0,1,14.61,24.4Zm0,0a.18.18,0,0,1-.07,0c-1.3-1.27-3.28-.24-4.09,1.08a5,5,0,0,0-.34,3.76c1,3.49,4.09,4.26,7.07,3.18A25.07,25.07,0,0,1,14.61,24.4ZM26,28.4c-.08.06,0,.09.14.12C26.11,28.39,26.08,28.31,26,28.4ZM26,34c-.29,0-.06.38,0,0a0,0,0,0,0,0,0Zm6.16,0a5.34,5.34,0,0,1,0-1.44V29c0-.15,0-.31,0-.47a9.8,9.8,0,0,0-1.23.05,1,1,0,0,1-1-1,.88.88,0,1,0-1.74,0,.87.87,0,0,1-.44.84h0a1,1,0,0,1-.56.16,10,10,0,0,1-1.08,0c0,.15,0,.4,0,.55v3.62a5.91,5.91,0,0,1,0,1.33,23.88,23.88,0,0,1,3.05,0,22.46,22.46,0,0,1,3.07,0Zm.21-5.45c-.25-.09-.21-.42-.21-.1v.05ZM32.31,34h-.1C32.38,34.43,32.34,34,32.31,34ZM30.14,20.91v3.84a2.57,2.57,0,0,1,1.72,1.77c1.09,0,2.11.23,2.32,1.58a21.91,21.91,0,0,1,0,3.34c0,1.86.52,4.44-2,4.59a36.74,36.74,0,0,1-6.38,0c-2.53-.31-1.72-4.09-1.72-5.87a6.48,6.48,0,0,1,.18-2.67,2,2,0,0,1,2-1,2.58,2.58,0,0,1,1.82-1.81v-3.8H16.31c.16,7,3.25,14.48,9.75,17.56a1,1,0,0,1,.5.86v1.19h9.16a14.94,14.94,0,0,1,2.63-9.22,1,1,0,0,1,.08-.11c2.5-3.47,6.78-6.74,11.25-6.09a24.78,24.78,0,0,0,.41-4.19ZM32.31,34h-.1C32.38,34.43,32.34,34,32.31,34Zm.09-5.49c-.25-.09-.21-.42-.21-.1v.05ZM32.19,34a5.34,5.34,0,0,1,0-1.44V29c0-.15,0-.31,0-.47a9.8,9.8,0,0,0-1.23.05,1,1,0,0,1-1-1,.88.88,0,1,0-1.74,0,.87.87,0,0,1-.44.84h0a1,1,0,0,1-.56.16,10,10,0,0,1-1.08,0c0,.15,0,.4,0,.55v3.62a5.91,5.91,0,0,1,0,1.33,23.88,23.88,0,0,1,3.05,0,22.46,22.46,0,0,1,3.07,0ZM26,34c-.29,0-.06.38,0,0a0,0,0,0,0,0,0ZM26,28.4c-.08.06,0,.09.14.12C26.11,28.39,26.08,28.31,26,28.4Zm-11.37-4a.18.18,0,0,1-.07,0c-1.3-1.27-3.28-.24-4.09,1.08a5,5,0,0,0-.34,3.76c1,3.49,4.09,4.26,7.07,3.18A25.07,25.07,0,0,1,14.61,24.4Zm0,0a.18.18,0,0,1-.07,0c-1.3-1.27-3.28-.24-4.09,1.08a5,5,0,0,0-.34,3.76c1,3.49,4.09,4.26,7.07,3.18A25.07,25.07,0,0,1,14.61,24.4ZM26,28.4c-.08.06,0,.09.14.12C26.11,28.39,26.08,28.31,26,28.4ZM26,34c-.29,0-.06.38,0,0a0,0,0,0,0,0,0Zm6.16,0a5.34,5.34,0,0,1,0-1.44V29c0-.15,0-.31,0-.47a9.8,9.8,0,0,0-1.23.05,1,1,0,0,1-1-1,.88.88,0,1,0-1.74,0,.87.87,0,0,1-.44.84h0a1,1,0,0,1-.56.16,10,10,0,0,1-1.08,0c0,.15,0,.4,0,.55v3.62a5.91,5.91,0,0,1,0,1.33,23.88,23.88,0,0,1,3.05,0,22.46,22.46,0,0,1,3.07,0Zm.21-5.45c-.25-.09-.21-.42-.21-.1v.05ZM32.31,34h-.1C32.38,34.43,32.34,34,32.31,34ZM30.14,20.91v3.84a2.57,2.57,0,0,1,1.72,1.77c1.09,0,2.11.23,2.32,1.58a21.91,21.91,0,0,1,0,3.34c0,1.86.52,4.44-2,4.59a36.74,36.74,0,0,1-6.38,0c-2.53-.31-1.72-4.09-1.72-5.87a6.48,6.48,0,0,1,.18-2.67,2,2,0,0,1,2-1,2.58,2.58,0,0,1,1.82-1.81v-3.8H16.31c.16,7,3.25,14.48,9.75,17.56a1,1,0,0,1,.5.86v1.19h9.16a14.94,14.94,0,0,1,2.63-9.22,1,1,0,0,1,.08-.11c2.5-3.47,6.78-6.74,11.25-6.09a24.78,24.78,0,0,0,.41-4.19ZM32.31,34h-.1C32.38,34.43,32.34,34,32.31,34Zm-.12-5.59v.05l.21.05C32.15,28.44,32.19,28.11,32.19,28.43Zm-4.42-.06h0a1,1,0,0,1-.56.16,10,10,0,0,1-1.08,0c0,.15,0,.4,0,.55v3.62a5.91,5.91,0,0,1,0,1.33,23.88,23.88,0,0,1,3.05,0,22.46,22.46,0,0,1,3.07,0l0,0a5.34,5.34,0,0,1,0-1.44V29c0-.15,0-.31,0-.47a9.8,9.8,0,0,0-1.23.05,1,1,0,0,1-1-1,.88.88,0,1,0-1.74,0A.87.87,0,0,1,27.77,28.37Zm-1.69,5.68a0,0,0,0,0,0,0H26C25.74,34.07,26,34.4,26.08,34.05ZM26,28.4c-.08.06,0,.09.14.12C26.11,28.39,26.08,28.31,26,28.4Zm-11.44-4c-1.3-1.27-3.28-.24-4.09,1.08a5,5,0,0,0-.34,3.76c1,3.49,4.09,4.26,7.07,3.18a25.07,25.07,0,0,1-2.57-8A.18.18,0,0,1,14.54,24.35ZM32,0A32,32,0,1,0,64,32,32,32,0,0,0,32,0ZM47.11,44.65a6.69,6.69,0,0,1-6.3.55l.36-.88c.4-.9.84-1.79,1.31-2.64a15.34,15.34,0,0,1,2.14-3.13,11.07,11.07,0,0,1,2.56-1.7c2.64-1.67,4.32-5.05,5.49-8,2.77,3.05,1.14,8.61-.94,11.64A14.08,14.08,0,0,1,47.11,44.65Zm-9.4-4.13a14,14,0,0,1,2.37-8.21C42,29.63,45.69,26.6,49.24,27a5.29,5.29,0,0,1,1.76.52,29.83,29.83,0,0,1-1.67,3.52,15.28,15.28,0,0,1-2.14,3.14,11.4,11.4,0,0,1-2.56,1.7c-2.23,1.4-3.77,4-4.9,6.62-.21.48-.41,1-.59,1.43a5.25,5.25,0,0,1-.93-1.43A6.82,6.82,0,0,1,37.71,40.52Zm-26.3-6.41A7.28,7.28,0,0,1,8,28.91,6.25,6.25,0,0,1,10,23a4.75,4.75,0,0,1,4.39-1c0-.7-.05-1.38,0-2.06a1,1,0,0,1,1-1H51.09a1,1,0,0,1,1,1,26.55,26.55,0,0,1-.47,5.73c-.21-.09-.42-.17-.64-.24a7.85,7.85,0,0,0-1.3-.3,24.78,24.78,0,0,0,.41-4.19h-20v3.84a2.57,2.57,0,0,1,1.72,1.77c1.09,0,2.11.23,2.32,1.58a21.91,21.91,0,0,1,0,3.34c0,1.86.52,4.44-2,4.59a36.74,36.74,0,0,1-6.38,0c-2.53-.31-1.72-4.09-1.72-5.87a6.48,6.48,0,0,1,.18-2.67,2,2,0,0,1,2-1,2.58,2.58,0,0,1,1.82-1.81v-3.8H16.31c.16,7,3.25,14.48,9.75,17.56a1,1,0,0,1,.5.86v1.19h9.16a9.32,9.32,0,0,0,.41,2H25.56a.88.88,0,0,1-.69-.28,0,0,0,0,1,0,0l0,0a.92.92,0,0,1-.28-.69V40a16.92,16.92,0,0,1-6.33-5.84C16,35,13.58,35.35,11.41,34.11Zm9.51,12.22a.94.94,0,0,1-.66-.25,1,1,0,0,1-.31-.76,1,1,0,0,1,1-1H37l.07.12a6.87,6.87,0,0,0,1.74,1.85h0l0,0ZM32.31,34h-.1C32.38,34.43,32.34,34,32.31,34Zm-.12-5.59v.05l.21.05C32.15,28.44,32.19,28.11,32.19,28.43Zm-4.42-.06h0a1,1,0,0,1-.56.16,10,10,0,0,1-1.08,0c0,.15,0,.4,0,.55v3.62a5.91,5.91,0,0,1,0,1.33,23.88,23.88,0,0,1,3.05,0,22.46,22.46,0,0,1,3.07,0l0,0a5.34,5.34,0,0,1,0-1.44V29c0-.15,0-.31,0-.47a9.8,9.8,0,0,0-1.23.05,1,1,0,0,1-1-1,.88.88,0,1,0-1.74,0A.87.87,0,0,1,27.77,28.37Zm-1.69,5.68a0,0,0,0,0,0,0H26C25.74,34.07,26,34.4,26.08,34.05ZM26,28.4c-.08.06,0,.09.14.12C26.11,28.39,26.08,28.31,26,28.4Zm-11.44-4c-1.3-1.27-3.28-.24-4.09,1.08a5,5,0,0,0-.34,3.76c1,3.49,4.09,4.26,7.07,3.18a25.07,25.07,0,0,1-2.57-8A.18.18,0,0,1,14.54,24.35Zm.07,0a.18.18,0,0,1-.07,0c-1.3-1.27-3.28-.24-4.09,1.08a5,5,0,0,0-.34,3.76c1,3.49,4.09,4.26,7.07,3.18A25.07,25.07,0,0,1,14.61,24.4ZM26,28.4c-.08.06,0,.09.14.12C26.11,28.39,26.08,28.31,26,28.4ZM26,34c-.29,0-.06.38,0,0a0,0,0,0,0,0,0Zm6.16,0a5.34,5.34,0,0,1,0-1.44V29c0-.15,0-.31,0-.47a9.8,9.8,0,0,0-1.23.05,1,1,0,0,1-1-1,.88.88,0,1,0-1.74,0,.87.87,0,0,1-.44.84h0a1,1,0,0,1-.56.16,10,10,0,0,1-1.08,0c0,.15,0,.4,0,.55v3.62a5.91,5.91,0,0,1,0,1.33,23.88,23.88,0,0,1,3.05,0,22.46,22.46,0,0,1,3.07,0Zm.21-5.45c-.25-.09-.21-.42-.21-.1v.05ZM32.31,34h-.1C32.38,34.43,32.34,34,32.31,34ZM30.14,20.91v3.84a2.57,2.57,0,0,1,1.72,1.77c1.09,0,2.11.23,2.32,1.58a21.91,21.91,0,0,1,0,3.34c0,1.86.52,4.44-2,4.59a36.74,36.74,0,0,1-6.38,0c-2.53-.31-1.72-4.09-1.72-5.87a6.48,6.48,0,0,1,.18-2.67,2,2,0,0,1,2-1,2.58,2.58,0,0,1,1.82-1.81v-3.8H16.31c.16,7,3.25,14.48,9.75,17.56a1,1,0,0,1,.5.86v1.19h9.16a14.94,14.94,0,0,1,2.63-9.22,1,1,0,0,1,.08-.11c2.5-3.47,6.78-6.74,11.25-6.09a24.78,24.78,0,0,0,.41-4.19ZM32.31,34h-.1C32.38,34.43,32.34,34,32.31,34Zm.09-5.49c-.25-.09-.21-.42-.21-.1v.05ZM32.19,34a5.34,5.34,0,0,1,0-1.44V29c0-.15,0-.31,0-.47a9.8,9.8,0,0,0-1.23.05,1,1,0,0,1-1-1,.88.88,0,1,0-1.74,0,.87.87,0,0,1-.44.84h0a1,1,0,0,1-.56.16,10,10,0,0,1-1.08,0c0,.15,0,.4,0,.55v3.62a5.91,5.91,0,0,1,0,1.33,23.88,23.88,0,0,1,3.05,0,22.46,22.46,0,0,1,3.07,0ZM26,34c-.29,0-.06.38,0,0a0,0,0,0,0,0,0ZM26,28.4c-.08.06,0,.09.14.12C26.11,28.39,26.08,28.31,26,28.4Zm-11.37-4a.18.18,0,0,1-.07,0c-1.3-1.27-3.28-.24-4.09,1.08a5,5,0,0,0-.34,3.76c1,3.49,4.09,4.26,7.07,3.18A25.07,25.07,0,0,1,14.61,24.4Zm0,0a.18.18,0,0,1-.07,0c-1.3-1.27-3.28-.24-4.09,1.08a5,5,0,0,0-.34,3.76c1,3.49,4.09,4.26,7.07,3.18A25.07,25.07,0,0,1,14.61,24.4ZM26,28.4c-.08.06,0,.09.14.12C26.11,28.39,26.08,28.31,26,28.4ZM26,34c-.29,0-.06.38,0,0a0,0,0,0,0,0,0Zm6.16,0a5.34,5.34,0,0,1,0-1.44V29c0-.15,0-.31,0-.47a9.8,9.8,0,0,0-1.23.05,1,1,0,0,1-1-1,.88.88,0,1,0-1.74,0,.87.87,0,0,1-.44.84h0a1,1,0,0,1-.56.16,10,10,0,0,1-1.08,0c0,.15,0,.4,0,.55v3.62a5.91,5.91,0,0,1,0,1.33,23.88,23.88,0,0,1,3.05,0,22.46,22.46,0,0,1,3.07,0Zm.21-5.45c-.25-.09-.21-.42-.21-.1v.05ZM32.31,34h-.1C32.38,34.43,32.34,34,32.31,34ZM30.14,20.91v3.84a2.57,2.57,0,0,1,1.72,1.77c1.09,0,2.11.23,2.32,1.58a21.91,21.91,0,0,1,0,3.34c0,1.86.52,4.44-2,4.59a36.74,36.74,0,0,1-6.38,0c-2.53-.31-1.72-4.09-1.72-5.87a6.48,6.48,0,0,1,.18-2.67,2,2,0,0,1,2-1,2.58,2.58,0,0,1,1.82-1.81v-3.8H16.31c.16,7,3.25,14.48,9.75,17.56a1,1,0,0,1,.5.86v1.19h9.16a14.94,14.94,0,0,1,2.63-9.22,1,1,0,0,1,.08-.11c2.5-3.47,6.78-6.74,11.25-6.09a24.78,24.78,0,0,0,.41-4.19ZM32.31,34h-.1C32.38,34.43,32.34,34,32.31,34Zm.09-5.49c-.25-.09-.21-.42-.21-.1v.05ZM32.19,34a5.34,5.34,0,0,1,0-1.44V29c0-.15,0-.31,0-.47a9.8,9.8,0,0,0-1.23.05,1,1,0,0,1-1-1,.88.88,0,1,0-1.74,0,.87.87,0,0,1-.44.84h0a1,1,0,0,1-.56.16,10,10,0,0,1-1.08,0c0,.15,0,.4,0,.55v3.62a5.91,5.91,0,0,1,0,1.33,23.88,23.88,0,0,1,3.05,0,22.46,22.46,0,0,1,3.07,0ZM26,34c-.29,0-.06.38,0,0a0,0,0,0,0,0,0ZM26,28.4c-.08.06,0,.09.14.12C26.11,28.39,26.08,28.31,26,28.4Zm-11.37-4a.18.18,0,0,1-.07,0c-1.3-1.27-3.28-.24-4.09,1.08a5,5,0,0,0-.34,3.76c1,3.49,4.09,4.26,7.07,3.18A25.07,25.07,0,0,1,14.61,24.4Zm0,0a.18.18,0,0,1-.07,0c-1.3-1.27-3.28-.24-4.09,1.08a5,5,0,0,0-.34,3.76c1,3.49,4.09,4.26,7.07,3.18A25.07,25.07,0,0,1,14.61,24.4ZM26,28.4c-.08.06,0,.09.14.12C26.11,28.39,26.08,28.31,26,28.4ZM26,34c-.29,0-.06.38,0,0a0,0,0,0,0,0,0Zm6.16,0a5.34,5.34,0,0,1,0-1.44V29c0-.15,0-.31,0-.47a9.8,9.8,0,0,0-1.23.05,1,1,0,0,1-1-1,.88.88,0,1,0-1.74,0,.87.87,0,0,1-.44.84h0a1,1,0,0,1-.56.16,10,10,0,0,1-1.08,0c0,.15,0,.4,0,.55v3.62a5.91,5.91,0,0,1,0,1.33,23.88,23.88,0,0,1,3.05,0,22.46,22.46,0,0,1,3.07,0Zm.21-5.45c-.25-.09-.21-.42-.21-.1v.05ZM32.31,34h-.1C32.38,34.43,32.34,34,32.31,34ZM30.14,20.91v3.84a2.57,2.57,0,0,1,1.72,1.77c1.09,0,2.11.23,2.32,1.58a21.91,21.91,0,0,1,0,3.34c0,1.86.52,4.44-2,4.59a36.74,36.74,0,0,1-6.38,0c-2.53-.31-1.72-4.09-1.72-5.87a6.48,6.48,0,0,1,.18-2.67,2,2,0,0,1,2-1,2.58,2.58,0,0,1,1.82-1.81v-3.8H16.31c.16,7,3.25,14.48,9.75,17.56a1,1,0,0,1,.5.86v1.19h9.16a14.94,14.94,0,0,1,2.63-9.22,1,1,0,0,1,.08-.11c2.5-3.47,6.78-6.74,11.25-6.09a24.78,24.78,0,0,0,.41-4.19ZM32.31,34h-.1C32.38,34.43,32.34,34,32.31,34Zm.09-5.49c-.25-.09-.21-.42-.21-.1v.05ZM32.19,34a5.34,5.34,0,0,1,0-1.44V29c0-.15,0-.31,0-.47a9.8,9.8,0,0,0-1.23.05,1,1,0,0,1-1-1,.88.88,0,1,0-1.74,0,.87.87,0,0,1-.44.84h0a1,1,0,0,1-.56.16,10,10,0,0,1-1.08,0c0,.15,0,.4,0,.55v3.62a5.91,5.91,0,0,1,0,1.33,23.88,23.88,0,0,1,3.05,0,22.46,22.46,0,0,1,3.07,0ZM26,34c-.29,0-.06.38,0,0a0,0,0,0,0,0,0ZM26,28.4c-.08.06,0,.09.14.12C26.11,28.39,26.08,28.31,26,28.4Zm0,0c-.08.06,0,.09.14.12C26.11,28.39,26.08,28.31,26,28.4ZM26,34c-.29,0-.06.38,0,0a0,0,0,0,0,0,0Zm6.16,0a5.34,5.34,0,0,1,0-1.44V29c0-.15,0-.31,0-.47a9.8,9.8,0,0,0-1.23.05,1,1,0,0,1-1-1,.88.88,0,1,0-1.74,0,.87.87,0,0,1-.44.84h0a1,1,0,0,1-.56.16,10,10,0,0,1-1.08,0c0,.15,0,.4,0,.55v3.62a5.91,5.91,0,0,1,0,1.33,23.88,23.88,0,0,1,3.05,0,22.46,22.46,0,0,1,3.07,0Zm.21-5.45c-.25-.09-.21-.42-.21-.1v.05ZM32.31,34h-.1C32.38,34.43,32.34,34,32.31,34Zm0,0h-.1C32.38,34.43,32.34,34,32.31,34Zm.09-5.49c-.25-.09-.21-.42-.21-.1v.05ZM32.19,34a5.34,5.34,0,0,1,0-1.44V29c0-.15,0-.31,0-.47a9.8,9.8,0,0,0-1.23.05,1,1,0,0,1-1-1,.88.88,0,1,0-1.74,0,.87.87,0,0,1-.44.84h0a1,1,0,0,1-.56.16,10,10,0,0,1-1.08,0c0,.15,0,.4,0,.55v3.62a5.91,5.91,0,0,1,0,1.33,23.88,23.88,0,0,1,3.05,0,22.46,22.46,0,0,1,3.07,0ZM26,34c-.29,0-.06.38,0,0a0,0,0,0,0,0,0ZM26,28.4c-.08.06,0,.09.14.12C26.11,28.39,26.08,28.31,26,28.4Zm-11.37-4a.18.18,0,0,1-.07,0c-1.3-1.27-3.28-.24-4.09,1.08a5,5,0,0,0-.34,3.76c1,3.49,4.09,4.26,7.07,3.18A25.07,25.07,0,0,1,14.61,24.4Zm0,0a.18.18,0,0,1-.07,0c-1.3-1.27-3.28-.24-4.09,1.08a5,5,0,0,0-.34,3.76c1,3.49,4.09,4.26,7.07,3.18A25.07,25.07,0,0,1,14.61,24.4ZM26,28.4c-.08.06,0,.09.14.12C26.11,28.39,26.08,28.31,26,28.4ZM26,34c-.29,0-.06.38,0,0a0,0,0,0,0,0,0Zm6.16,0a5.34,5.34,0,0,1,0-1.44V29c0-.15,0-.31,0-.47a9.8,9.8,0,0,0-1.23.05,1,1,0,0,1-1-1,.88.88,0,1,0-1.74,0,.87.87,0,0,1-.44.84h0a1,1,0,0,1-.56.16,10,10,0,0,1-1.08,0c0,.15,0,.4,0,.55v3.62a5.91,5.91,0,0,1,0,1.33,23.88,23.88,0,0,1,3.05,0,22.46,22.46,0,0,1,3.07,0Zm.21-5.45c-.25-.09-.21-.42-.21-.1v.05ZM32.31,34h-.1C32.38,34.43,32.34,34,32.31,34Zm0,0h-.1C32.38,34.43,32.34,34,32.31,34Zm.09-5.49c-.25-.09-.21-.42-.21-.1v.05ZM32.19,34a5.34,5.34,0,0,1,0-1.44V29c0-.15,0-.31,0-.47a9.8,9.8,0,0,0-1.23.05,1,1,0,0,1-1-1,.88.88,0,1,0-1.74,0,.87.87,0,0,1-.44.84h0a1,1,0,0,1-.56.16,10,10,0,0,1-1.08,0c0,.15,0,.4,0,.55v3.62a5.91,5.91,0,0,1,0,1.33,23.88,23.88,0,0,1,3.05,0,22.46,22.46,0,0,1,3.07,0ZM26,34c-.29,0-.06.38,0,0a0,0,0,0,0,0,0ZM26,28.4c-.08.06,0,.09.14.12C26.11,28.39,26.08,28.31,26,28.4Zm0,0c-.08.06,0,.09.14.12C26.11,28.39,26.08,28.31,26,28.4ZM26,34c-.29,0-.06.38,0,0a0,0,0,0,0,0,0Zm6.16,0a5.34,5.34,0,0,1,0-1.44V29c0-.15,0-.31,0-.47a9.8,9.8,0,0,0-1.23.05,1,1,0,0,1-1-1,.88.88,0,1,0-1.74,0,.87.87,0,0,1-.44.84h0a1,1,0,0,1-.56.16,10,10,0,0,1-1.08,0c0,.15,0,.4,0,.55v3.62a5.91,5.91,0,0,1,0,1.33,23.88,23.88,0,0,1,3.05,0,22.46,22.46,0,0,1,3.07,0Zm.21-5.45c-.25-.09-.21-.42-.21-.1v.05ZM32.31,34h-.1C32.38,34.43,32.34,34,32.31,34ZM30.14,20.91v3.84a2.57,2.57,0,0,1,1.72,1.77c1.09,0,2.11.23,2.32,1.58a21.91,21.91,0,0,1,0,3.34c0,1.86.52,4.44-2,4.59a36.74,36.74,0,0,1-6.38,0c-2.53-.31-1.72-4.09-1.72-5.87a6.48,6.48,0,0,1,.18-2.67,2,2,0,0,1,2-1,2.58,2.58,0,0,1,1.82-1.81v-3.8H16.31c.16,7,3.25,14.48,9.75,17.56a1,1,0,0,1,.5.86v1.19h9.16a14.94,14.94,0,0,1,2.63-9.22,1,1,0,0,1,.08-.11c2.5-3.47,6.78-6.74,11.25-6.09a24.78,24.78,0,0,0,.41-4.19ZM32.31,34h-.1C32.38,34.43,32.34,34,32.31,34Zm.09-5.49c-.25-.09-.21-.42-.21-.1v.05ZM32.19,34a5.34,5.34,0,0,1,0-1.44V29c0-.15,0-.31,0-.47a9.8,9.8,0,0,0-1.23.05,1,1,0,0,1-1-1,.88.88,0,1,0-1.74,0,.87.87,0,0,1-.44.84h0a1,1,0,0,1-.56.16,10,10,0,0,1-1.08,0c0,.15,0,.4,0,.55v3.62a5.91,5.91,0,0,1,0,1.33,23.88,23.88,0,0,1,3.05,0,22.46,22.46,0,0,1,3.07,0ZM26,34c-.29,0-.06.38,0,0a0,0,0,0,0,0,0ZM26,28.4c-.08.06,0,.09.14.12C26.11,28.39,26.08,28.31,26,28.4Zm0,0c-.08.06,0,.09.14.12C26.11,28.39,26.08,28.31,26,28.4ZM26,34c-.29,0-.06.38,0,0a0,0,0,0,0,0,0Zm6.16,0a5.34,5.34,0,0,1,0-1.44V29c0-.15,0-.31,0-.47a9.8,9.8,0,0,0-1.23.05,1,1,0,0,1-1-1,.88.88,0,1,0-1.74,0,.87.87,0,0,1-.44.84h0a1,1,0,0,1-.56.16,10,10,0,0,1-1.08,0c0,.15,0,.4,0,.55v3.62a5.91,5.91,0,0,1,0,1.33,23.88,23.88,0,0,1,3.05,0,22.46,22.46,0,0,1,3.07,0Zm.21-5.45c-.25-.09-.21-.42-.21-.1v.05ZM32.31,34h-.1C32.38,34.43,32.34,34,32.31,34Zm0,0h-.1C32.38,34.43,32.34,34,32.31,34Zm.09-5.49c-.25-.09-.21-.42-.21-.1v.05ZM32.19,34a5.34,5.34,0,0,1,0-1.44V29c0-.15,0-.31,0-.47a9.8,9.8,0,0,0-1.23.05,1,1,0,0,1-1-1,.88.88,0,1,0-1.74,0,.87.87,0,0,1-.44.84h0a1,1,0,0,1-.56.16,10,10,0,0,1-1.08,0c0,.15,0,.4,0,.55v3.62a5.91,5.91,0,0,1,0,1.33,23.88,23.88,0,0,1,3.05,0,22.46,22.46,0,0,1,3.07,0ZM26,34c-.29,0-.06.38,0,0a0,0,0,0,0,0,0ZM26,28.4c-.08.06,0,.09.14.12C26.11,28.39,26.08,28.31,26,28.4Zm0,0c-.08.06,0,.09.14.12C26.11,28.39,26.08,28.31,26,28.4ZM26,34c-.29,0-.06.38,0,0a0,0,0,0,0,0,0Zm6.16,0a5.34,5.34,0,0,1,0-1.44V29c0-.15,0-.31,0-.47a9.8,9.8,0,0,0-1.23.05,1,1,0,0,1-1-1,.88.88,0,1,0-1.74,0,.87.87,0,0,1-.44.84h0a1,1,0,0,1-.56.16,10,10,0,0,1-1.08,0c0,.15,0,.4,0,.55v3.62a5.91,5.91,0,0,1,0,1.33,23.88,23.88,0,0,1,3.05,0,22.46,22.46,0,0,1,3.07,0Zm.21-5.45c-.25-.09-.21-.42-.21-.1v.05ZM32.31,34h-.1C32.38,34.43,32.34,34,32.31,34Zm0,0h-.1C32.38,34.43,32.34,34,32.31,34Zm.09-5.49c-.25-.09-.21-.42-.21-.1v.05ZM32.19,34a5.34,5.34,0,0,1,0-1.44V29c0-.15,0-.31,0-.47a9.8,9.8,0,0,0-1.23.05,1,1,0,0,1-1-1,.88.88,0,1,0-1.74,0,.87.87,0,0,1-.44.84h0a1,1,0,0,1-.56.16,10,10,0,0,1-1.08,0c0,.15,0,.4,0,.55v3.62a5.91,5.91,0,0,1,0,1.33,23.88,23.88,0,0,1,3.05,0,22.46,22.46,0,0,1,3.07,0ZM26,34c-.29,0-.06.38,0,0a0,0,0,0,0,0,0ZM26,28.4c-.08.06,0,.09.14.12C26.11,28.39,26.08,28.31,26,28.4Zm-11.37-4a.18.18,0,0,1-.07,0c-1.3-1.27-3.28-.24-4.09,1.08a5,5,0,0,0-.34,3.76c1,3.49,4.09,4.26,7.07,3.18A25.07,25.07,0,0,1,14.61,24.4Zm0,0a.18.18,0,0,1-.07,0c-1.3-1.27-3.28-.24-4.09,1.08a5,5,0,0,0-.34,3.76c1,3.49,4.09,4.26,7.07,3.18A25.07,25.07,0,0,1,14.61,24.4ZM26,28.4c-.08.06,0,.09.14.12C26.11,28.39,26.08,28.31,26,28.4ZM26,34c-.29,0-.06.38,0,0a0,0,0,0,0,0,0Zm6.16,0a5.34,5.34,0,0,1,0-1.44V29c0-.15,0-.31,0-.47a9.8,9.8,0,0,0-1.23.05,1,1,0,0,1-1-1,.88.88,0,1,0-1.74,0,.87.87,0,0,1-.44.84h0a1,1,0,0,1-.56.16,10,10,0,0,1-1.08,0c0,.15,0,.4,0,.55v3.62a5.91,5.91,0,0,1,0,1.33,23.88,23.88,0,0,1,3.05,0,22.46,22.46,0,0,1,3.07,0Zm.21-5.45c-.25-.09-.21-.42-.21-.1v.05ZM32.31,34h-.1C32.38,34.43,32.34,34,32.31,34Zm0,0h-.1C32.38,34.43,32.34,34,32.31,34Zm.09-5.49c-.25-.09-.21-.42-.21-.1v.05ZM32.19,34a5.34,5.34,0,0,1,0-1.44V29c0-.15,0-.31,0-.47a9.8,9.8,0,0,0-1.23.05,1,1,0,0,1-1-1,.88.88,0,1,0-1.74,0,.87.87,0,0,1-.44.84h0a1,1,0,0,1-.56.16,10,10,0,0,1-1.08,0c0,.15,0,.4,0,.55v3.62a5.91,5.91,0,0,1,0,1.33,23.88,23.88,0,0,1,3.05,0,22.46,22.46,0,0,1,3.07,0ZM26,34c-.29,0-.06.38,0,0a0,0,0,0,0,0,0ZM26,28.4c-.08.06,0,.09.14.12C26.11,28.39,26.08,28.31,26,28.4Zm0,0c-.08.06,0,.09.14.12C26.11,28.39,26.08,28.31,26,28.4ZM26,34c-.29,0-.06.38,0,0a0,0,0,0,0,0,0Zm6.16,0a5.34,5.34,0,0,1,0-1.44V29c0-.15,0-.31,0-.47a9.8,9.8,0,0,0-1.23.05,1,1,0,0,1-1-1,.88.88,0,1,0-1.74,0,.87.87,0,0,1-.44.84h0a1,1,0,0,1-.56.16,10,10,0,0,1-1.08,0c0,.15,0,.4,0,.55v3.62a5.91,5.91,0,0,1,0,1.33,23.88,23.88,0,0,1,3.05,0,22.46,22.46,0,0,1,3.07,0Zm.21-5.45c-.25-.09-.21-.42-.21-.1v.05ZM32.31,34h-.1C32.38,34.43,32.34,34,32.31,34Zm0,0h-.1C32.38,34.43,32.34,34,32.31,34Zm.09-5.49c-.25-.09-.21-.42-.21-.1v.05ZM32.19,34a5.34,5.34,0,0,1,0-1.44V29c0-.15,0-.31,0-.47a9.8,9.8,0,0,0-1.23.05,1,1,0,0,1-1-1,.88.88,0,1,0-1.74,0,.87.87,0,0,1-.44.84h0a1,1,0,0,1-.56.16,10,10,0,0,1-1.08,0c0,.15,0,.4,0,.55v3.62a5.91,5.91,0,0,1,0,1.33,23.88,23.88,0,0,1,3.05,0,22.46,22.46,0,0,1,3.07,0ZM26,34c-.29,0-.06.38,0,0a0,0,0,0,0,0,0ZM26,28.4c-.08.06,0,.09.14.12C26.11,28.39,26.08,28.31,26,28.4Zm0,0c-.08.06,0,.09.14.12C26.11,28.39,26.08,28.31,26,28.4ZM26,34c-.29,0-.06.38,0,0a0,0,0,0,0,0,0Zm6.16,0a5.34,5.34,0,0,1,0-1.44V29c0-.15,0-.31,0-.47a9.8,9.8,0,0,0-1.23.05,1,1,0,0,1-1-1,.88.88,0,1,0-1.74,0,.87.87,0,0,1-.44.84h0a1,1,0,0,1-.56.16,10,10,0,0,1-1.08,0c0,.15,0,.4,0,.55v3.62a5.91,5.91,0,0,1,0,1.33,23.88,23.88,0,0,1,3.05,0,22.46,22.46,0,0,1,3.07,0Zm.21-5.45c-.25-.09-.21-.42-.21-.1v.05ZM32.31,34h-.1C32.38,34.43,32.34,34,32.31,34ZM30.14,20.91v3.84a2.57,2.57,0,0,1,1.72,1.77c1.09,0,2.11.23,2.32,1.58a21.91,21.91,0,0,1,0,3.34c0,1.86.52,4.44-2,4.59a36.74,36.74,0,0,1-6.38,0c-2.53-.31-1.72-4.09-1.72-5.87a6.48,6.48,0,0,1,.18-2.67,2,2,0,0,1,2-1,2.58,2.58,0,0,1,1.82-1.81v-3.8H16.31c.16,7,3.25,14.48,9.75,17.56a1,1,0,0,1,.5.86v1.19h9.16a14.94,14.94,0,0,1,2.63-9.22,1,1,0,0,1,.08-.11c2.5-3.47,6.78-6.74,11.25-6.09a24.78,24.78,0,0,0,.41-4.19ZM32.31,34h-.1C32.38,34.43,32.34,34,32.31,34Zm.09-5.49c-.25-.09-.21-.42-.21-.1v.05ZM32.19,34a5.34,5.34,0,0,1,0-1.44V29c0-.15,0-.31,0-.47a9.8,9.8,0,0,0-1.23.05,1,1,0,0,1-1-1,.88.88,0,1,0-1.74,0,.87.87,0,0,1-.44.84h0a1,1,0,0,1-.56.16,10,10,0,0,1-1.08,0c0,.15,0,.4,0,.55v3.62a5.91,5.91,0,0,1,0,1.33,23.88,23.88,0,0,1,3.05,0,22.46,22.46,0,0,1,3.07,0ZM26,34c-.29,0-.06.38,0,0a0,0,0,0,0,0,0ZM26,28.4c-.08.06,0,.09.14.12C26.11,28.39,26.08,28.31,26,28.4Zm0,0c-.08.06,0,.09.14.12C26.11,28.39,26.08,28.31,26,28.4ZM26,34c-.29,0-.06.38,0,0a0,0,0,0,0,0,0Zm6.16,0a5.34,5.34,0,0,1,0-1.44V29c0-.15,0-.31,0-.47a9.8,9.8,0,0,0-1.23.05,1,1,0,0,1-1-1,.88.88,0,1,0-1.74,0,.87.87,0,0,1-.44.84h0a1,1,0,0,1-.56.16,10,10,0,0,1-1.08,0c0,.15,0,.4,0,.55v3.62a5.91,5.91,0,0,1,0,1.33,23.88,23.88,0,0,1,3.05,0,22.46,22.46,0,0,1,3.07,0Zm.21-5.45c-.25-.09-.21-.42-.21-.1v.05ZM32.31,34h-.1C32.38,34.43,32.34,34,32.31,34Zm0,0h-.1C32.38,34.43,32.34,34,32.31,34Zm.09-5.49c-.25-.09-.21-.42-.21-.1v.05ZM32.19,34a5.34,5.34,0,0,1,0-1.44V29c0-.15,0-.31,0-.47a9.8,9.8,0,0,0-1.23.05,1,1,0,0,1-1-1,.88.88,0,1,0-1.74,0,.87.87,0,0,1-.44.84h0a1,1,0,0,1-.56.16,10,10,0,0,1-1.08,0c0,.15,0,.4,0,.55v3.62a5.91,5.91,0,0,1,0,1.33,23.88,23.88,0,0,1,3.05,0,22.46,22.46,0,0,1,3.07,0ZM26,34c-.29,0-.06.38,0,0a0,0,0,0,0,0,0ZM26,28.4c-.08.06,0,.09.14.12C26.11,28.39,26.08,28.31,26,28.4Zm0,0c-.08.06,0,.09.14.12C26.11,28.39,26.08,28.31,26,28.4ZM26,34c-.29,0-.06.38,0,0a0,0,0,0,0,0,0Zm6.16,0a5.34,5.34,0,0,1,0-1.44V29c0-.15,0-.31,0-.47a9.8,9.8,0,0,0-1.23.05,1,1,0,0,1-1-1,.88.88,0,1,0-1.74,0,.87.87,0,0,1-.44.84h0a1,1,0,0,1-.56.16,10,10,0,0,1-1.08,0c0,.15,0,.4,0,.55v3.62a5.91,5.91,0,0,1,0,1.33,23.88,23.88,0,0,1,3.05,0,22.46,22.46,0,0,1,3.07,0Zm.21-5.45c-.25-.09-.21-.42-.21-.1v.05ZM32.31,34h-.1C32.38,34.43,32.34,34,32.31,34Zm0,0h-.1C32.38,34.43,32.34,34,32.31,34Zm.09-5.49c-.25-.09-.21-.42-.21-.1v.05ZM32.19,34a5.34,5.34,0,0,1,0-1.44V29c0-.15,0-.31,0-.47a9.8,9.8,0,0,0-1.23.05,1,1,0,0,1-1-1,.88.88,0,1,0-1.74,0,.87.87,0,0,1-.44.84h0a1,1,0,0,1-.56.16,10,10,0,0,1-1.08,0c0,.15,0,.4,0,.55v3.62a5.91,5.91,0,0,1,0,1.33,23.88,23.88,0,0,1,3.05,0,22.46,22.46,0,0,1,3.07,0ZM26,34c-.29,0-.06.38,0,0a0,0,0,0,0,0,0ZM26,28.4c-.08.06,0,.09.14.12C26.11,28.39,26.08,28.31,26,28.4Zm0,0c-.08.06,0,.09.14.12C26.11,28.39,26.08,28.31,26,28.4ZM26,34c-.29,0-.06.38,0,0a0,0,0,0,0,0,0Zm6.16,0a5.34,5.34,0,0,1,0-1.44V29c0-.15,0-.31,0-.47a9.8,9.8,0,0,0-1.23.05,1,1,0,0,1-1-1,.88.88,0,1,0-1.74,0,.87.87,0,0,1-.44.84h0a1,1,0,0,1-.56.16,10,10,0,0,1-1.08,0c0,.15,0,.4,0,.55v3.62a5.91,5.91,0,0,1,0,1.33,23.88,23.88,0,0,1,3.05,0,22.46,22.46,0,0,1,3.07,0Zm.21-5.45c-.25-.09-.21-.42-.21-.1v.05ZM32.31,34h-.1C32.38,34.43,32.34,34,32.31,34Zm0,0h-.1C32.38,34.43,32.34,34,32.31,34Zm.09-5.49c-.25-.09-.21-.42-.21-.1v.05ZM32.19,34a5.34,5.34,0,0,1,0-1.44V29c0-.15,0-.31,0-.47a9.8,9.8,0,0,0-1.23.05,1,1,0,0,1-1-1,.88.88,0,1,0-1.74,0,.87.87,0,0,1-.44.84h0a1,1,0,0,1-.56.16,10,10,0,0,1-1.08,0c0,.15,0,.4,0,.55v3.62a5.91,5.91,0,0,1,0,1.33,23.88,23.88,0,0,1,3.05,0,22.46,22.46,0,0,1,3.07,0ZM26,34c-.29,0-.06.38,0,0a0,0,0,0,0,0,0ZM26,28.4c-.08.06,0,.09.14.12C26.11,28.39,26.08,28.31,26,28.4Zm-11.37-4a.18.18,0,0,1-.07,0c-1.3-1.27-3.28-.24-4.09,1.08a5,5,0,0,0-.34,3.76c1,3.49,4.09,4.26,7.07,3.18A25.07,25.07,0,0,1,14.61,24.4Zm0,0a.18.18,0,0,1-.07,0c-1.3-1.27-3.28-.24-4.09,1.08a5,5,0,0,0-.34,3.76c1,3.49,4.09,4.26,7.07,3.18A25.07,25.07,0,0,1,14.61,24.4ZM26,28.4c-.08.06,0,.09.14.12C26.11,28.39,26.08,28.31,26,28.4ZM26,34c-.29,0-.06.38,0,0a0,0,0,0,0,0,0Zm6.16,0a5.34,5.34,0,0,1,0-1.44V29c0-.15,0-.31,0-.47a9.8,9.8,0,0,0-1.23.05,1,1,0,0,1-1-1,.88.88,0,1,0-1.74,0,.87.87,0,0,1-.44.84h0a1,1,0,0,1-.56.16,10,10,0,0,1-1.08,0c0,.15,0,.4,0,.55v3.62a5.91,5.91,0,0,1,0,1.33,23.88,23.88,0,0,1,3.05,0,22.46,22.46,0,0,1,3.07,0Zm.21-5.45c-.25-.09-.21-.42-.21-.1v.05ZM32.31,34h-.1C32.38,34.43,32.34,34,32.31,34Zm0,0h-.1C32.38,34.43,32.34,34,32.31,34Zm.09-5.49c-.25-.09-.21-.42-.21-.1v.05ZM32.19,34a5.34,5.34,0,0,1,0-1.44V29c0-.15,0-.31,0-.47a9.8,9.8,0,0,0-1.23.05,1,1,0,0,1-1-1,.88.88,0,1,0-1.74,0,.87.87,0,0,1-.44.84h0a1,1,0,0,1-.56.16,10,10,0,0,1-1.08,0c0,.15,0,.4,0,.55v3.62a5.91,5.91,0,0,1,0,1.33,23.88,23.88,0,0,1,3.05,0,22.46,22.46,0,0,1,3.07,0ZM26,34c-.29,0-.06.38,0,0a0,0,0,0,0,0,0ZM26,28.4c-.08.06,0,.09.14.12C26.11,28.39,26.08,28.31,26,28.4Zm0,0c-.08.06,0,.09.14.12C26.11,28.39,26.08,28.31,26,28.4ZM26,34c-.29,0-.06.38,0,0a0,0,0,0,0,0,0Zm6.16,0a5.34,5.34,0,0,1,0-1.44V29c0-.15,0-.31,0-.47a9.8,9.8,0,0,0-1.23.05,1,1,0,0,1-1-1,.88.88,0,1,0-1.74,0,.87.87,0,0,1-.44.84h0a1,1,0,0,1-.56.16,10,10,0,0,1-1.08,0c0,.15,0,.4,0,.55v3.62a5.91,5.91,0,0,1,0,1.33,23.88,23.88,0,0,1,3.05,0,22.46,22.46,0,0,1,3.07,0Zm.21-5.45c-.25-.09-.21-.42-.21-.1v.05ZM32.31,34h-.1C32.38,34.43,32.34,34,32.31,34Zm0,0h-.1C32.38,34.43,32.34,34,32.31,34Zm.09-5.49c-.25-.09-.21-.42-.21-.1v.05ZM32.19,34a5.34,5.34,0,0,1,0-1.44V29c0-.15,0-.31,0-.47a9.8,9.8,0,0,0-1.23.05,1,1,0,0,1-1-1,.88.88,0,1,0-1.74,0,.87.87,0,0,1-.44.84h0a1,1,0,0,1-.56.16,10,10,0,0,1-1.08,0c0,.15,0,.4,0,.55v3.62a5.91,5.91,0,0,1,0,1.33,23.88,23.88,0,0,1,3.05,0,22.46,22.46,0,0,1,3.07,0ZM26,34c-.29,0-.06.38,0,0a0,0,0,0,0,0,0ZM26,28.4c-.08.06,0,.09.14.12C26.11,28.39,26.08,28.31,26,28.4Zm0,0c-.08.06,0,.09.14.12C26.11,28.39,26.08,28.31,26,28.4ZM26,34c-.29,0-.06.38,0,0a0,0,0,0,0,0,0Zm6.16,0a5.34,5.34,0,0,1,0-1.44V29c0-.15,0-.31,0-.47a9.8,9.8,0,0,0-1.23.05,1,1,0,0,1-1-1,.88.88,0,1,0-1.74,0,.87.87,0,0,1-.44.84h0a1,1,0,0,1-.56.16,10,10,0,0,1-1.08,0c0,.15,0,.4,0,.55v3.62a5.91,5.91,0,0,1,0,1.33,23.88,23.88,0,0,1,3.05,0,22.46,22.46,0,0,1,3.07,0Zm.21-5.45c-.25-.09-.21-.42-.21-.1v.05ZM32.31,34h-.1C32.38,34.43,32.34,34,32.31,34ZM30.14,20.91v3.84a2.57,2.57,0,0,1,1.72,1.77c1.09,0,2.11.23,2.32,1.58a21.91,21.91,0,0,1,0,3.34c0,1.86.52,4.44-2,4.59a36.74,36.74,0,0,1-6.38,0c-2.53-.31-1.72-4.09-1.72-5.87a6.48,6.48,0,0,1,.18-2.67,2,2,0,0,1,2-1,2.58,2.58,0,0,1,1.82-1.81v-3.8H16.31c.16,7,3.25,14.48,9.75,17.56a1,1,0,0,1,.5.86v1.19h9.16a14.94,14.94,0,0,1,2.63-9.22,1,1,0,0,1,.08-.11c2.5-3.47,6.78-6.74,11.25-6.09a24.78,24.78,0,0,0,.41-4.19ZM32.31,34h-.1C32.38,34.43,32.34,34,32.31,34Zm.09-5.49c-.25-.09-.21-.42-.21-.1v.05ZM32.19,34a5.34,5.34,0,0,1,0-1.44V29c0-.15,0-.31,0-.47a9.8,9.8,0,0,0-1.23.05,1,1,0,0,1-1-1,.88.88,0,1,0-1.74,0,.87.87,0,0,1-.44.84h0a1,1,0,0,1-.56.16,10,10,0,0,1-1.08,0c0,.15,0,.4,0,.55v3.62a5.91,5.91,0,0,1,0,1.33,23.88,23.88,0,0,1,3.05,0,22.46,22.46,0,0,1,3.07,0ZM26,34c-.29,0-.06.38,0,0a0,0,0,0,0,0,0ZM26,28.4c-.08.06,0,.09.14.12C26.11,28.39,26.08,28.31,26,28.4Zm0,0c-.08.06,0,.09.14.12C26.11,28.39,26.08,28.31,26,28.4ZM26,34c-.29,0-.06.38,0,0a0,0,0,0,0,0,0Zm6.16,0a5.34,5.34,0,0,1,0-1.44V29c0-.15,0-.31,0-.47a9.8,9.8,0,0,0-1.23.05,1,1,0,0,1-1-1,.88.88,0,1,0-1.74,0,.87.87,0,0,1-.44.84h0a1,1,0,0,1-.56.16,10,10,0,0,1-1.08,0c0,.15,0,.4,0,.55v3.62a5.91,5.91,0,0,1,0,1.33,23.88,23.88,0,0,1,3.05,0,22.46,22.46,0,0,1,3.07,0Zm.21-5.45c-.25-.09-.21-.42-.21-.1v.05ZM32.31,34h-.1C32.38,34.43,32.34,34,32.31,34Zm0,0h-.1C32.38,34.43,32.34,34,32.31,34Zm.09-5.49c-.25-.09-.21-.42-.21-.1v.05ZM32.19,34a5.34,5.34,0,0,1,0-1.44V29c0-.15,0-.31,0-.47a9.8,9.8,0,0,0-1.23.05,1,1,0,0,1-1-1,.88.88,0,1,0-1.74,0,.87.87,0,0,1-.44.84h0a1,1,0,0,1-.56.16,10,10,0,0,1-1.08,0c0,.15,0,.4,0,.55v3.62a5.91,5.91,0,0,1,0,1.33,23.88,23.88,0,0,1,3.05,0,22.46,22.46,0,0,1,3.07,0ZM26,34c-.29,0-.06.38,0,0a0,0,0,0,0,0,0ZM26,28.4c-.08.06,0,.09.14.12C26.11,28.39,26.08,28.31,26,28.4Zm0,0c-.08.06,0,.09.14.12C26.11,28.39,26.08,28.31,26,28.4ZM26,34c-.29,0-.06.38,0,0a0,0,0,0,0,0,0Zm6.16,0a5.34,5.34,0,0,1,0-1.44V29c0-.15,0-.31,0-.47a9.8,9.8,0,0,0-1.23.05,1,1,0,0,1-1-1,.88.88,0,1,0-1.74,0,.87.87,0,0,1-.44.84h0a1,1,0,0,1-.56.16,10,10,0,0,1-1.08,0c0,.15,0,.4,0,.55v3.62a5.91,5.91,0,0,1,0,1.33,23.88,23.88,0,0,1,3.05,0,22.46,22.46,0,0,1,3.07,0Zm.21-5.45c-.25-.09-.21-.42-.21-.1v.05ZM32.31,34h-.1C32.38,34.43,32.34,34,32.31,34Zm0,0h-.1C32.38,34.43,32.34,34,32.31,34Zm.09-5.49c-.25-.09-.21-.42-.21-.1v.05ZM32.19,34a5.34,5.34,0,0,1,0-1.44V29c0-.15,0-.31,0-.47a9.8,9.8,0,0,0-1.23.05,1,1,0,0,1-1-1,.88.88,0,1,0-1.74,0,.87.87,0,0,1-.44.84h0a1,1,0,0,1-.56.16,10,10,0,0,1-1.08,0c0,.15,0,.4,0,.55v3.62a5.91,5.91,0,0,1,0,1.33,23.88,23.88,0,0,1,3.05,0,22.46,22.46,0,0,1,3.07,0ZM26,34c-.29,0-.06.38,0,0a0,0,0,0,0,0,0ZM26,28.4c-.08.06,0,.09.14.12C26.11,28.39,26.08,28.31,26,28.4Zm0,0c-.08.06,0,.09.14.12C26.11,28.39,26.08,28.31,26,28.4ZM26,34c-.29,0-.06.38,0,0a0,0,0,0,0,0,0Zm6.16,0a5.34,5.34,0,0,1,0-1.44V29c0-.15,0-.31,0-.47a9.8,9.8,0,0,0-1.23.05,1,1,0,0,1-1-1,.88.88,0,1,0-1.74,0,.87.87,0,0,1-.44.84h0a1,1,0,0,1-.56.16,10,10,0,0,1-1.08,0c0,.15,0,.4,0,.55v3.62a5.91,5.91,0,0,1,0,1.33,23.88,23.88,0,0,1,3.05,0,22.46,22.46,0,0,1,3.07,0Zm.21-5.45c-.25-.09-.21-.42-.21-.1v.05ZM32.31,34h-.1C32.38,34.43,32.34,34,32.31,34Zm0,0h-.1C32.38,34.43,32.34,34,32.31,34Zm.09-5.49c-.25-.09-.21-.42-.21-.1v.05ZM32.19,34a5.34,5.34,0,0,1,0-1.44V29c0-.15,0-.31,0-.47a9.8,9.8,0,0,0-1.23.05,1,1,0,0,1-1-1,.88.88,0,1,0-1.74,0,.87.87,0,0,1-.44.84h0a1,1,0,0,1-.56.16,10,10,0,0,1-1.08,0c0,.15,0,.4,0,.55v3.62a5.91,5.91,0,0,1,0,1.33,23.88,23.88,0,0,1,3.05,0,22.46,22.46,0,0,1,3.07,0ZM26,34c-.29,0-.06.38,0,0a0,0,0,0,0,0,0ZM26,28.4c-.08.06,0,.09.14.12C26.11,28.39,26.08,28.31,26,28.4Zm-11.37-4a.18.18,0,0,1-.07,0c-1.3-1.27-3.28-.24-4.09,1.08a5,5,0,0,0-.34,3.76c1,3.49,4.09,4.26,7.07,3.18A25.07,25.07,0,0,1,14.61,24.4Zm0,0a.18.18,0,0,1-.07,0c-1.3-1.27-3.28-.24-4.09,1.08a5,5,0,0,0-.34,3.76c1,3.49,4.09,4.26,7.07,3.18A25.07,25.07,0,0,1,14.61,24.4ZM26,28.4c-.08.06,0,.09.14.12C26.11,28.39,26.08,28.31,26,28.4ZM26,34c-.29,0-.06.38,0,0a0,0,0,0,0,0,0Zm6.16,0a5.34,5.34,0,0,1,0-1.44V29c0-.15,0-.31,0-.47a9.8,9.8,0,0,0-1.23.05,1,1,0,0,1-1-1,.88.88,0,1,0-1.74,0,.87.87,0,0,1-.44.84h0a1,1,0,0,1-.56.16,10,10,0,0,1-1.08,0c0,.15,0,.4,0,.55v3.62a5.91,5.91,0,0,1,0,1.33,23.88,23.88,0,0,1,3.05,0,22.46,22.46,0,0,1,3.07,0Zm.21-5.45c-.25-.09-.21-.42-.21-.1v.05ZM32.31,34h-.1C32.38,34.43,32.34,34,32.31,34Zm0,0h-.1C32.38,34.43,32.34,34,32.31,34Zm.09-5.49c-.25-.09-.21-.42-.21-.1v.05ZM32.19,34a5.34,5.34,0,0,1,0-1.44V29c0-.15,0-.31,0-.47a9.8,9.8,0,0,0-1.23.05,1,1,0,0,1-1-1,.88.88,0,1,0-1.74,0,.87.87,0,0,1-.44.84h0a1,1,0,0,1-.56.16,10,10,0,0,1-1.08,0c0,.15,0,.4,0,.55v3.62a5.91,5.91,0,0,1,0,1.33,23.88,23.88,0,0,1,3.05,0,22.46,22.46,0,0,1,3.07,0ZM26,34c-.29,0-.06.38,0,0a0,0,0,0,0,0,0ZM26,28.4c-.08.06,0,.09.14.12C26.11,28.39,26.08,28.31,26,28.4Zm0,0c-.08.06,0,.09.14.12C26.11,28.39,26.08,28.31,26,28.4ZM26,34c-.29,0-.06.38,0,0a0,0,0,0,0,0,0Zm6.16,0a5.34,5.34,0,0,1,0-1.44V29c0-.15,0-.31,0-.47a9.8,9.8,0,0,0-1.23.05,1,1,0,0,1-1-1,.88.88,0,1,0-1.74,0,.87.87,0,0,1-.44.84h0a1,1,0,0,1-.56.16,10,10,0,0,1-1.08,0c0,.15,0,.4,0,.55v3.62a5.91,5.91,0,0,1,0,1.33,23.88,23.88,0,0,1,3.05,0,22.46,22.46,0,0,1,3.07,0Zm.21-5.45c-.25-.09-.21-.42-.21-.1v.05ZM32.31,34h-.1C32.38,34.43,32.34,34,32.31,34Zm0,0h-.1C32.38,34.43,32.34,34,32.31,34Zm.09-5.49c-.25-.09-.21-.42-.21-.1v.05ZM32.19,34a5.34,5.34,0,0,1,0-1.44V29c0-.15,0-.31,0-.47a9.8,9.8,0,0,0-1.23.05,1,1,0,0,1-1-1,.88.88,0,1,0-1.74,0,.87.87,0,0,1-.44.84h0a1,1,0,0,1-.56.16,10,10,0,0,1-1.08,0c0,.15,0,.4,0,.55v3.62a5.91,5.91,0,0,1,0,1.33,23.88,23.88,0,0,1,3.05,0,22.46,22.46,0,0,1,3.07,0ZM26,34c-.29,0-.06.38,0,0a0,0,0,0,0,0,0ZM26,28.4c-.08.06,0,.09.14.12C26.11,28.39,26.08,28.31,26,28.4Zm0,0c-.08.06,0,.09.14.12C26.11,28.39,26.08,28.31,26,28.4ZM26,34c-.29,0-.06.38,0,0a0,0,0,0,0,0,0Zm6.16,0a5.34,5.34,0,0,1,0-1.44V29c0-.15,0-.31,0-.47a9.8,9.8,0,0,0-1.23.05,1,1,0,0,1-1-1,.88.88,0,1,0-1.74,0,.87.87,0,0,1-.44.84h0a1,1,0,0,1-.56.16,10,10,0,0,1-1.08,0c0,.15,0,.4,0,.55v3.62a5.91,5.91,0,0,1,0,1.33,23.88,23.88,0,0,1,3.05,0,22.46,22.46,0,0,1,3.07,0Zm.21-5.45c-.25-.09-.21-.42-.21-.1v.05ZM32.31,34h-.1C32.38,34.43,32.34,34,32.31,34ZM30.14,20.91v3.84a2.57,2.57,0,0,1,1.72,1.77c1.09,0,2.11.23,2.32,1.58a21.91,21.91,0,0,1,0,3.34c0,1.86.52,4.44-2,4.59a36.74,36.74,0,0,1-6.38,0c-2.53-.31-1.72-4.09-1.72-5.87a6.48,6.48,0,0,1,.18-2.67,2,2,0,0,1,2-1,2.58,2.58,0,0,1,1.82-1.81v-3.8H16.31c.16,7,3.25,14.48,9.75,17.56a1,1,0,0,1,.5.86v1.19h9.16a14.94,14.94,0,0,1,2.63-9.22,1,1,0,0,1,.08-.11c2.5-3.47,6.78-6.74,11.25-6.09a24.78,24.78,0,0,0,.41-4.19ZM32.31,34h-.1C32.38,34.43,32.34,34,32.31,34Zm.09-5.49c-.25-.09-.21-.42-.21-.1v.05ZM32.19,34a5.34,5.34,0,0,1,0-1.44V29c0-.15,0-.31,0-.47a9.8,9.8,0,0,0-1.23.05,1,1,0,0,1-1-1,.88.88,0,1,0-1.74,0,.87.87,0,0,1-.44.84h0a1,1,0,0,1-.56.16,10,10,0,0,1-1.08,0c0,.15,0,.4,0,.55v3.62a5.91,5.91,0,0,1,0,1.33,23.88,23.88,0,0,1,3.05,0,22.46,22.46,0,0,1,3.07,0ZM26,34c-.29,0-.06.38,0,0a0,0,0,0,0,0,0ZM26,28.4c-.08.06,0,.09.14.12C26.11,28.39,26.08,28.31,26,28.4Zm0,0c-.08.06,0,.09.14.12C26.11,28.39,26.08,28.31,26,28.4ZM26,34c-.29,0-.06.38,0,0a0,0,0,0,0,0,0Zm6.16,0a5.34,5.34,0,0,1,0-1.44V29c0-.15,0-.31,0-.47a9.8,9.8,0,0,0-1.23.05,1,1,0,0,1-1-1,.88.88,0,1,0-1.74,0,.87.87,0,0,1-.44.84h0a1,1,0,0,1-.56.16,10,10,0,0,1-1.08,0c0,.15,0,.4,0,.55v3.62a5.91,5.91,0,0,1,0,1.33,23.88,23.88,0,0,1,3.05,0,22.46,22.46,0,0,1,3.07,0Zm.21-5.45c-.25-.09-.21-.42-.21-.1v.05ZM32.31,34h-.1C32.38,34.43,32.34,34,32.31,34Zm0,0h-.1C32.38,34.43,32.34,34,32.31,34Zm.09-5.49c-.25-.09-.21-.42-.21-.1v.05ZM32.19,34a5.34,5.34,0,0,1,0-1.44V29c0-.15,0-.31,0-.47a9.8,9.8,0,0,0-1.23.05,1,1,0,0,1-1-1,.88.88,0,1,0-1.74,0,.87.87,0,0,1-.44.84h0a1,1,0,0,1-.56.16,10,10,0,0,1-1.08,0c0,.15,0,.4,0,.55v3.62a5.91,5.91,0,0,1,0,1.33,23.88,23.88,0,0,1,3.05,0,22.46,22.46,0,0,1,3.07,0ZM26,34c-.29,0-.06.38,0,0a0,0,0,0,0,0,0ZM26,28.4c-.08.06,0,.09.14.12C26.11,28.39,26.08,28.31,26,28.4Zm0,0c-.08.06,0,.09.14.12C26.11,28.39,26.08,28.31,26,28.4ZM26,34c-.29,0-.06.38,0,0a0,0,0,0,0,0,0Zm6.16,0a5.34,5.34,0,0,1,0-1.44V29c0-.15,0-.31,0-.47a9.8,9.8,0,0,0-1.23.05,1,1,0,0,1-1-1,.88.88,0,1,0-1.74,0,.87.87,0,0,1-.44.84h0a1,1,0,0,1-.56.16,10,10,0,0,1-1.08,0c0,.15,0,.4,0,.55v3.62a5.91,5.91,0,0,1,0,1.33,23.88,23.88,0,0,1,3.05,0,22.46,22.46,0,0,1,3.07,0Zm.21-5.45c-.25-.09-.21-.42-.21-.1v.05ZM32.31,34h-.1C32.38,34.43,32.34,34,32.31,34Zm0,0h-.1C32.38,34.43,32.34,34,32.31,34Zm.09-5.49c-.25-.09-.21-.42-.21-.1v.05ZM32.19,34a5.34,5.34,0,0,1,0-1.44V29c0-.15,0-.31,0-.47a9.8,9.8,0,0,0-1.23.05,1,1,0,0,1-1-1,.88.88,0,1,0-1.74,0,.87.87,0,0,1-.44.84h0a1,1,0,0,1-.56.16,10,10,0,0,1-1.08,0c0,.15,0,.4,0,.55v3.62a5.91,5.91,0,0,1,0,1.33,23.88,23.88,0,0,1,3.05,0,22.46,22.46,0,0,1,3.07,0ZM26,34c-.29,0-.06.38,0,0a0,0,0,0,0,0,0ZM26,28.4c-.08.06,0,.09.14.12C26.11,28.39,26.08,28.31,26,28.4Zm0,0c-.08.06,0,.09.14.12C26.11,28.39,26.08,28.31,26,28.4ZM26,34c-.29,0-.06.38,0,0a0,0,0,0,0,0,0Zm6.16,0a5.34,5.34,0,0,1,0-1.44V29c0-.15,0-.31,0-.47a9.8,9.8,0,0,0-1.23.05,1,1,0,0,1-1-1,.88.88,0,1,0-1.74,0,.87.87,0,0,1-.44.84h0a1,1,0,0,1-.56.16,10,10,0,0,1-1.08,0c0,.15,0,.4,0,.55v3.62a5.91,5.91,0,0,1,0,1.33,23.88,23.88,0,0,1,3.05,0,22.46,22.46,0,0,1,3.07,0Zm.21-5.45c-.25-.09-.21-.42-.21-.1v.05ZM32.31,34h-.1C32.38,34.43,32.34,34,32.31,34Zm0,0h-.1C32.38,34.43,32.34,34,32.31,34Zm.09-5.49c-.25-.09-.21-.42-.21-.1v.05ZM32.19,34a5.34,5.34,0,0,1,0-1.44V29c0-.15,0-.31,0-.47a9.8,9.8,0,0,0-1.23.05,1,1,0,0,1-1-1,.88.88,0,1,0-1.74,0,.87.87,0,0,1-.44.84h0a1,1,0,0,1-.56.16,10,10,0,0,1-1.08,0c0,.15,0,.4,0,.55v3.62a5.91,5.91,0,0,1,0,1.33,23.88,23.88,0,0,1,3.05,0,22.46,22.46,0,0,1,3.07,0ZM26,34c-.29,0-.06.38,0,0a0,0,0,0,0,0,0ZM26,28.4c-.08.06,0,.09.14.12C26.11,28.39,26.08,28.31,26,28.4Zm-11.37-4a.18.18,0,0,1-.07,0c-1.3-1.27-3.28-.24-4.09,1.08a5,5,0,0,0-.34,3.76c1,3.49,4.09,4.26,7.07,3.18A25.07,25.07,0,0,1,14.61,24.4Zm0,0a.18.18,0,0,1-.07,0c-1.3-1.27-3.28-.24-4.09,1.08a5,5,0,0,0-.34,3.76c1,3.49,4.09,4.26,7.07,3.18A25.07,25.07,0,0,1,14.61,24.4ZM26,28.4c-.08.06,0,.09.14.12C26.11,28.39,26.08,28.31,26,28.4ZM26,34c-.29,0-.06.38,0,0a0,0,0,0,0,0,0Zm6.16,0a5.34,5.34,0,0,1,0-1.44V29c0-.15,0-.31,0-.47a9.8,9.8,0,0,0-1.23.05,1,1,0,0,1-1-1,.88.88,0,1,0-1.74,0,.87.87,0,0,1-.44.84h0a1,1,0,0,1-.56.16,10,10,0,0,1-1.08,0c0,.15,0,.4,0,.55v3.62a5.91,5.91,0,0,1,0,1.33,23.88,23.88,0,0,1,3.05,0,22.46,22.46,0,0,1,3.07,0Zm.21-5.45c-.25-.09-.21-.42-.21-.1v.05ZM32.31,34h-.1C32.38,34.43,32.34,34,32.31,34Zm0,0h-.1C32.38,34.43,32.34,34,32.31,34Zm.09-5.49c-.25-.09-.21-.42-.21-.1v.05ZM32.19,34a5.34,5.34,0,0,1,0-1.44V29c0-.15,0-.31,0-.47a9.8,9.8,0,0,0-1.23.05,1,1,0,0,1-1-1,.88.88,0,1,0-1.74,0,.87.87,0,0,1-.44.84h0a1,1,0,0,1-.56.16,10,10,0,0,1-1.08,0c0,.15,0,.4,0,.55v3.62a5.91,5.91,0,0,1,0,1.33,23.88,23.88,0,0,1,3.05,0,22.46,22.46,0,0,1,3.07,0ZM26,34c-.29,0-.06.38,0,0a0,0,0,0,0,0,0ZM26,28.4c-.08.06,0,.09.14.12C26.11,28.39,26.08,28.31,26,28.4Zm0,0c-.08.06,0,.09.14.12C26.11,28.39,26.08,28.31,26,28.4ZM26,34c-.29,0-.06.38,0,0a0,0,0,0,0,0,0Zm6.16,0a5.34,5.34,0,0,1,0-1.44V29c0-.15,0-.31,0-.47a9.8,9.8,0,0,0-1.23.05,1,1,0,0,1-1-1,.88.88,0,1,0-1.74,0,.87.87,0,0,1-.44.84h0a1,1,0,0,1-.56.16,10,10,0,0,1-1.08,0c0,.15,0,.4,0,.55v3.62a5.91,5.91,0,0,1,0,1.33,23.88,23.88,0,0,1,3.05,0,22.46,22.46,0,0,1,3.07,0Zm.21-5.45c-.25-.09-.21-.42-.21-.1v.05ZM32.31,34h-.1C32.38,34.43,32.34,34,32.31,34Zm0,0h-.1C32.38,34.43,32.34,34,32.31,34Zm.09-5.49c-.25-.09-.21-.42-.21-.1v.05ZM32.19,34a5.34,5.34,0,0,1,0-1.44V29c0-.15,0-.31,0-.47a9.8,9.8,0,0,0-1.23.05,1,1,0,0,1-1-1,.88.88,0,1,0-1.74,0,.87.87,0,0,1-.44.84h0a1,1,0,0,1-.56.16,10,10,0,0,1-1.08,0c0,.15,0,.4,0,.55v3.62a5.91,5.91,0,0,1,0,1.33,23.88,23.88,0,0,1,3.05,0,22.46,22.46,0,0,1,3.07,0ZM26,34c-.29,0-.06.38,0,0a0,0,0,0,0,0,0ZM26,28.4c-.08.06,0,.09.14.12C26.11,28.39,26.08,28.31,26,28.4Zm0,0c-.08.06,0,.09.14.12C26.11,28.39,26.08,28.31,26,28.4ZM26,34c-.29,0-.06.38,0,0a0,0,0,0,0,0,0Zm6.16,0a5.34,5.34,0,0,1,0-1.44V29c0-.15,0-.31,0-.47a9.8,9.8,0,0,0-1.23.05,1,1,0,0,1-1-1,.88.88,0,1,0-1.74,0,.87.87,0,0,1-.44.84h0a1,1,0,0,1-.56.16,10,10,0,0,1-1.08,0c0,.15,0,.4,0,.55v3.62a5.91,5.91,0,0,1,0,1.33,23.88,23.88,0,0,1,3.05,0,22.46,22.46,0,0,1,3.07,0Zm.21-5.45c-.25-.09-.21-.42-.21-.1v.05ZM32.31,34h-.1C32.38,34.43,32.34,34,32.31,34ZM30.14,20.91v3.84a2.57,2.57,0,0,1,1.72,1.77c1.09,0,2.11.23,2.32,1.58a21.91,21.91,0,0,1,0,3.34c0,1.86.52,4.44-2,4.59a36.74,36.74,0,0,1-6.38,0c-2.53-.31-1.72-4.09-1.72-5.87a6.48,6.48,0,0,1,.18-2.67,2,2,0,0,1,2-1,2.58,2.58,0,0,1,1.82-1.81v-3.8H16.31c.16,7,3.25,14.48,9.75,17.56a1,1,0,0,1,.5.86v1.19h9.16a14.94,14.94,0,0,1,2.63-9.22,1,1,0,0,1,.08-.11c2.5-3.47,6.78-6.74,11.25-6.09a24.78,24.78,0,0,0,.41-4.19ZM32.31,34h-.1C32.38,34.43,32.34,34,32.31,34Zm.09-5.49c-.25-.09-.21-.42-.21-.1v.05ZM32.19,34a5.34,5.34,0,0,1,0-1.44V29c0-.15,0-.31,0-.47a9.8,9.8,0,0,0-1.23.05,1,1,0,0,1-1-1,.88.88,0,1,0-1.74,0,.87.87,0,0,1-.44.84h0a1,1,0,0,1-.56.16,10,10,0,0,1-1.08,0c0,.15,0,.4,0,.55v3.62a5.91,5.91,0,0,1,0,1.33,23.88,23.88,0,0,1,3.05,0,22.46,22.46,0,0,1,3.07,0ZM26,34c-.29,0-.06.38,0,0a0,0,0,0,0,0,0ZM26,28.4c-.08.06,0,.09.14.12C26.11,28.39,26.08,28.31,26,28.4Zm0,0c-.08.06,0,.09.14.12C26.11,28.39,26.08,28.31,26,28.4ZM26,34c-.29,0-.06.38,0,0a0,0,0,0,0,0,0Zm6.16,0a5.34,5.34,0,0,1,0-1.44V29c0-.15,0-.31,0-.47a9.8,9.8,0,0,0-1.23.05,1,1,0,0,1-1-1,.88.88,0,1,0-1.74,0,.87.87,0,0,1-.44.84h0a1,1,0,0,1-.56.16,10,10,0,0,1-1.08,0c0,.15,0,.4,0,.55v3.62a5.91,5.91,0,0,1,0,1.33,23.88,23.88,0,0,1,3.05,0,22.46,22.46,0,0,1,3.07,0Zm.21-5.45c-.25-.09-.21-.42-.21-.1v.05ZM32.31,34h-.1C32.38,34.43,32.34,34,32.31,34Zm0,0h-.1C32.38,34.43,32.34,34,32.31,34Zm.09-5.49c-.25-.09-.21-.42-.21-.1v.05ZM32.19,34a5.34,5.34,0,0,1,0-1.44V29c0-.15,0-.31,0-.47a9.8,9.8,0,0,0-1.23.05,1,1,0,0,1-1-1,.88.88,0,1,0-1.74,0,.87.87,0,0,1-.44.84h0a1,1,0,0,1-.56.16,10,10,0,0,1-1.08,0c0,.15,0,.4,0,.55v3.62a5.91,5.91,0,0,1,0,1.33,23.88,23.88,0,0,1,3.05,0,22.46,22.46,0,0,1,3.07,0ZM26,34c-.29,0-.06.38,0,0a0,0,0,0,0,0,0ZM26,28.4c-.08.06,0,.09.14.12C26.11,28.39,26.08,28.31,26,28.4Zm0,0c-.08.06,0,.09.14.12C26.11,28.39,26.08,28.31,26,28.4ZM26,34c-.29,0-.06.38,0,0a0,0,0,0,0,0,0Zm6.16,0a5.34,5.34,0,0,1,0-1.44V29c0-.15,0-.31,0-.47a9.8,9.8,0,0,0-1.23.05,1,1,0,0,1-1-1,.88.88,0,1,0-1.74,0,.87.87,0,0,1-.44.84h0a1,1,0,0,1-.56.16,10,10,0,0,1-1.08,0c0,.15,0,.4,0,.55v3.62a5.91,5.91,0,0,1,0,1.33,23.88,23.88,0,0,1,3.05,0,22.46,22.46,0,0,1,3.07,0Zm.21-5.45c-.25-.09-.21-.42-.21-.1v.05ZM32.31,34h-.1C32.38,34.43,32.34,34,32.31,34Zm0,0h-.1C32.38,34.43,32.34,34,32.31,34Zm.09-5.49c-.25-.09-.21-.42-.21-.1v.05ZM32.19,34a5.34,5.34,0,0,1,0-1.44V29c0-.15,0-.31,0-.47a9.8,9.8,0,0,0-1.23.05,1,1,0,0,1-1-1,.88.88,0,1,0-1.74,0,.87.87,0,0,1-.44.84h0a1,1,0,0,1-.56.16,10,10,0,0,1-1.08,0c0,.15,0,.4,0,.55v3.62a5.91,5.91,0,0,1,0,1.33,23.88,23.88,0,0,1,3.05,0,22.46,22.46,0,0,1,3.07,0ZM26,34c-.29,0-.06.38,0,0a0,0,0,0,0,0,0ZM26,28.4c-.08.06,0,.09.14.12C26.11,28.39,26.08,28.31,26,28.4Zm0,0c-.08.06,0,.09.14.12C26.11,28.39,26.08,28.31,26,28.4ZM26,34c-.29,0-.06.38,0,0a0,0,0,0,0,0,0Zm6.16,0a5.34,5.34,0,0,1,0-1.44V29c0-.15,0-.31,0-.47a9.8,9.8,0,0,0-1.23.05,1,1,0,0,1-1-1,.88.88,0,1,0-1.74,0,.87.87,0,0,1-.44.84h0a1,1,0,0,1-.56.16,10,10,0,0,1-1.08,0c0,.15,0,.4,0,.55v3.62a5.91,5.91,0,0,1,0,1.33,23.88,23.88,0,0,1,3.05,0,22.46,22.46,0,0,1,3.07,0Zm.21-5.45c-.25-.09-.21-.42-.21-.1v.05ZM32.31,34h-.1C32.38,34.43,32.34,34,32.31,34Zm0,0h-.1C32.38,34.43,32.34,34,32.31,34Zm.09-5.49c-.25-.09-.21-.42-.21-.1v.05ZM32.19,34a5.34,5.34,0,0,1,0-1.44V29c0-.15,0-.31,0-.47a9.8,9.8,0,0,0-1.23.05,1,1,0,0,1-1-1,.88.88,0,1,0-1.74,0,.87.87,0,0,1-.44.84h0a1,1,0,0,1-.56.16,10,10,0,0,1-1.08,0c0,.15,0,.4,0,.55v3.62a5.91,5.91,0,0,1,0,1.33,23.88,23.88,0,0,1,3.05,0,22.46,22.46,0,0,1,3.07,0ZM26,34c-.29,0-.06.38,0,0a0,0,0,0,0,0,0ZM26,28.4c-.08.06,0,.09.14.12C26.11,28.39,26.08,28.31,26,28.4Zm-11.37-4a.18.18,0,0,1-.07,0c-1.3-1.27-3.28-.24-4.09,1.08a5,5,0,0,0-.34,3.76c1,3.49,4.09,4.26,7.07,3.18A25.07,25.07,0,0,1,14.61,24.4Zm0,0a.18.18,0,0,1-.07,0c-1.3-1.27-3.28-.24-4.09,1.08a5,5,0,0,0-.34,3.76c1,3.49,4.09,4.26,7.07,3.18A25.07,25.07,0,0,1,14.61,24.4ZM26,28.4c-.08.06,0,.09.14.12C26.11,28.39,26.08,28.31,26,28.4ZM26,34c-.29,0-.06.38,0,0a0,0,0,0,0,0,0Zm6.16,0a5.34,5.34,0,0,1,0-1.44V29c0-.15,0-.31,0-.47a9.8,9.8,0,0,0-1.23.05,1,1,0,0,1-1-1,.88.88,0,1,0-1.74,0,.87.87,0,0,1-.44.84h0a1,1,0,0,1-.56.16,10,10,0,0,1-1.08,0c0,.15,0,.4,0,.55v3.62a5.91,5.91,0,0,1,0,1.33,23.88,23.88,0,0,1,3.05,0,22.46,22.46,0,0,1,3.07,0Zm.21-5.45c-.25-.09-.21-.42-.21-.1v.05ZM32.31,34h-.1C32.38,34.43,32.34,34,32.31,34Zm0,0h-.1C32.38,34.43,32.34,34,32.31,34Zm.09-5.49c-.25-.09-.21-.42-.21-.1v.05ZM32.19,34a5.34,5.34,0,0,1,0-1.44V29c0-.15,0-.31,0-.47a9.8,9.8,0,0,0-1.23.05,1,1,0,0,1-1-1,.88.88,0,1,0-1.74,0,.87.87,0,0,1-.44.84h0a1,1,0,0,1-.56.16,10,10,0,0,1-1.08,0c0,.15,0,.4,0,.55v3.62a5.91,5.91,0,0,1,0,1.33,23.88,23.88,0,0,1,3.05,0,22.46,22.46,0,0,1,3.07,0ZM26,34c-.29,0-.06.38,0,0a0,0,0,0,0,0,0ZM26,28.4c-.08.06,0,.09.14.12C26.11,28.39,26.08,28.31,26,28.4Zm0,0c-.08.06,0,.09.14.12C26.11,28.39,26.08,28.31,26,28.4ZM26,34c-.29,0-.06.38,0,0a0,0,0,0,0,0,0Zm6.16,0a5.34,5.34,0,0,1,0-1.44V29c0-.15,0-.31,0-.47a9.8,9.8,0,0,0-1.23.05,1,1,0,0,1-1-1,.88.88,0,1,0-1.74,0,.87.87,0,0,1-.44.84h0a1,1,0,0,1-.56.16,10,10,0,0,1-1.08,0c0,.15,0,.4,0,.55v3.62a5.91,5.91,0,0,1,0,1.33,23.88,23.88,0,0,1,3.05,0,22.46,22.46,0,0,1,3.07,0Zm.21-5.45c-.25-.09-.21-.42-.21-.1v.05ZM32.31,34h-.1C32.38,34.43,32.34,34,32.31,34Zm0,0h-.1C32.38,34.43,32.34,34,32.31,34Zm.09-5.49c-.25-.09-.21-.42-.21-.1v.05ZM32.19,34a5.34,5.34,0,0,1,0-1.44V29c0-.15,0-.31,0-.47a9.8,9.8,0,0,0-1.23.05,1,1,0,0,1-1-1,.88.88,0,1,0-1.74,0,.87.87,0,0,1-.44.84h0a1,1,0,0,1-.56.16,10,10,0,0,1-1.08,0c0,.15,0,.4,0,.55v3.62a5.91,5.91,0,0,1,0,1.33,23.88,23.88,0,0,1,3.05,0,22.46,22.46,0,0,1,3.07,0ZM26,34c-.29,0-.06.38,0,0a0,0,0,0,0,0,0ZM26,28.4c-.08.06,0,.09.14.12C26.11,28.39,26.08,28.31,26,28.4Zm0,0c-.08.06,0,.09.14.12C26.11,28.39,26.08,28.31,26,28.4ZM26,34c-.29,0-.06.38,0,0a0,0,0,0,0,0,0Zm6.16,0a5.34,5.34,0,0,1,0-1.44V29c0-.15,0-.31,0-.47a9.8,9.8,0,0,0-1.23.05,1,1,0,0,1-1-1,.88.88,0,1,0-1.74,0,.87.87,0,0,1-.44.84h0a1,1,0,0,1-.56.16,10,10,0,0,1-1.08,0c0,.15,0,.4,0,.55v3.62a5.91,5.91,0,0,1,0,1.33,23.88,23.88,0,0,1,3.05,0,22.46,22.46,0,0,1,3.07,0Zm.21-5.45c-.25-.09-.21-.42-.21-.1v.05ZM32.31,34h-.1C32.38,34.43,32.34,34,32.31,34ZM30.14,20.91v3.84a2.57,2.57,0,0,1,1.72,1.77c1.09,0,2.11.23,2.32,1.58a21.91,21.91,0,0,1,0,3.34c0,1.86.52,4.44-2,4.59a36.74,36.74,0,0,1-6.38,0c-2.53-.31-1.72-4.09-1.72-5.87a6.48,6.48,0,0,1,.18-2.67,2,2,0,0,1,2-1,2.58,2.58,0,0,1,1.82-1.81v-3.8H16.31c.16,7,3.25,14.48,9.75,17.56a1,1,0,0,1,.5.86v1.19h9.16a14.94,14.94,0,0,1,2.63-9.22,1,1,0,0,1,.08-.11c2.5-3.47,6.78-6.74,11.25-6.09a24.78,24.78,0,0,0,.41-4.19ZM32.31,34h-.1C32.38,34.43,32.34,34,32.31,34Zm.09-5.49c-.25-.09-.21-.42-.21-.1v.05ZM32.19,34a5.34,5.34,0,0,1,0-1.44V29c0-.15,0-.31,0-.47a9.8,9.8,0,0,0-1.23.05,1,1,0,0,1-1-1,.88.88,0,1,0-1.74,0,.87.87,0,0,1-.44.84h0a1,1,0,0,1-.56.16,10,10,0,0,1-1.08,0c0,.15,0,.4,0,.55v3.62a5.91,5.91,0,0,1,0,1.33,23.88,23.88,0,0,1,3.05,0,22.46,22.46,0,0,1,3.07,0ZM26,34c-.29,0-.06.38,0,0a0,0,0,0,0,0,0ZM26,28.4c-.08.06,0,.09.14.12C26.11,28.39,26.08,28.31,26,28.4Zm0,0c-.08.06,0,.09.14.12C26.11,28.39,26.08,28.31,26,28.4ZM26,34c-.29,0-.06.38,0,0a0,0,0,0,0,0,0Zm6.16,0a5.34,5.34,0,0,1,0-1.44V29c0-.15,0-.31,0-.47a9.8,9.8,0,0,0-1.23.05,1,1,0,0,1-1-1,.88.88,0,1,0-1.74,0,.87.87,0,0,1-.44.84h0a1,1,0,0,1-.56.16,10,10,0,0,1-1.08,0c0,.15,0,.4,0,.55v3.62a5.91,5.91,0,0,1,0,1.33,23.88,23.88,0,0,1,3.05,0,22.46,22.46,0,0,1,3.07,0Zm.21-5.45c-.25-.09-.21-.42-.21-.1v.05ZM32.31,34h-.1C32.38,34.43,32.34,34,32.31,34Zm0,0h-.1C32.38,34.43,32.34,34,32.31,34Zm.09-5.49c-.25-.09-.21-.42-.21-.1v.05ZM32.19,34a5.34,5.34,0,0,1,0-1.44V29c0-.15,0-.31,0-.47a9.8,9.8,0,0,0-1.23.05,1,1,0,0,1-1-1,.88.88,0,1,0-1.74,0,.87.87,0,0,1-.44.84h0a1,1,0,0,1-.56.16,10,10,0,0,1-1.08,0c0,.15,0,.4,0,.55v3.62a5.91,5.91,0,0,1,0,1.33,23.88,23.88,0,0,1,3.05,0,22.46,22.46,0,0,1,3.07,0ZM26,34c-.29,0-.06.38,0,0a0,0,0,0,0,0,0ZM26,28.4c-.08.06,0,.09.14.12C26.11,28.39,26.08,28.31,26,28.4Zm0,0c-.08.06,0,.09.14.12C26.11,28.39,26.08,28.31,26,28.4ZM26,34c-.29,0-.06.38,0,0a0,0,0,0,0,0,0Zm6.16,0a5.34,5.34,0,0,1,0-1.44V29c0-.15,0-.31,0-.47a9.8,9.8,0,0,0-1.23.05,1,1,0,0,1-1-1,.88.88,0,1,0-1.74,0,.87.87,0,0,1-.44.84h0a1,1,0,0,1-.56.16,10,10,0,0,1-1.08,0c0,.15,0,.4,0,.55v3.62a5.91,5.91,0,0,1,0,1.33,23.88,23.88,0,0,1,3.05,0,22.46,22.46,0,0,1,3.07,0Zm.21-5.45c-.25-.09-.21-.42-.21-.1v.05ZM32.31,34h-.1C32.38,34.43,32.34,34,32.31,34Zm0,0h-.1C32.38,34.43,32.34,34,32.31,34Zm.09-5.49c-.25-.09-.21-.42-.21-.1v.05ZM32.19,34a5.34,5.34,0,0,1,0-1.44V29c0-.15,0-.31,0-.47a9.8,9.8,0,0,0-1.23.05,1,1,0,0,1-1-1,.88.88,0,1,0-1.74,0,.87.87,0,0,1-.44.84h0a1,1,0,0,1-.56.16,10,10,0,0,1-1.08,0c0,.15,0,.4,0,.55v3.62a5.91,5.91,0,0,1,0,1.33,23.88,23.88,0,0,1,3.05,0,22.46,22.46,0,0,1,3.07,0ZM26,34c-.29,0-.06.38,0,0a0,0,0,0,0,0,0ZM26,28.4c-.08.06,0,.09.14.12C26.11,28.39,26.08,28.31,26,28.4Zm0,0c-.08.06,0,.09.14.12C26.11,28.39,26.08,28.31,26,28.4ZM26,34c-.29,0-.06.38,0,0a0,0,0,0,0,0,0Zm6.16,0a5.34,5.34,0,0,1,0-1.44V29c0-.15,0-.31,0-.47a9.8,9.8,0,0,0-1.23.05,1,1,0,0,1-1-1,.88.88,0,1,0-1.74,0,.87.87,0,0,1-.44.84h0a1,1,0,0,1-.56.16,10,10,0,0,1-1.08,0c0,.15,0,.4,0,.55v3.62a5.91,5.91,0,0,1,0,1.33,23.88,23.88,0,0,1,3.05,0,22.46,22.46,0,0,1,3.07,0Zm.21-5.45c-.25-.09-.21-.42-.21-.1v.05ZM32.31,34h-.1C32.38,34.43,32.34,34,32.31,34Zm0,0h-.1C32.38,34.43,32.34,34,32.31,34Zm.09-5.49c-.25-.09-.21-.42-.21-.1v.05ZM32.19,34a5.34,5.34,0,0,1,0-1.44V29c0-.15,0-.31,0-.47a9.8,9.8,0,0,0-1.23.05,1,1,0,0,1-1-1,.88.88,0,1,0-1.74,0,.87.87,0,0,1-.44.84h0a1,1,0,0,1-.56.16,10,10,0,0,1-1.08,0c0,.15,0,.4,0,.55v3.62a5.91,5.91,0,0,1,0,1.33,23.88,23.88,0,0,1,3.05,0,22.46,22.46,0,0,1,3.07,0ZM26,34c-.29,0-.06.38,0,0a0,0,0,0,0,0,0ZM26,28.4c-.08.06,0,.09.14.12C26.11,28.39,26.08,28.31,26,28.4Zm-11.37-4a.18.18,0,0,1-.07,0c-1.3-1.27-3.28-.24-4.09,1.08a5,5,0,0,0-.34,3.76c1,3.49,4.09,4.26,7.07,3.18A25.07,25.07,0,0,1,14.61,24.4Z" />
    <path class="cls-2" d="M47.34,45.32a1.13,1.13,0,0,1-.06.36h0a.91.91,0,0,1-.91.65H38.82l0,0h0A6.87,6.87,0,0,1,37,44.44L37,44.32h4.2l-.36.88a6.69,6.69,0,0,0,6.3-.55A1.09,1.09,0,0,1,47.34,45.32Z" />
    <path class="cls-2" d="M26.12,28.52c-.15,0-.22-.06-.14-.12S26.11,28.39,26.12,28.52Z" />
    <path class="cls-2" d="M26.09,34a0,0,0,0,1,0,0c-.11.35-.34,0,0,0Z" />
    <path class="cls-2" d="M32.19,28.48v-.05c0-.32,0,0,.21.1Z" />
    <path class="cls-2" d="M32.21,34h.1S32.38,34.43,32.21,34Z" />
    <path class="cls-2" d="M51,25.4a7.85,7.85,0,0,0-1.3-.3c-.07.33-.13.66-.21,1s-.15.63-.23.94a5.29,5.29,0,0,1,1.76.52,29.83,29.83,0,0,1-1.67,3.52,15.28,15.28,0,0,1-2.14,3.14,11.4,11.4,0,0,1-2.56,1.7c-2.23,1.4-3.77,4-4.9,6.62h1.18a1,1,0,0,0,.93-1V40l.71-.38a16,16,0,0,0,2.18-1.52h0a16.9,16.9,0,0,0,2.44-2.49h0a21.46,21.46,0,0,0,3.31-5.94h0c.25-.66.46-1.33.65-2,.09-.33.18-.66.25-1a.24.24,0,0,0,0-.08h0c.08-.31.14-.62.2-.92C51.41,25.55,51.2,25.47,51,25.4ZM37.71,40.52h-2a9.32,9.32,0,0,0,.41,2h2.08A6.82,6.82,0,0,1,37.71,40.52Z" />
    <path class="cls-2" d="M53.05,27.79a5.39,5.39,0,0,0-.82-.68,5.21,5.21,0,0,0-.83-.47s0,0,0,0a6.23,6.23,0,0,0-1.91-.53c-3.43-.41-7.54,1.75-10.25,5.71a13.24,13.24,0,0,0-2.46,8.72,8.29,8.29,0,0,0,.46,2,6.6,6.6,0,0,0,1,1.79,4.35,4.35,0,0,0,.57.64,4.86,4.86,0,0,0,.82.68,5.61,5.61,0,0,0,.86.49l.48.2a7.53,7.53,0,0,0,4.72,0,10.75,10.75,0,0,0,1.64-.65h0a14.15,14.15,0,0,0,5.32-4.74C55.81,36.24,55.93,30.62,53.05,27.79ZM37.71,40.52a14,14,0,0,1,2.37-8.21C42,29.63,45.69,26.6,49.24,27a5.29,5.29,0,0,1,1.76.52,29.83,29.83,0,0,1-1.67,3.52,15.28,15.28,0,0,1-2.14,3.14,11.4,11.4,0,0,1-2.56,1.7c-2.23,1.4-3.77,4-4.9,6.62-.21.48-.41,1-.59,1.43a5.25,5.25,0,0,1-.93-1.43A6.82,6.82,0,0,1,37.71,40.52Zm14-.08a14.08,14.08,0,0,1-4.62,4.21,6.69,6.69,0,0,1-6.3.55l.36-.88c.4-.9.84-1.79,1.31-2.64a15.34,15.34,0,0,1,2.14-3.13,11.07,11.07,0,0,1,2.56-1.7c2.64-1.67,4.32-5.05,5.49-8C55.44,31.85,53.81,37.41,51.73,40.44Z" />
    <path class="cls-3" d="M53,26.42l-.13-.1,0,0a6.68,6.68,0,0,0-1.21-.66c-.21-.09-.42-.17-.64-.24a7.85,7.85,0,0,0-1.3-.3c-4.47-.65-8.75,2.62-11.25,6.09a1,1,0,0,0-.08.11,14.94,14.94,0,0,0-2.63,9.22,9.32,9.32,0,0,0,.41,2A8.56,8.56,0,0,0,37,44.32l.07.12a6.87,6.87,0,0,0,1.74,1.85h0l0,0,.21.14h0a8.78,8.78,0,0,0,8.42.21A15.47,15.47,0,0,0,56,35.19C56.44,31.94,55.59,28.35,53,26.42ZM47.11,44.65a6.69,6.69,0,0,1-6.3.55A4.1,4.1,0,0,1,40.4,45l-.26-.17L40,44.68a5.46,5.46,0,0,1-.45-.36,4.08,4.08,0,0,1-.36-.36,5.25,5.25,0,0,1-.93-1.43,6.82,6.82,0,0,1-.5-2,14,14,0,0,1,2.37-8.21C42,29.63,45.69,26.6,49.24,27a5.29,5.29,0,0,1,1.76.52l.15.08.26.14.26.16.19.14a5.19,5.19,0,0,1,.81.73c2.77,3.05,1.14,8.61-.94,11.64A14.08,14.08,0,0,1,47.11,44.65Z" />
    <path class="cls-2" d="M52.24,27.11s-2.86,8-6.33,9.27-6.34,9.26-6.34,9.26Z" />
    <path class="cls-3" d="M53.2,27.38c-.05.13-.09.27-.15.41-.12.32-.24.66-.38,1-1.17,3-2.85,6.38-5.49,8.05a11.07,11.07,0,0,0-2.56,1.7,15.34,15.34,0,0,0-2.14,3.13c-.47.85-.91,1.74-1.31,2.64l-.36.88-.27.71a1.47,1.47,0,0,1-.1.22,1.63,1.63,0,0,1-.17.2,1.12,1.12,0,0,1-1.22.15h0a1.64,1.64,0,0,1-.22-.14l0,0h0a.83.83,0,0,1-.17-.91l.15-.42c.07-.21.15-.42.24-.64s.09-.24.14-.36c.18-.47.38-1,.59-1.43,1.13-2.59,2.67-5.22,4.9-6.62a11.4,11.4,0,0,0,2.56-1.7,15.28,15.28,0,0,0,2.14-3.14A29.83,29.83,0,0,0,51,27.55l.27-.71a.91.91,0,0,1,.11-.22.21.21,0,0,1,0-.06h0a1.1,1.1,0,0,1,1.41-.26l0,0,.13.1A.84.84,0,0,1,53.2,27.38Z" />
</svg>