<svg width="28" height="28" viewBox="0 0 28 28" fill="none" xmlns="http://www.w3.org/2000/svg">
    <path d="M26.81 14.56L26.1581 13.9081L14.6562 2.40625L14 1.75L13.3437 2.40625L1.84183 13.9081L0.918701 14.8313H4.4887V24.115C4.48813 24.3906 4.54191 24.6635 4.64696 24.9183C4.75202 25.1731 4.90629 25.4046 5.10095 25.5997C5.2956 25.7947 5.52682 25.9495 5.78135 26.0551C6.03589 26.1607 6.30876 26.215 6.58433 26.215H11.5281V22.4219C11.5281 21.1531 11.3531 19.74 11.5281 18.4844C11.7031 17.3644 12.7225 17.4125 13.5975 17.4125C14.2668 17.4125 15.2906 17.2244 15.89 17.605C16.8875 18.2438 16.45 20.6369 16.45 21.6125V26.215H21.4375C21.9944 26.215 22.5286 25.9938 22.9224 25.5999C23.3162 25.2061 23.5375 24.672 23.5375 24.115V14.8313H27.1075L26.81 14.56ZM23.5156 13.9081C23.2714 13.9115 23.0381 14.0097 22.865 14.182C22.6919 14.3542 22.5926 14.5871 22.5881 14.8313V22.8156C22.5881 23.9356 22.7543 25.2263 21.2231 25.2875C20.2606 25.3269 19.2893 25.3094 18.3225 25.2875V21.4375C18.3225 19.7663 18.6812 17.6531 17.3337 16.3888C16.4937 15.6056 15.4612 15.5794 14.3893 15.5794C13.4443 15.5794 12.3943 15.4525 11.5062 15.8463C9.4762 16.7563 9.67745 18.8388 9.67745 20.6588V25.2963C8.71058 25.2963 7.73933 25.3269 6.77683 25.2963C5.2587 25.235 5.41183 23.94 5.41183 22.8244V14.8313C5.40843 14.5875 5.31008 14.3546 5.1377 14.1823C4.96531 14.0099 4.73247 13.9115 4.4887 13.9081H3.1762L13.0025 4.05563L14 3.0625L24.7756 13.8381L24.8456 13.9081H23.5156Z" fill="white"/>
    <path d="M27.0857 15.75H24.4607V23.5725C24.4607 25.4625 23.4719 27.0463 21.42 27.1425C20.1075 27.2081 18.7469 27.1425 17.4125 27.1425C17.29 27.1474 17.168 27.1256 17.0547 27.0788C16.9414 27.032 16.8396 26.9612 16.7563 26.8713C16.5989 26.6891 16.5133 26.4558 16.5157 26.215C16.5085 26.0958 16.5258 25.9763 16.5666 25.864C16.6073 25.7517 16.6706 25.649 16.7526 25.5621C16.8346 25.4752 16.9335 25.406 17.0432 25.3588C17.153 25.3115 17.2712 25.2873 17.3907 25.2875H18.3182C19.285 25.2875 20.2563 25.3181 21.2188 25.2875C22.75 25.2263 22.5838 23.9356 22.5838 22.8156V14.8313C22.5883 14.5871 22.6876 14.3543 22.8607 14.182C23.0338 14.0097 23.2671 13.9115 23.5113 13.9081H24.8238L24.7538 13.8381L14 3.06251L13.0025 4.05564L3.15441 13.9081H4.48878C4.73256 13.9115 4.96539 14.0099 5.13778 14.1823C5.31017 14.3547 5.40851 14.5875 5.41191 14.8313V22.8156C5.41191 23.9313 5.25878 25.2263 6.77691 25.2875C7.73941 25.3269 8.71066 25.3094 9.67753 25.2875H10.6007C10.7219 25.2843 10.8426 25.3063 10.9549 25.3521C11.0672 25.398 11.1688 25.4667 11.2531 25.554C11.3375 25.6412 11.4028 25.745 11.4448 25.8588C11.4869 25.9726 11.5049 26.0939 11.4975 26.215C11.502 26.4561 11.4161 26.6902 11.2569 26.8713C11.1736 26.9612 11.0718 27.032 10.9585 27.0788C10.8452 27.1256 10.7231 27.1474 10.6007 27.1425C9.28816 27.1425 7.92316 27.2081 6.59753 27.1425C4.54566 27.0463 3.56128 25.4625 3.56128 23.5725V15.75H0.936284C0.754783 15.7479 0.577799 15.6931 0.426873 15.5923C0.275946 15.4915 0.157585 15.3489 0.086196 15.1821C0.0148065 15.0152 -0.00653308 14.8311 0.0247743 14.6523C0.0560817 14.4735 0.138686 14.3077 0.262534 14.175C0.813784 13.6281 1.36066 13.0769 1.91191 12.5256L13.3438 1.09376C13.5199 0.923749 13.7552 0.828735 14 0.828735C14.2449 0.828735 14.4801 0.923749 14.6563 1.09376L16.3057 2.74751L27.7375 14.175C27.8603 14.3063 27.9426 14.4702 27.9747 14.6471C28.0068 14.8239 27.9874 15.0063 27.9186 15.1724C27.8499 15.3384 27.7348 15.4812 27.5871 15.5837C27.4394 15.6861 27.2653 15.7438 27.0857 15.75Z" />
    <path d="M17.395 18.6244V26.215H16.4675V21.6125C16.4675 20.6369 16.905 18.2437 15.9075 17.605C15.3081 17.2244 14.2843 17.4125 13.615 17.4125C12.74 17.4125 11.7206 17.3644 11.5456 18.4844C11.3531 19.74 11.5456 21.1531 11.5456 22.4219V26.215H10.6006V18.6244C10.6012 18.3428 10.6572 18.0642 10.7654 17.8043C10.8737 17.5444 11.0321 17.3084 11.2316 17.1098C11.431 16.9111 11.6677 16.7537 11.928 16.6465C12.1883 16.5393 12.4672 16.4844 12.7487 16.485H15.2556C15.8226 16.4861 16.3661 16.7119 16.7671 17.1129C17.168 17.5138 17.3938 18.0573 17.395 18.6244Z" fill="white"/>
    <path d="M18.3225 21.4375V26.25C18.3167 26.4308 18.259 26.6062 18.1561 26.7551C18.0532 26.9039 17.9096 27.0199 17.7424 27.0892C17.5752 27.1585 17.3916 27.1781 17.2136 27.1456C17.0356 27.1132 16.8707 27.03 16.7387 26.9062C16.6501 26.8219 16.5802 26.7199 16.5335 26.6068C16.4868 26.4938 16.4643 26.3722 16.4675 26.25V21.6125C16.4675 20.6368 16.905 18.2437 15.9075 17.605C15.3081 17.2243 14.2843 17.4125 13.615 17.4125C12.74 17.4125 11.7206 17.3643 11.5456 18.4843C11.3531 19.74 11.5456 21.1531 11.5456 22.4218V26.215C11.5504 26.3375 11.5287 26.4595 11.4819 26.5728C11.4351 26.6861 11.3643 26.7879 11.2743 26.8712C11.1422 26.9936 10.9777 27.0756 10.8004 27.1073C10.6231 27.1389 10.4404 27.119 10.2741 27.0499C10.1077 26.9808 9.96473 26.8654 9.86207 26.7174C9.75941 26.5694 9.70141 26.395 9.69496 26.215V20.6543C9.69496 18.8168 9.49371 16.7168 11.5237 15.8418C12.3987 15.4481 13.4618 15.575 14.4068 15.575C15.4787 15.575 16.5112 15.6012 17.3512 16.3843C18.6812 17.6312 18.3225 19.7443 18.3225 21.4375Z"/>
</svg>
