<svg width="48" height="48" viewBox="0 0 48 48" fill="none" xmlns="http://www.w3.org/2000/svg">
    <g clip-path="url(#clip0)">
    <path d="M24.0125 48.0251C37.2743 48.0251 48.0251 37.2743 48.0251 24.0125C48.0251 10.7508 37.2743 0 24.0125 0C10.7508 0 0 10.7508 0 24.0125C0 37.2743 10.7508 48.0251 24.0125 48.0251Z" fill="#D8412C"/>
    <path d="M19.4171 36.8593C18.9906 37.1353 18.5891 37.3862 18.0622 37.4615C18.3131 37.5368 18.5389 37.5869 18.7899 37.6622C13.9974 32.4181 12.7679 25.6936 14.5996 18.9189C15.4778 15.657 16.908 12.3449 18.8902 9.58484C19.4673 8.80701 18.1375 8.05426 17.5855 8.8321C12.7428 15.5817 10.3842 25.3674 13.897 33.1708C14.6498 34.852 15.6534 36.3825 16.8578 37.7877C17.3095 38.3146 17.6858 38.9921 18.4386 38.9419C19.0408 38.8917 19.6681 38.4902 20.1448 38.164C20.9728 37.612 20.2201 36.3073 19.4171 36.8593Z" fill="white"/>
    <path d="M26.2922 18.5175C25.2133 14.4275 21.9263 10.8395 18.6644 8.28012C18.3131 8.00412 17.9618 8.00412 17.6106 8.28012C14.0225 11.0904 9.88238 15.4814 9.70674 20.2488C9.5311 24.9911 8.954 30.8875 11.8395 34.9775C12.6926 36.2069 13.8468 37.1855 15.1767 37.8881C15.9294 38.2895 16.7574 38.6157 17.6106 38.8165C18.5139 39.0423 19.367 38.6408 20.195 38.3146C21.0983 37.9633 20.6968 36.508 19.7935 36.8593C19.1662 37.1102 18.4888 37.4364 17.8364 37.311C17.0836 37.1604 16.3309 36.8091 15.6785 36.4328C14.6247 35.8306 13.6963 35.0276 13.0188 33.9989C11.689 32.0167 11.3126 29.5828 11.1871 27.2242C11.0868 25.0663 11.2122 22.8834 11.2373 20.7255C11.2373 17.8902 12.8432 15.4061 14.6247 13.2984C15.8542 11.8682 17.2091 10.4882 18.6895 9.33397C18.3382 9.33397 17.9869 9.33397 17.6357 9.33397C20.6968 11.7427 23.8583 15.0799 24.8871 18.8938C25.1129 19.8473 26.5431 19.4458 26.2922 18.5175Z" fill="white"/>
    <path d="M27.6722 39.1929C38.0852 39.3434 39.6158 32.7444 39.6158 32.7444C40.4187 19.8223 28.149 18.3921 28.149 18.3921L27.6973 15.9833L27.1704 18.3921C27.1704 18.3921 14.9007 19.8474 15.7036 32.7444C15.7287 32.7193 17.2593 39.3434 27.6722 39.1929Z" fill="white"/>
    <path d="M27.6722 39.9456C31.2603 39.9707 35.024 39.2682 37.7841 36.8343C38.863 35.8808 39.9922 34.4506 40.3183 32.9953C40.6445 31.5651 40.3685 29.7585 40.0925 28.3283C39.7914 26.7224 39.1641 25.1667 38.2859 23.7867C36.8808 21.6038 34.7731 19.9477 32.4396 18.8939C31.0847 18.2917 29.6294 17.8149 28.1741 17.6142C28.425 17.7898 28.6508 17.9906 28.9017 18.1662C28.7512 17.3633 28.6006 16.5604 28.4501 15.7574C28.3246 15.0298 27.1453 15.0549 26.9948 15.7574C26.8191 16.5604 26.6435 17.3633 26.4679 18.1662C26.7188 17.9906 26.9446 17.7898 27.1955 17.6142C23.5823 18.0408 19.9441 19.9979 17.7109 22.8583C15.6283 25.4929 14.4992 29.3821 14.976 32.7444C15.1516 34.0491 16.08 35.3037 16.9331 36.2321C19.6681 39.1427 23.8332 39.9707 27.6722 39.9456C28.6508 39.9456 28.6508 38.4401 27.6722 38.4401C24.4354 38.4652 20.9226 37.9132 18.4637 35.6299C17.6357 34.8521 16.6571 33.6978 16.4564 32.5687C15.9545 29.8087 17.0084 26.3711 18.6142 24.138C19.9441 22.3063 21.8259 20.9514 23.9085 20.0732C24.6613 19.747 25.4642 19.4961 26.2671 19.2953C26.518 19.2452 26.7689 19.195 27.0199 19.1448C27.1704 19.1197 27.4715 19.0695 27.1704 19.1197C27.4966 19.0695 27.8228 18.919 27.8981 18.5677C28.0737 17.7648 28.2493 16.9618 28.425 16.1589C27.9483 16.1589 27.4464 16.1589 26.9697 16.1589C27.1202 16.9618 27.2708 17.7648 27.4213 18.5677C27.4966 18.919 27.8228 19.0946 28.149 19.1197C27.7977 19.0695 28.6508 19.2201 28.8265 19.2452C29.5039 19.3957 30.1814 19.5964 30.8589 19.8474C32.8662 20.575 34.7229 21.7794 36.1281 23.3852C38.2358 25.794 38.9132 28.8803 38.8881 32.0167C38.863 33.196 38.1856 34.2248 37.3826 35.0779C34.9237 37.7627 31.1349 38.4401 27.6472 38.415C26.6937 38.415 26.6937 39.9205 27.6722 39.9456Z" fill="#D8412C"/>
    <path d="M18.6895 29.6832C18.6895 29.6832 18.8902 24.5395 25.5395 22.0554L18.6895 29.6832Z" fill="white"/>
    <path d="M19.4422 29.6832C19.5928 26.4966 22.8547 23.887 25.7402 22.783C26.6435 22.4317 26.242 20.9764 25.3387 21.3277C21.851 22.6827 18.1375 25.6184 17.9367 29.6832C17.8866 30.6617 19.3921 30.6367 19.4422 29.6832Z" fill="#D8412C"/>
    <path d="M37.2572 36.2823C37.2572 36.2823 34.4971 30.5866 27.6722 31.3142C20.8474 30.5866 18.0873 36.2823 18.0873 36.2823" fill="white"/>
    <path d="M37.9096 35.9059C37.3325 34.7266 36.379 33.6727 35.3753 32.8447C33.0669 30.9378 30.5829 30.5614 27.6722 30.5614C24.7616 30.5614 22.2776 30.9378 19.9692 32.8447C18.9655 33.6727 18.012 34.7266 17.4349 35.9059C17.0084 36.7841 18.3131 37.5368 18.7397 36.6586C19.1913 35.7302 19.919 34.9022 20.6968 34.1997C21.5248 33.472 22.4783 32.8698 23.5071 32.4934C24.9122 31.9916 26.2169 32.0669 27.6722 32.0418C30.3069 32.0167 32.6153 32.3429 34.6477 34.1746C35.4255 34.8771 36.1281 35.7052 36.6048 36.6335C37.0314 37.5368 38.3361 36.7841 37.9096 35.9059Z" fill="#D8412C"/>
    </g>
    <defs>
    <clipPath id="clip0">
    <rect width="48" height="48" fill="white"/>
    </clipPath>
    </defs>
    </svg>
