<svg width="28" height="28" viewBox="0 0 28 28" fill="none" xmlns="http://www.w3.org/2000/svg">
    <path d="M25.3751 21.875H7.99756C6.74194 21.875 5.77506 21.2888 5.58256 19.9544C5.51694 19.4732 5.45569 18.9919 5.39881 18.5063L5.21506 16.9707C4.79506 13.5873 4.37652 10.2025 3.95944 6.81629C3.90256 6.33504 3.84131 5.85816 3.78006 5.37691C3.74506 5.11441 3.71444 4.85629 3.68381 4.59816C3.65319 4.34004 3.68381 3.67066 3.54381 3.46504C3.40381 3.25941 3.10631 3.31191 2.88756 3.30316C2.20944 3.27254 1.51819 3.30316 0.835689 3.30316C-0.279936 3.30316 -0.275561 1.57504 0.835689 1.57504C2.55944 1.57504 4.93069 1.17254 5.27194 3.46504C5.32444 3.81504 5.37256 4.16941 5.41631 4.52816C5.48631 5.10129 5.54756 5.68316 5.61756 6.25629C5.61971 6.28395 5.61971 6.31175 5.61756 6.33941C6.02881 9.644 6.43861 12.9486 6.84694 16.2532C6.89069 16.625 6.93881 16.9925 6.98256 17.36C7.02631 17.7275 7.07444 18.095 7.11819 18.4625C7.14006 18.655 7.15319 18.8738 7.16631 19.0882C7.17783 19.3193 7.216 19.5483 7.28006 19.7707C7.36756 20.0288 7.28006 20.0769 7.64756 20.16C7.95743 20.1907 8.26957 20.1907 8.57944 20.16H25.3751C25.5729 20.2002 25.7507 20.3075 25.8784 20.4638C26.0062 20.6201 26.0759 20.8157 26.0759 21.0175C26.0759 21.2194 26.0062 21.415 25.8784 21.5713C25.7507 21.7276 25.5729 21.8349 25.3751 21.875Z" fill="#828282" />
    <path d="M27.5625 5.25001C26.7225 4.20876 24.9637 4.51063 23.7737 4.51063H4.64623C4.5164 4.50729 4.38758 4.53425 4.26998 4.58938C4.10659 4.63284 3.96551 4.73614 3.87474 4.87878C3.78397 5.02142 3.75015 5.19297 3.77998 5.35938C4.29623 9.63813 4.81102 13.9169 5.32436 18.1956C5.33777 18.2959 5.36273 18.3942 5.39873 18.4888C5.45223 18.656 5.5581 18.8016 5.7007 18.904C5.8433 19.0064 6.01506 19.0602 6.19061 19.0575H23.4587C23.8448 19.0816 24.232 19.0816 24.6181 19.0575C25.6987 18.9131 26.2412 18.095 26.4075 17.1019C26.7662 14.9494 27.0812 12.7838 27.4137 10.6269L27.8862 7.61251C28 6.76813 28.1575 5.96751 27.5625 5.25001ZM25.935 8.86813C25.585 11.1023 25.2379 13.3365 24.8937 15.5706C24.871 16.0573 24.7947 16.54 24.6662 17.01C24.4694 17.4475 24.0975 17.3425 23.66 17.3425H6.95186L5.61311 6.23438H21.2625C22.7194 6.23438 24.2594 6.09438 25.7119 6.23438C26.0487 6.26501 26.25 6.23438 26.2937 6.64126C26.3681 7.30188 26.0487 8.21188 25.9481 8.86376L25.935 8.86813Z" fill="#828282" />
    <path d="M14.2056 23.0781C14.1489 22.657 14.017 22.2495 13.8162 21.875C13.5566 21.3816 13.1671 20.9684 12.6898 20.6801C12.2126 20.3917 11.6657 20.2391 11.1081 20.2388C10.5479 20.2433 9.99911 20.3974 9.5184 20.685C9.03769 20.9727 8.64252 21.3835 8.37373 21.875C8.11928 22.3298 7.98384 22.8414 7.97998 23.3625C7.98575 24.1632 8.29917 24.931 8.85535 25.5069C9.41154 26.0829 10.1679 26.4229 10.9679 26.4567C11.7678 26.4904 12.5501 26.2152 13.1528 25.6881C13.7555 25.161 14.1325 24.4223 14.2056 23.625C14.2283 23.5335 14.2372 23.4391 14.2319 23.345C14.2361 23.2553 14.2273 23.1654 14.2056 23.0781ZM9.70811 23.3538C9.70811 21.5469 12.4075 21.5644 12.5037 23.3538C12.4075 25.1431 9.70811 25.1563 9.70811 23.3538Z" fill="#828282" />
    <path d="M23.9356 23.0781C23.8789 22.657 23.747 22.2495 23.5462 21.875C23.2865 21.3816 22.8971 20.9684 22.4198 20.6801C21.9426 20.3917 21.3957 20.2391 20.8381 20.2388C20.2779 20.2433 19.7291 20.3974 19.2484 20.685C18.7677 20.9727 18.3725 21.3835 18.1037 21.875C17.8493 22.3298 17.7138 22.8414 17.71 23.3625C17.7157 24.1632 18.0291 24.931 18.5853 25.5069C19.1415 26.0829 19.8979 26.4229 20.6978 26.4567C21.4978 26.4904 22.2801 26.2152 22.8828 25.6881C23.4855 25.161 23.8624 24.4223 23.9356 23.625C23.9583 23.5335 23.9672 23.4391 23.9618 23.345C23.9661 23.2553 23.9573 23.1654 23.9356 23.0781ZM19.4381 23.3538C19.4381 21.5469 22.1375 21.5644 22.2337 23.3538C22.1375 25.1431 19.4381 25.1563 19.4381 23.3538Z" fill="#828282" />
</svg>
    