<svg width="16" height="16" viewBox="0 0 16 16" fill="none" xmlns="http://www.w3.org/2000/svg">
<path d="M8 2C8.6 2 9.1 2.2 9.5 2.7L10.2 3.4L11.7 2.1L11 1.3C10.2 0.5 9.1 0 8 0C5.8 0 4 1.8 4 4V5.5C2.8 6.6 2 8.2 2 10C2 13.3 4.7 16 8 16C11.3 16 14 13.3 14 10C14 6.7 11.3 4 8 4C7.3 4 6.6 4.1 6 4.4V4C6 2.9 6.9 2 8 2ZM8 7C9.1 7 10 7.9 10 9C10 9.7 9.6 10.4 9 10.7V13H7V10.7C6.4 10.4 6 9.7 6 9C6 7.9 6.9 7 8 7Z" fill="#000000"/>
</svg>
