<svg width="28" height="28" viewBox="0 0 28 28" fill="none" xmlns="http://www.w3.org/2000/svg">
<g clip-path="url(#clip0)">
<path d="M26.7312 23.1875C26.425 18.6375 23.7563 16.625 20.0375 14.6563C19.4688 14.35 18.8125 14.4375 18.3313 14.875C15.925 17.1063 12.1625 17.1063 9.75625 14.875C9.275 14.4813 8.61875 14.3938 8.05 14.6563C4.06875 16.7563 1.3125 18.8563 1.3125 24.0625V25.4625C1.3125 26.2938 2.0125 26.9938 2.84375 26.9938H25.2437C26.075 26.9938 26.775 26.2938 26.775 25.4625V24.1063C26.775 23.8 26.7312 23.45 26.7312 23.1875ZM25.2437 26.0313C25.025 26.075 24.7625 26.075 24.5437 26.0313H3.9375C3.5875 26.075 3.28125 26.075 2.93125 26.0313C2.23125 25.9 2.275 25.375 2.275 24.7625C2.275 22.225 2.7125 19.9063 4.6375 18.0688C5.6 17.1938 6.65 16.4938 7.7875 15.8813C8.09375 15.6625 8.44375 15.4875 8.79375 15.4875C9.1875 15.5313 9.45 15.8813 9.75625 16.1C11.9 17.675 14.7438 17.9375 17.15 16.8C17.85 16.45 18.9 15.3125 19.6438 15.575C20.3438 15.8813 21 16.2313 21.6125 16.7125C24.3688 18.4625 25.7688 20.825 25.7688 24.1063C25.7688 24.7625 26.0312 25.8125 25.2437 26.0313Z" fill="white"/>
<path d="M20.5188 6.56249C19.9938 2.97499 16.7126 0.524989 13.1251 1.04999C9.53755 1.57499 7.08755 4.89999 7.61255 8.44374C8.13755 11.9875 11.4625 14.4812 15.0063 13.9562C17.85 13.5187 20.1251 11.2875 20.5188 8.44374C20.6063 7.83124 20.6063 7.17499 20.5188 6.56249ZM14.0876 13.0375C11.0251 12.9937 8.57505 10.5437 8.5313 7.48124C8.5313 4.41874 11.0251 1.92499 14.0876 1.92499C17.1501 1.92499 19.6438 4.41874 19.6438 7.48124C19.6001 10.5437 17.1063 13.0375 14.0876 13.0375Z" fill="white"/>
<path d="M28 24.0188C27.9563 20.825 26.8625 17.9375 24.3688 15.8813C23.1875 14.875 21.8313 14.0438 20.4313 13.4313C18.4625 12.6438 17.2813 14.6125 15.5313 15.0938C14.525 15.3563 13.475 15.3563 12.4688 15.0063C11.4625 14.7 10.85 14 9.97502 13.5188C8.44377 12.6438 6.78127 13.825 5.51252 14.6125C2.88752 16.275 0.875021 18.4625 0.306271 21.4813C-0.0874794 23.6688 -0.56873 27.7813 2.62502 27.9563C3.63127 28 4.59377 27.9563 5.60002 27.9563H24.9813C25.6375 28 26.2938 27.825 26.8625 27.5188C28.0875 26.7313 28 25.3313 28 24.0188ZM25.4625 25.9438C25.2438 25.9875 24.9813 25.9875 24.7625 25.9438H3.76252C3.41252 25.9875 3.06252 25.9875 2.75627 25.9438C2.05627 25.8125 2.10002 25.2875 2.10002 24.675C2.10002 22.0938 2.53752 19.7313 4.50627 17.85C5.46877 16.975 6.56252 16.2313 7.70002 15.6188C8.00627 15.4 8.35627 15.225 8.75002 15.1813C9.14377 15.225 9.40627 15.575 9.75627 15.7938C11.9438 17.4125 14.8313 17.675 17.2813 16.4938C17.9813 16.1438 19.075 15.0063 19.8188 15.225C20.5188 15.5313 21.2188 15.925 21.8313 16.3625C24.6313 18.1563 26.0313 20.5625 26.075 23.9313C25.9875 24.675 26.25 25.7688 25.4625 25.9438Z" fill="#828282"/>
<path d="M20.6937 6.5625C20.6499 2.8875 17.6749 -0.0437549 13.9999 -4.85376e-06C12.0749 0.0437451 10.2374 0.874995 9.01243 2.3625C7.26243 4.50625 6.99993 7.525 8.39993 9.93124C10.2374 13.0812 14.3062 14.175 17.4562 12.3375C19.4687 11.1562 20.7374 9.05625 20.7374 6.69375C20.7374 6.65 20.7374 6.60625 20.7374 6.5625C20.6937 6.60625 20.6937 6.5625 20.6937 6.5625ZM14.0874 11.5062C11.3749 11.4625 9.18743 9.275 9.18743 6.60625C9.18743 3.89375 11.3749 1.70625 14.0874 1.70625C16.7999 1.70625 18.9874 3.89375 18.9874 6.60625C18.9437 9.275 16.7562 11.4625 14.0874 11.5062Z" fill="#828282"/>
</g>
<defs>
<clipPath id="clip0">
<rect width="28" height="28" fill="white"/>
</clipPath>
</defs>
</svg>
