<svg width="12" height="24" viewBox="0 0 12 24" fill="none" xmlns="http://www.w3.org/2000/svg">
    <g clip-path="url(#clip0)">
    <path d="M8.7861 5.19751V4.52251H3.24792V5.19751H3.54319H3.66433L4.84919 5.24626H7.1924L8.7861 5.19751Z"  />
    <path d="M9.42962 0.937498C8.53565 0.394693 7.52287 0.0731281 6.47694 -1.885e-06C5.7806 -0.0404142 5.08229 0.0330693 4.41006 0.217498C3.69082 0.416248 1.90407 0.967498 1.79807 1.83375C1.79807 2.34 1.62394 3.135 2.21448 3.30375C2.28151 3.33381 2.35121 3.35766 2.42268 3.375C2.94551 3.39247 3.46894 3.37744 3.98987 3.33H8.99807C9.17978 3.33 9.37662 3.35625 9.55454 3.35625C9.85738 3.35625 10.1186 3.29625 10.2246 2.95125C10.3429 2.57606 10.3286 2.17213 10.1841 1.80606C10.0396 1.43998 9.77349 1.13363 9.42962 0.937498ZM4.4517 1.04625C4.17915 1.1175 3.93309 1.0875 3.9028 0.978748C3.87252 0.869998 4.06937 0.719998 4.34571 0.648748C4.62205 0.577498 4.86432 0.607498 4.89082 0.716248C4.91732 0.824998 4.72426 0.974998 4.4517 1.04625ZM6.17031 0.821248C5.8864 0.821248 5.65549 0.731248 5.65549 0.614998C5.65549 0.498748 5.8864 0.408748 6.17031 0.408748C6.45422 0.408748 6.68135 0.502498 6.68135 0.614998C6.68135 0.727498 6.4353 0.821248 6.17031 0.821248ZM7.85864 1.04625C7.5823 0.986248 7.37788 0.843748 7.40438 0.731248C7.43088 0.618748 7.67315 0.581248 7.94949 0.644998C8.22583 0.708748 8.43025 0.851248 8.40375 0.959998C8.37725 1.06875 8.13498 1.125 7.85864 1.04625Z"  />
    <path d="M3.22528 18.2925C3.32783 18.2927 3.4274 18.3267 3.50828 18.3892C3.58916 18.4517 3.64675 18.539 3.67196 18.6375C3.67411 18.6474 3.67411 18.6576 3.67196 18.6675C3.69923 18.7401 3.69923 18.8199 3.67196 18.8925C3.64412 18.9876 3.58589 19.0711 3.50603 19.1306C3.42617 19.1901 3.32899 19.2224 3.22906 19.2225C3.11136 19.212 3.00186 19.1583 2.92212 19.0719C2.84238 18.9855 2.79816 18.8727 2.79816 18.7556C2.79816 18.6386 2.84238 18.5257 2.92212 18.4393C3.00186 18.3529 3.11136 18.2992 3.22906 18.2888L3.22528 18.2925Z"  />
    <path d="M4.58801 15.5587C4.58801 15.4351 4.63734 15.3164 4.72526 15.2286C4.81319 15.1408 4.93257 15.091 5.05741 15.09C5.15947 15.09 5.25865 15.1235 5.33946 15.1852C5.42027 15.247 5.47817 15.3335 5.5041 15.4312C5.50571 15.4424 5.50571 15.4538 5.5041 15.465C5.53137 15.5376 5.53137 15.6174 5.5041 15.69C5.47681 15.7854 5.41873 15.8693 5.33875 15.9289C5.25876 15.9885 5.16128 16.0205 5.0612 16.02C4.937 16.02 4.81778 15.9717 4.72925 15.8854C4.64073 15.7991 4.59 15.6818 4.58801 15.5587Z"  />
    <path d="M5.22021 13.26C5.22113 13.1389 5.26933 13.0228 5.35472 12.9361C5.44011 12.8494 5.55606 12.7989 5.67826 12.795C5.78 12.7945 5.87895 12.8279 5.95925 12.8898C6.03956 12.9517 6.09658 13.0384 6.12116 13.1362C6.1232 13.1461 6.1232 13.1563 6.12116 13.1662C6.12886 13.197 6.12886 13.2292 6.12116 13.26C6.12574 13.3054 6.11651 13.3511 6.09466 13.3912C6.0675 13.487 6.00957 13.5714 5.92965 13.6316C5.84973 13.6918 5.75218 13.7246 5.65176 13.725C5.53459 13.7139 5.42569 13.6603 5.34602 13.5744C5.26636 13.4886 5.22155 13.3766 5.22021 13.26Z"  />
    <path d="M6.31422 20.0662C6.34149 20.1388 6.34149 20.2187 6.31422 20.2913C6.28762 20.3873 6.22984 20.4721 6.1498 20.5324C6.06975 20.5927 5.97189 20.6253 5.87132 20.625C5.74582 20.625 5.62546 20.5756 5.53673 20.4877C5.44799 20.3998 5.39813 20.2806 5.39813 20.1563C5.39813 20.0319 5.44799 19.9127 5.53673 19.8248C5.62546 19.7369 5.74582 19.6875 5.87132 19.6875C5.97371 19.6883 6.07296 19.7226 6.15371 19.785C6.23446 19.8473 6.2922 19.9343 6.31801 20.0325L6.31422 20.0662Z"  />
    <path d="M6.18169 16.9763C6.28374 16.9762 6.38292 17.0097 6.46374 17.0715C6.54455 17.1332 6.60245 17.2197 6.62838 17.3175C6.63218 17.3271 6.63218 17.3379 6.62838 17.3475C6.63592 17.3783 6.63592 17.4104 6.62838 17.4413C6.63097 17.4865 6.62185 17.5317 6.60188 17.5725C6.57598 17.6693 6.51851 17.7549 6.4384 17.8159C6.35829 17.877 6.26004 17.91 6.15898 17.91C6.03475 17.9071 5.91648 17.8567 5.82897 17.7693C5.74145 17.6819 5.6915 17.5643 5.68958 17.4413C5.69003 17.3784 5.70324 17.3163 5.72842 17.2586C5.7536 17.2009 5.79024 17.1488 5.83615 17.1054C5.88206 17.0621 5.93631 17.0283 5.99567 17.0061C6.05503 16.9839 6.11829 16.9737 6.18169 16.9763Z"  />
    <path d="M6.87445 14.82C6.8764 14.6963 6.92688 14.5782 7.0152 14.4907C7.10352 14.4032 7.22275 14.3532 7.34764 14.3513C7.45003 14.3521 7.54928 14.3864 7.63003 14.4487C7.71078 14.5111 7.76852 14.5981 7.79433 14.6963V14.73C7.80005 14.7597 7.80005 14.7903 7.79433 14.82C7.79727 14.8653 7.78813 14.9106 7.76783 14.9513C7.74012 15.0467 7.68204 15.1308 7.60224 15.1909C7.52244 15.251 7.42518 15.284 7.32492 15.285C7.20437 15.2784 7.09084 15.2267 7.00724 15.1404C6.92363 15.0541 6.87618 14.9396 6.87445 14.82Z"  />
    <path d="M7.72998 11.7975C7.73097 11.6745 7.78074 11.5568 7.86856 11.4698C7.95637 11.3828 8.07519 11.3335 8.19938 11.3325C8.3016 11.3318 8.4011 11.3651 8.48204 11.4269C8.56299 11.4888 8.62073 11.5756 8.64607 11.6737C8.64933 11.6848 8.64933 11.6965 8.64607 11.7075C8.65513 11.7368 8.65513 11.7682 8.64607 11.7975C8.64938 11.8428 8.64022 11.8882 8.61957 11.9287C8.59168 12.0248 8.53304 12.1093 8.45247 12.1695C8.37191 12.2297 8.27379 12.2623 8.17288 12.2625C8.05367 12.2541 7.94201 12.2016 7.85999 12.1155C7.77797 12.0294 7.73157 11.9159 7.72998 11.7975Z"  />
    <path d="M8.88834 17.9663C8.99008 17.9658 9.08903 17.9992 9.16933 18.061C9.24964 18.1229 9.30666 18.2097 9.33124 18.3075C9.3345 18.3185 9.3345 18.3302 9.33124 18.3413C9.34061 18.3718 9.34061 18.4044 9.33124 18.435C9.336 18.4792 9.32674 18.5238 9.30474 18.5625C9.27815 18.6586 9.22036 18.7433 9.14032 18.8036C9.06027 18.864 8.96241 18.8965 8.86184 18.8963C8.7964 18.9021 8.73045 18.8943 8.6682 18.8735C8.60595 18.8527 8.54876 18.8193 8.50027 18.7753C8.45177 18.7314 8.41305 18.678 8.38655 18.6184C8.36006 18.5588 8.34637 18.4945 8.34637 18.4294C8.34637 18.3643 8.36006 18.2999 8.38655 18.2404C8.41305 18.1808 8.45177 18.1274 8.50027 18.0834C8.54876 18.0395 8.60595 18.0061 8.6682 17.9853C8.73045 17.9644 8.7964 17.9567 8.86184 17.9625L8.88834 17.9663Z"  />
    <path d="M11.9508 22.2525L11.701 19.425C11.489 17.0375 11.2757 14.6487 11.0612 12.2587C10.9174 10.6612 10.9552 8.91749 10.6221 7.34249C10.448 6.51749 9.865 6.47249 9.16847 6.47249H3.40696C3.13062 6.47249 2.83914 6.44999 2.56658 6.47249C2.05933 6.49499 1.60885 6.63749 1.45743 7.25999C1.36709 7.81073 1.31649 8.36713 1.30601 8.92499C1.21264 9.94499 1.12053 10.965 1.02967 11.985C0.805068 14.3775 0.588034 16.7712 0.37857 19.1662C0.265005 20.3925 -0.0605468 21.7912 0.0265194 23.0175C0.113586 24.2437 1.76027 23.94 2.67636 23.94H7.74135C8.85806 23.94 10.0732 24.0787 11.1824 23.94C12.1931 23.8087 12.0152 22.9612 11.9508 22.2525ZM9.15333 21.6487H2.88078C2.66456 21.6493 2.45055 21.6056 2.25215 21.5205C2.05375 21.4353 1.87523 21.3105 1.72777 21.1539C1.5803 20.9973 1.46706 20.8121 1.39514 20.6101C1.32322 20.4082 1.29417 20.1936 1.3098 19.98L1.76406 13.5787C1.78582 13.2834 1.89159 13.0002 2.06913 12.7619C2.24667 12.5237 2.48871 12.3401 2.76721 12.2325L7.94955 10.2375C8.1764 10.1508 8.4204 10.1173 8.66251 10.1394C8.90462 10.1615 9.1383 10.2388 9.34532 10.3651C9.55234 10.4914 9.72711 10.6634 9.85599 10.8676C9.98488 11.0718 10.0644 11.3028 10.0883 11.5425L10.1906 12.5887L10.7167 19.98C10.7323 20.193 10.7035 20.4069 10.632 20.6084C10.5606 20.8099 10.448 20.9946 10.3014 21.1512C10.1547 21.3077 9.97709 21.4326 9.77959 21.5183C9.58209 21.6039 9.36891 21.6483 9.15333 21.6487Z"  />
    <path d="M6.16278 13.26C6.16736 13.3054 6.15813 13.3511 6.13629 13.3912C6.10912 13.487 6.0512 13.5714 5.97128 13.6316C5.89136 13.6918 5.7938 13.7246 5.69338 13.725C5.62794 13.7308 5.562 13.7231 5.49974 13.7022C5.43749 13.6814 5.3803 13.648 5.33181 13.6041C5.28332 13.5601 5.24459 13.5067 5.2181 13.4471C5.1916 13.3876 5.17792 13.3232 5.17792 13.2581C5.17792 13.193 5.1916 13.1287 5.2181 13.0691C5.24459 13.0095 5.28332 12.9561 5.33181 12.9122C5.3803 12.8682 5.43749 12.8348 5.49974 12.814C5.562 12.7932 5.62794 12.7854 5.69338 12.7912C5.79512 12.7908 5.89407 12.8242 5.97438 12.886C6.05469 12.9479 6.1117 13.0347 6.13629 13.1325C6.13832 13.1424 6.13832 13.1526 6.13629 13.1625C6.15361 13.1921 6.16275 13.2258 6.16278 13.26Z"  />
    <path d="M3.53188 14.4937C3.53519 14.5391 3.52603 14.5844 3.50538 14.625C3.47949 14.7218 3.42201 14.8074 3.3419 14.8684C3.26179 14.9294 3.16355 14.9625 3.06248 14.9625C2.93759 14.9606 2.81837 14.9106 2.73005 14.8231C2.64173 14.7356 2.59125 14.6175 2.58929 14.4937C2.59029 14.3701 2.64059 14.2518 2.72922 14.1647C2.81785 14.0776 2.93764 14.0287 3.06248 14.0287C3.16355 14.0287 3.26179 14.0618 3.3419 14.1228C3.42201 14.1839 3.47949 14.2695 3.50538 14.3662C3.52504 14.4058 3.53416 14.4497 3.53188 14.4937Z"  />
    <path d="M5.53062 15.5587C5.53356 15.604 5.52442 15.6493 5.50412 15.69C5.47682 15.7854 5.41875 15.8693 5.33876 15.9289C5.25878 15.9885 5.1613 16.0205 5.06122 16.02C4.94351 16.0095 4.83402 15.9558 4.75427 15.8694C4.67453 15.783 4.63031 15.6702 4.63031 15.5531C4.63031 15.436 4.67453 15.3232 4.75427 15.2368C4.83402 15.1504 4.94351 15.0967 5.06122 15.0862C5.16327 15.0862 5.26245 15.1197 5.34326 15.1815C5.42408 15.2432 5.48197 15.3297 5.5079 15.4275C5.50951 15.4387 5.50951 15.45 5.5079 15.4612C5.52181 15.492 5.52952 15.5251 5.53062 15.5587Z"  />
    <path d="M8.67252 11.7975C8.67583 11.8428 8.66668 11.8882 8.64603 11.9287C8.61813 12.0248 8.55949 12.1093 8.47893 12.1695C8.39837 12.2297 8.30025 12.2623 8.19934 12.2625C8.08163 12.252 7.97214 12.1983 7.8924 12.1119C7.81265 12.0255 7.76843 11.9127 7.76843 11.7956C7.76843 11.6785 7.81265 11.5657 7.8924 11.4793C7.97214 11.3929 8.08163 11.3392 8.19934 11.3287C8.30156 11.3281 8.40106 11.3613 8.482 11.4232C8.56295 11.485 8.62068 11.5719 8.64603 11.67C8.64929 11.681 8.64929 11.6927 8.64603 11.7037C8.66488 11.7313 8.67418 11.7642 8.67252 11.7975Z"  />
    <path d="M7.82082 14.82C7.82376 14.8653 7.81462 14.9106 7.79432 14.9513C7.76661 15.0467 7.70854 15.1308 7.62874 15.1909C7.54894 15.251 7.45168 15.284 7.35142 15.285C7.22592 15.285 7.10557 15.2356 7.01683 15.1477C6.92809 15.0598 6.87823 14.9406 6.87823 14.8163C6.87823 14.6919 6.92809 14.5727 7.01683 14.4848C7.10557 14.3969 7.22592 14.3475 7.35142 14.3475C7.45381 14.3484 7.55306 14.3826 7.63381 14.445C7.71456 14.5073 7.77231 14.5943 7.79811 14.6925V14.7263C7.812 14.7557 7.81973 14.7876 7.82082 14.82Z"  />
    <path d="M3.69846 18.75C3.7014 18.7953 3.69227 18.8406 3.67196 18.8812C3.64412 18.9763 3.58589 19.0599 3.50603 19.1194C3.42618 19.1789 3.32899 19.2111 3.22906 19.2112C3.11136 19.2008 3.00186 19.1471 2.92212 19.0607C2.84238 18.9743 2.79816 18.8614 2.79816 18.7444C2.79816 18.6273 2.84238 18.5145 2.92212 18.4281C3.00186 18.3417 3.11136 18.288 3.22906 18.2775C3.33162 18.2777 3.43119 18.3117 3.51206 18.3742C3.59294 18.4367 3.65053 18.524 3.67575 18.6225C3.6779 18.6324 3.6779 18.6426 3.67575 18.6525C3.68965 18.6832 3.69737 18.7163 3.69846 18.75Z"  />
    <path d="M6.32937 20.16C6.33231 20.2053 6.32317 20.2506 6.30287 20.2913C6.27627 20.3873 6.21849 20.4721 6.13845 20.5324C6.0584 20.5927 5.96054 20.6253 5.85997 20.625C5.73447 20.625 5.61411 20.5756 5.52537 20.4877C5.43663 20.3998 5.38678 20.2806 5.38678 20.1563C5.38678 20.0319 5.43663 19.9127 5.52537 19.8248C5.61411 19.7369 5.73447 19.6875 5.85997 19.6875C5.96236 19.6883 6.06161 19.7226 6.14236 19.785C6.22311 19.8473 6.28085 19.9343 6.30665 20.0325V20.0625C6.32056 20.0932 6.32827 20.1263 6.32937 20.16Z"  />
    <path d="M6.65486 17.4413C6.65746 17.4865 6.64834 17.5317 6.62837 17.5725C6.60247 17.6693 6.54499 17.7549 6.46488 17.8159C6.38477 17.877 6.28653 17.91 6.18546 17.91C6.06124 17.9071 5.94297 17.8567 5.85545 17.7693C5.76794 17.6819 5.71799 17.5643 5.71606 17.4413C5.71705 17.3182 5.76683 17.2005 5.85464 17.1135C5.94246 17.0265 6.06128 16.9772 6.18546 16.9763C6.28752 16.9763 6.3867 17.0097 6.46751 17.0715C6.54833 17.1332 6.60622 17.2197 6.63215 17.3175C6.63595 17.3272 6.63595 17.3379 6.63215 17.3475C6.64738 17.3764 6.65518 17.4086 6.65486 17.4413Z"  />
    <path d="M9.35773 18.435C9.36249 18.4792 9.35323 18.5238 9.33123 18.5625C9.30463 18.6586 9.24685 18.7433 9.16681 18.8036C9.08676 18.864 8.9889 18.8965 8.88833 18.8963C8.82289 18.9021 8.75694 18.8943 8.69469 18.8735C8.63244 18.8527 8.57525 18.8193 8.52675 18.7753C8.47826 18.7314 8.43954 18.678 8.41304 18.6184C8.38655 18.5588 8.37286 18.4945 8.37286 18.4294C8.37286 18.3643 8.38655 18.2999 8.41304 18.2404C8.43954 18.1808 8.47826 18.1274 8.52675 18.0834C8.57525 18.0395 8.63244 18.0061 8.69469 17.9853C8.75694 17.9644 8.82289 17.9567 8.88833 17.9625C8.99007 17.962 9.08902 17.9954 9.16932 18.0573C9.24963 18.1192 9.30665 18.206 9.33123 18.3038C9.33449 18.3148 9.33449 18.3265 9.33123 18.3375C9.35037 18.3664 9.35966 18.4005 9.35773 18.435Z"  />
    </g>
    <defs>
    <clipPath id="clip0">
    <rect width="12" height="24" fill="white"/>
    </clipPath>
    </defs>
</svg>
