<svg width="28" height="28" viewBox="0 0 28 28" fill="none" xmlns="http://www.w3.org/2000/svg">
    <path d="M14.0073 28.0146C21.7433 28.0146 28.0146 21.7433 28.0146 14.0073C28.0146 6.27129 21.7433 0 14.0073 0C6.27129 0 0 6.27129 0 14.0073C0 21.7433 6.27129 28.0146 14.0073 28.0146Z" fill="#E0E0E0"/>
    <path d="M10.7433 21.5013C10.4945 21.6623 10.2603 21.8087 9.95295 21.8526C10.0993 21.8965 10.231 21.9258 10.3774 21.9697C7.5818 18.9106 6.86461 14.988 7.93309 11.0361C8.44537 9.13332 9.27966 7.20128 10.436 5.59124C10.7726 5.1375 9.99686 4.6984 9.67485 5.15214C6.84997 9.08941 5.47412 14.7977 7.52326 19.3497C7.96236 20.3304 8.54783 21.2232 9.25039 22.0429C9.51385 22.3503 9.7334 22.7454 10.1725 22.7162C10.5238 22.6869 10.8897 22.4527 11.1678 22.2624C11.6508 21.9404 11.2117 21.1793 10.7433 21.5013Z" fill="white"/>
    <path d="M14.7538 10.8019C14.1244 8.41612 12.207 6.32308 10.3042 4.83013C10.0993 4.66913 9.8944 4.66913 9.68949 4.83013C7.59644 6.46944 5.18138 9.03086 5.07893 11.8118C4.97647 14.5782 4.63983 18.0178 6.32305 20.4036C6.82069 21.1208 7.49398 21.6916 8.26973 22.1014C8.70883 22.3356 9.19184 22.5259 9.68949 22.643C10.2164 22.7747 10.7141 22.5405 11.1971 22.3503C11.724 22.1453 11.4898 21.2964 10.9629 21.5013C10.597 21.6477 10.2018 21.838 9.82122 21.7648C9.38212 21.677 8.94302 21.472 8.56246 21.2525C7.94772 20.9012 7.40616 20.4328 7.01097 19.8327C6.23523 18.6764 6.01568 17.2567 5.94249 15.8808C5.88395 14.6221 5.95713 13.3487 5.97177 12.0899C5.97177 10.436 6.90851 8.98695 7.94772 7.75747C8.66492 6.92318 9.4553 6.11816 10.3189 5.44487C10.114 5.44487 9.90904 5.44487 9.70413 5.44487C11.4898 6.85 13.334 8.79668 13.9341 11.0215C14.0659 11.5776 14.9002 11.3435 14.7538 10.8019Z" fill="white"/>
    <path d="M15.5588 22.8625C21.633 22.9504 22.5259 19.1009 22.5259 19.1009C22.9942 11.563 15.8369 10.7287 15.8369 10.7287L15.5734 9.32361L15.2661 10.7287C15.2661 10.7287 8.10872 11.5777 8.57709 19.1009C8.59173 19.0863 9.48457 22.9504 15.5588 22.8625Z" fill="white"/>
    <path d="M15.5588 23.3016C17.6518 23.3163 19.8474 22.9065 21.4574 21.4867C22.0868 20.9305 22.7454 20.0962 22.9357 19.2473C23.126 18.413 22.965 17.3591 22.804 16.5249C22.6283 15.5881 22.2624 14.6806 21.7501 13.8756C20.9305 12.6022 19.701 11.6362 18.3398 11.0215C17.5494 10.6702 16.7005 10.3921 15.8515 10.275C15.9979 10.3774 16.1296 10.4945 16.276 10.597C16.1882 10.1286 16.1004 9.66024 16.0125 9.19187C15.9394 8.7674 15.2514 8.78204 15.1636 9.19187C15.0611 9.66024 14.9587 10.1286 14.8562 10.597C15.0026 10.4945 15.1343 10.3774 15.2807 10.275C13.173 10.5238 11.0507 11.6655 9.74803 13.3341C8.53318 14.8709 7.87453 17.1396 8.15263 19.1009C8.25508 19.862 8.79664 20.5939 9.29429 21.1354C10.8897 22.8333 13.3194 23.3163 15.5588 23.3016C16.1296 23.3016 16.1296 22.4234 15.5588 22.4234C13.6707 22.4381 11.6215 22.1161 10.1871 20.7841C9.70412 20.3304 9.13328 19.6571 9.01619 18.9985C8.72346 17.3884 9.3382 15.3832 10.2749 14.0805C11.0507 13.012 12.1484 12.2217 13.3633 11.7094C13.8024 11.5191 14.2708 11.3727 14.7391 11.2556C14.8855 11.2264 15.0319 11.1971 15.1782 11.1678C15.2661 11.1532 15.4417 11.1239 15.2661 11.1532C15.4563 11.1239 15.6466 11.0361 15.6905 10.8312C15.793 10.3628 15.8954 9.89443 15.9979 9.42605C15.7198 9.42605 15.4271 9.42605 15.149 9.42605C15.2368 9.89443 15.3246 10.3628 15.4124 10.8312C15.4563 11.0361 15.6466 11.1385 15.8369 11.1532C15.632 11.1239 16.1296 11.2117 16.2321 11.2264C16.6273 11.3142 17.0225 11.4313 17.4177 11.5776C18.5886 12.0021 19.6717 12.7047 20.4914 13.6414C21.7208 15.0465 22.116 16.8469 22.1014 18.6764C22.0868 19.3644 21.6916 19.9645 21.2232 20.4621C19.7888 22.0283 17.5787 22.4234 15.5442 22.4088C14.988 22.4088 14.988 23.287 15.5588 23.3016Z" fill="#E0E0E0"/>
    <path d="M10.3189 17.3152C10.3189 17.3152 10.436 14.3147 14.3147 12.8657L10.3189 17.3152Z" fill="white"/>
    <path d="M10.758 17.3152C10.8458 15.4564 12.7486 13.9342 14.4318 13.2901C14.9587 13.0852 14.7245 12.2363 14.1976 12.4412C12.1631 13.2316 9.99685 14.9441 9.87976 17.3152C9.85049 17.8861 10.7287 17.8714 10.758 17.3152Z" fill="#E0E0E0"/>
    <path d="M21.15 21.1647C21.15 21.1647 19.54 17.8422 15.5588 18.2666C11.5776 17.8422 9.96758 21.1647 9.96758 21.1647" fill="white"/>
    <path d="M21.5306 20.9451C21.1939 20.2572 20.6377 19.6425 20.0523 19.1595C18.7057 18.0471 17.2567 17.8275 15.5588 17.8275C13.8609 17.8275 12.4119 18.0471 11.0653 19.1595C10.4799 19.6425 9.92366 20.2572 9.58702 20.9451C9.3382 21.4574 10.0993 21.8965 10.3481 21.3842C10.6116 20.8427 11.0361 20.3597 11.4898 19.9498C11.9728 19.5254 12.529 19.1741 13.1291 18.9545C13.9488 18.6618 14.7099 18.7057 15.5588 18.6911C17.0956 18.6764 18.4422 18.8667 19.6278 19.9352C20.0815 20.345 20.4914 20.828 20.7695 21.3696C21.0183 21.8965 21.7794 21.4574 21.5306 20.9451Z" fill="#E0E0E0"/>
    </svg>
    