<svg width="20" height="19" viewBox="0 0 20 19" fill="none" xmlns="http://www.w3.org/2000/svg">
<path d="M0.717882 9.71788C0.327661 9.32766 0.34443 8.69001 0.754621 8.32084L9.33103 0.602068C9.71134 0.259794 10.2887 0.259794 10.669 0.602068L19.2454 8.32084C19.6556 8.69001 19.6723 9.32766 19.2821 9.71788L19.2071 9.79289C19.0745 9.9255 18.8946 10 18.7071 10C18.3166 10 18 10.3166 18 10.7071V18C18 18.5523 17.5523 19 17 19H13.5C12.9477 19 12.5 18.5523 12.5 18V15.8696C12.5 15.3173 12.0523 14.8696 11.5 14.8696H8.5C7.94772 14.8696 7.5 15.3173 7.5 15.8696V18C7.5 18.5523 7.05229 19 6.5 19H3C2.44772 19 2 18.5523 2 18V10.7071C2 10.3166 1.68342 10 1.29289 10C1.10536 10 0.925501 9.9255 0.792893 9.79289L0.717882 9.71788Z" fill="#000000"/>
<line x1="8" y1="10" x2="12" y2="10" stroke="white" stroke-width="2" stroke-linecap="round" stroke-linejoin="round"/>
</svg>
