<svg width="6" height="8" viewBox="0 0 6 8" fill="none" xmlns="http://www.w3.org/2000/svg">
    <g clip-path="url(#clip0)">
        <path d="M2.49372 5.29914L4.7748 7.76727C5.42705 8.47189 6.44327 7.37797 5.78742 6.66946L3.50633 4.20522C2.85408 3.5006 1.83787 4.59452 2.49372 5.29914Z" fill="#D8412C" />
        <path d="M1.22521 7.76641L3.50629 5.29828C4.15854 4.59366 3.14593 3.49585 2.49368 4.20437L0.212596 6.6686C-0.44326 7.37712 0.572957 8.47103 1.22521 7.76641Z" fill="#D8412C" />
        <path d="M2.4936 1.33143L4.77468 3.79566C5.42693 4.49639 6.44315 3.40637 5.78729 2.70174L3.50621 0.21415C2.85396 -0.490473 1.83774 0.603445 2.4936 1.31196L2.4936 1.33143Z" fill="#D8412C" />
        <path d="M1.22521 3.7956L3.50629 1.33136C4.15854 0.603382 3.14593 -0.471071 2.49368 0.214087L0.212596 2.68221C-0.44326 3.38684 0.572957 4.48465 1.22521 3.77613L1.22521 3.7956Z" fill="#D8412C" />
    </g>
    <defs>
        <clipPath id="clip0">
            <rect width="6" height="8" fill="white" transform="translate(6 8) rotate(-180)" />
        </clipPath>
    </defs>
</svg>
